DEF $T,V=0
CO 1:I.CO/12,2:I.CO/12(OV)
CO 1:A.DTE.DECL,2:A.DTE.DECL(OV)
CO 1:A.DTE.1,2:A.DTE.1(OV)
CO 1:A.DTE.2,2:A.DTE.2(OV)
CO 1:A.DTE.3,2:A.DTE.3(OV)
CO 1:A.DTE.4,2:A.DTE.4(OV)
CO 1:A.DTE.5,2:A.DTE.5(OV)
CO 1:A.UT,2:A.UT(OV)
CO 1:I.ASS.DTE,2:I.ASS.DTE(OV)
CO 1:I.LNK.DTE,2:I.LNK.DTE(OV)
CO 1:I.E.DTE,2:I.E.DTE(OV)
CO 1:O.DTE,2:O.DTE(OV)
CO 1:O.DTE/G,2:O.DTE/G(OV)
CO 1:E.DTEST,2:E.DTEST(OV)
CO 1:O.IN/CMD,2:O.IN/CMD(OV)
DEF $T,V=20
