:207800004CFF7C4C0B7D4C177D4C6D7B4C787B4C857B2050433D2020413D2020583D20206B
:20782000593D2020533D2020503D20284E56524244495A43293D206E78A2FFA0FFC8B9122C
:2078400078200F78C93DD0F5E8E007F00CBDE003207F78E000D0E6F0EFCABDE003A2082A09
:20786000A8A931B002E900200F7898CAD0F148A90D200F78A90A200F786860207F788A4871
:207880004A4A4A4A208878688431290FA8B9F97AA4314C0F7820A178CAE000D0F86020A103
:2078A00078A9204C0F78A93E8532206E78A532200F78A0FF200978C920B03EC90DF04CC9A0
:2078C0001BF0E7C908F009C909F01CC902D0E500C0FFF0E088A908200F78A920200F78A906
:2078E00008200F784CB478A920C83020990003200F78982907D0F0F0BBC9619002E920C87D
:20790000300A990003200F784CB478C8A90D990003200F7860A9074C0F788DE2038EE303E8
:207920008CE403688DE60368A868AA9838E9028DE103B001CA8EE003BA8EE50320157920BE
:207940003678A2FF9A584C4C7920B979A2FF9A20A678A900A885338537A900853C853D20F9
:207960009379A20BDD097BF005CA10F830DE8A4898488A0AAA20857968A868AAF0CEBD2D40
:207980007B30D610D2BD157B8534E8BD157B48A5344860A90085354CAA798AA204063C2616
:2079A0003DCAD0F9053C853CC635B90003A20FC8DDF97AF0E5CA10F860206E78A2FFA90D11
:2079C000E8200F78BD397BD0F76020D379A2FF9A4C4C796C3C00A63CA53D863A853BE633C3
:2079E00060C001D00DA53A090F853CA53B853D4C0C7AA535F063A637F00CCAF021A53CA2F9
:207A000000813A4C7A7A20D6794C1E7AA53A290FF00CC000F04EA53A2907F011D019206E80
:207A200078200C78B02FA53BA63A207B78A920200F78A92D200F78A920200F78C000F02447
:207A4000A200A13A207F7838A53AE53CA53BE53D207A7A90B7A9008537608431A00020F2D1
:207A600079A43160A200A13A297FC97FF004C920B002A92E200F784C477AE63AD002E63BBE
:207A800060A533F04038A53CE53AAAA53DE53BA89033188A653E853C98653F853DA200A1E8
:207AA0003E813CA9FFC63CC53CD002C63DC63EC53ED002C63F38A53EE53AA53FE53B90059A
:207AC000200C7890D860A533D00D60E63AD002E63BE63CD002E63D38A53EE53AA53FE53BBD
:207AE00090E8200C78B0E3A200A13A813C4CCB7AA63CA53D863E853F6030313233343536FB
:207B00003738394142434445460D202E3A3E47494D51525655E079F179D579D579EF7AC999
:207B200079807AC57A597A3578B879917B00FF0102000000000000000036353032204D6F2B
:207B40006E69746F722076310D0A00A5008DF1F8A9FE8DE0F8A97E8DE8F8A5708DF2F88D47
:207B6000F0F8A91F8D17F8A90B8D16F860AD15F82908F0F9AD14F86018AD15F82908F00426
:207B8000AD14F8386048AD15F82910F0F9688D14F860A90D200F78A90A200F78A9008549E1
:207BA00020407CC93AD0F920497C8543854220497C8545186542854220497C854418654207
:207BC000854220497C85481865428542A548D02CA643A00020497C91441865428542C8CA62
:207BE000D0F220497C186542D008A9408D14F84CA07BA94685498D14F84CA07BC901F01BCC
:207C0000A97CA27B20667CA5488549207F78A90D200F78A90A200F784CA07B20497C1865CE
:207C200042F007A97CA2954C667CA549F007A97CA2AE4C667CA97CA2CB20667C20F57C6074
:207C4000200978C91BD0010060A900854A20567C0A0A0A0A854A20407CC93A9002E908E9C2
:207C60002F290F054A60854186409848A000B140F006200F78C8D0F668A8600D0A0D0A55D3
:207C80006E6B6E6F776E207265636F726420747970652024000D0A0D0A42616420726563F5
:207CA0006F726420636865636B73756D21000D0A0D0A55706C6F6164204661696C65640DE6
:207CC0000A41626F7274696E6721000D0A0D0A55706C6F6164205375636365737366756C70
:207CE0002100A9008546200C78B009C646D0F7C647D0F31860A970854720E27CB0F7607895
:207D0000D8A2FF9A204B7B584C4979488A48ADFDF88DFDF868AA684068AA684C1A790000B3
:047D2000000000005F
:00000001FF
