;  STARTPROGRAMM MIT ZEITVERZOEGERUNG
;  FUER BASIC-START
;
.SG P,$4800
LDX #0
M1  LDA $4800
DEX
BNE M1
LDA $9081 ; PIA 6532 AUF ASPI KARTE , BAUD-RATE
ORA #%00000010
STA $9081
LDA $9080
AND #%11111101
STA $9080
LDA #$03
STA $9088
LDA #%00000010 ; 64:1
STA $9088
JMP $4300
;
