ca65 V2.18 - Git 134cf47
Main file   : sbc.asm
Current file: sbc.asm

000000r 1               ;      *= $8002			; create exact 32k bin image
000000r 1               
000000r 1               ;
000000r 1               ; prefill 32k block from $8002-$ffff with 'FF'
000000r 1               ;
000000r 1               ;      .rept 2047
000000r 1               ;         .byte  $ff,$ff,$ff,$ff,$ff,$ff,$ff,$ff,$ff,$ff,$ff,$ff,$ff,$ff,$ff,$ff ;
000000r 1               ;      .next
000000r 1               ;      .byte  $ff,$ff,$ff,$ff,$ff,$ff,$ff,$ff,$ff,$ff,$ff,$ff,$ff,$ff  ;
000000r 1               
000000r 1               ;
000000r 1               ; compile the sections of the OS
000000r 1                  .setcpu "6502"
000000r 1                  .org $7800
007800  1                  .export LOADADDR = *
007800  1               
007800  1                  .include "sbcos.asm"       ; OS
007800  2               ;---------------------------------------------------------------------
007800  2               ;  SBC Firmware V5.1.1, 7-4-13, by Daryl Rictor
007800  2               ;
007800  2               ; ----------------- assembly instructions ----------------------------
007800  2               ;               *=   $E800                ; start of operating system
007800  2               ;Start_OS:         jmp   MonitorBoot         ; easy access to monitor program
007800  2               ;
007800  2               ;
007800  2               ;*********************************************************************
007800  2               ;  local Zero-page variables
007800  2               ;
007800  2               xsav           :=     $30               ; 1 byte
007800  2               ysav           :=     $31               ; 1 byte
007800  2               Prompt         :=     $32               ; 1 byte
007800  2               Linecnt        :=     $33               ; 1 byte
007800  2               Modejmp        :=     $34               ; 1 byte
007800  2               Hexdigcnt      :=     $35               ; 1 byte
007800  2               OPCtxtptr      :=     $36               ; 1 byte
007800  2               Memchr         :=     $37               ; 1 byte
007800  2               ;Startaddr      :=     $38               ; 2 bytes
007800  2               ;Startaddr_H    :=     $39
007800  2               Addrptr        :=     $3a               ; 2 bytes
007800  2               Addrptr_H      :=     $3b
007800  2               Hexdigits      :=     $3c               ; 2 bytes
007800  2               Hexdigits_H    :=     $3d
007800  2               Memptr         :=     $3e               ; 2 bytes
007800  2               Memptr_H       :=     $3f
007800  2               ;
007800  2               ; Local Non-Zero Page Variables
007800  2               ;
007800  2               Buffer         :=     $0300             ; keybd Input Buffer (127 chrs max)
007800  2               PCH            :=     $03e0             ; hold program counter (need PCH next to PCL for Printreg routine)
007800  2               PCL            :=     $03e1             ;  ""
007800  2               ACC            :=     $03e2             ; hold Accumulator (A)
007800  2               XREG           :=     $03e3             ; hold X register
007800  2               YREG           :=     $03e4             ; hold Y register
007800  2               SPtr           :=     $03e5             ; hold stack pointer
007800  2               Preg           :=     $03e6             ; hold status register (P)
007800  2               ;
007800  2                                 .org $7800
007800  2  4C FF 7C     Start_OS:         jmp Reset
007803  2  4C 0B 7D                       jmp Interrupt
007806  2  4C 17 7D                       jmp NMIjump
007809  2  4C 6D 7B     Input_chr:        jmp ACIA1_Input       ; wait for Input character
00780C  2  4C 78 7B     Scan_Input:       jmp ACIA1_Scan        ; scan for Input (no wait), C=1 char, C=0 no character
00780F  2  4C 85 7B     Output:           jmp ACIA1_Output      ; send 1 character
007812  2               ;
007812  2               ;
007812  2               ; *************************************************************************
007812  2               ; kernal commands
007812  2               ; *************************************************************************
007812  2               ; PrintRegCR   - subroutine prints a CR, the register contents, CR, then returns
007812  2               ; PrintReg     - same as PrintRegCR without leading CR
007812  2               ; Print2Byte   - prints AAXX hex digits
007812  2               ; Print1Byte   - prints AA hex digits
007812  2               ; PrintDig     - prints A hex nibble (low 4 bits)
007812  2               ; Print_CR     - prints a CR (ASCII 13)and LF (ASCII 10)
007812  2               ; PrintXSP     - prints # of spaces in X Reg
007812  2               ; Print2SP     - prints 2 spaces
007812  2               ; Print1SP     - prints 1 space
007812  2               ; Input_assem  - Alternate Input prompt for Assember
007812  2               ; Input        - print <CR> and prompt then get a line of Input, store at Buffer
007812  2               ; Input_chr    - get one byte from Input port, waits for Input
007812  2               ; Scan_Input   - Checks for an Input character (no waiting)
007812  2               ; Output       - send one byte to the Output port
007812  2               ; Bell         - send ctrl-g (Bell) to Output port
007812  2               ; Delay        - delay loop
007812  2               ; *************************************************************************
007812  2               ;
007812  2  20 50 43 3D  Regdata: .byte" PC=  A=  X=  Y=  S=  P= (NVRBDIZC)="
007816  2  20 20 41 3D  
00781A  2  20 20 58 3D  
007836  2               ;
007836  2  20 6E 78     PrintReg:         jsr   Print_CR          ; Lead with a CR
007839  2  A2 FF                          ldx   #$ff              ;
00783B  2  A0 FF                          ldy   #$ff              ;
00783D  2  C8           Printreg1:        iny                     ;
00783E  2  B9 12 78                       lda   Regdata,y         ;
007841  2  20 0F 78                       jsr   Output            ;
007844  2  C9 3D                          cmp   #$3D              ; "="
007846  2  D0 F5                          bne   Printreg1         ;
007848  2  E8           Printreg2:        inx                     ;
007849  2  E0 07                          cpx   #$07              ;
00784B  2  F0 0C                          beq   Printreg3         ; done with first 6
00784D  2  BD E0 03                       lda   PCH,x             ;
007850  2  20 7F 78                       jsr   Print1Byte        ;
007853  2  E0 00                          cpx   #$00              ;
007855  2  D0 E6                          bne   Printreg1         ;
007857  2  F0 EF                          beq   Printreg2         ;
007859  2  CA           Printreg3:        dex                     ;
00785A  2  BD E0 03                       lda   PCH,x             ; get Preg
00785D  2  A2 08                          ldx   #$08              ;
00785F  2  2A           Printreg4:        rol                     ;
007860  2  A8                             tay                     ;
007861  2  A9 31                          lda   #$31              ;
007863  2  B0 02                          bcs   Printreg5         ;
007865  2  E9 00                          sbc   #$00              ; clc implied:subtract 1
007867  2  20 0F 78     Printreg5:        jsr   Output            ;
00786A  2  98                             tya                     ;
00786B  2  CA                             dex                     ;
00786C  2  D0 F1                          bne   Printreg4         ;
00786E  2               ; fall into the print cR routine
00786E  2  48           Print_CR:         pha                     ; Save Acc
00786F  2  A9 0D                          lda   #$0D              ; "cr"
007871  2  20 0F 78                       jsr   Output            ; send it
007874  2  A9 0A                          lda   #$0A              ; "lf"
007876  2  20 0F 78                       jsr   Output            ; send it
007879  2  68                             pla                     ; Restore Acc
00787A  2  60                             rts                     ;
00787B  2               
00787B  2  20 7F 78     Print2Byte:       jsr   Print1Byte        ;  prints AAXX hex digits
00787E  2  8A                             txa                     ;
00787F  2  48           Print1Byte:       pha                     ;  prints AA hex digits
007880  2  4A                             lsr                     ;  MOVE UPPER NIBBLE TO LOWER
007881  2  4A                             lsr                     ;
007882  2  4A                             lsr                     ;
007883  2  4A                             lsr                     ;
007884  2  20 88 78                       jsr   PrintDig          ;
007887  2  68                             pla                     ;
007888  2  84 31        PrintDig:         sty   ysav              ;  prints A hex nibble (low 4 bits)
00788A  2  29 0F                          and   #$0F              ;
00788C  2  A8                             tay                     ;
00788D  2  B9 F9 7A                       lda   Hexdigdata,Y      ;
007890  2  A4 31                          ldy   ysav              ;
007892  2  4C 0F 78                       jmp   Output            ;
007895  2  20 A1 78     PrintXSP1:        jsr   Print1SP          ;
007898  2  CA                             dex                     ;
007899  2  E0 00        PrintXSP:         cpx   #$00              ;
00789B  2  D0 F8                          bne   PrintXSP1         ;
00789D  2  60                             rts                     ;
00789E  2  20 A1 78     Print2SP:         jsr   Print1SP          ; print 2 SPACES
0078A1  2  A9 20        Print1SP:         lda   #$20              ; print 1 SPACE
0078A3  2  4C 0F 78                       jmp   Output            ;
0078A6  2               ;
0078A6  2  A9 3E        Input:            lda   #$3E              ; Monitor Prompt ">"
0078A8  2  85 32                          sta   Prompt            ; save prompt chr
0078AA  2  20 6E 78     Input1:           jsr   Print_CR          ; New Line
0078AD  2  A5 32                          lda   Prompt            ; get prompt
0078AF  2  20 0F 78                       jsr   Output            ; Print Prompt
0078B2  2  A0 FF                          ldy   #$ff              ; pointer
0078B4  2  20 09 78     InputWait:        jsr   Input_chr         ; get a character
0078B7  2  C9 20                          cmp   #$20              ; is ctrl char?
0078B9  2  B0 3E                          bcs   InputSave         ; no, echo chr
0078BB  2  C9 0D                          cmp   #$0d              ; cr
0078BD  2  F0 4C                          beq   InputDone         ; done
0078BF  2  C9 1B                          cmp   #$1B              ; esc
0078C1  2  F0 E7                          beq   Input1            ; cancel and new line
0078C3  2  C9 08                          cmp   #$08              ; bs
0078C5  2  F0 09                          beq   backspace         ;
0078C7  2  C9 09                          cmp   #$09              ; TAB key
0078C9  2  F0 1C                          beq   tabkey            ;
0078CB  2  C9 02                          cmp   #$02              ; Ctrl-B
0078CD  2  D0 E5                          bne   InputWait         ; Ignore other codes
0078CF  2  00                             brk                     ; Force a keyboard Break cmd
0078D0  2  C0 FF        backspace:        cpy   #$ff              ;
0078D2  2  F0 E0                          beq   InputWait         ; nothing to do
0078D4  2  88                             dey                     ; remove last char
0078D5  2  A9 08                          lda   #$08              ; backup one space
0078D7  2  20 0F 78                       jsr   Output            ;
0078DA  2  A9 20                          lda   #$20              ; Print space (destructive BS)
0078DC  2  20 0F 78                       jsr   Output            ;
0078DF  2  A9 08                          lda   #$08              ; backup one space
0078E1  2  20 0F 78                       jsr   Output            ;
0078E4  2  4C B4 78                       jmp   InputWait         ; ready for next key
0078E7  2  A9 20        tabkey:           lda   #$20              ; convert tab to space
0078E9  2  C8                             iny                     ; move cursor
0078EA  2  30 20                          bmi   InputTooLong      ; line too long?
0078EC  2  99 00 03                       sta   Buffer,y          ; no, save space in Buffer
0078EF  2  20 0F 78                       jsr   Output            ; print the space too
0078F2  2  98                             tya                     ; test to see if tab is on multiple of 8
0078F3  2  29 07                          and   #$07              ; mask remainder of cursor/8
0078F5  2  D0 F0                          bne   tabkey            ; not done, add another space
0078F7  2  F0 BB                          beq   InputWait         ; done.
0078F9  2  C9 61        InputSave:        cmp   #$61              ;   ucase
0078FB  2  90 02                          bcc   InputSave1        ;
0078FD  2  E9 20                          sbc   #$20              ;
0078FF  2  C8           InputSave1:       iny                     ;
007900  2  30 0A                          bmi   InputTooLong      ; get next char (up to 127)
007902  2  99 00 03                       sta   Buffer,y          ;
007905  2  20 0F 78                       jsr   Output            ; OutputCharacter
007908  2  4C B4 78                       jmp   InputWait         ;
00790B  2  C8           InputDone:        iny                     ;
00790C  2  A9 0D        InputTooLong:     lda   #$0d              ; force CR at end of 128 characters
00790E  2  99 00 03                       sta   Buffer,y          ;
007911  2  20 0F 78                       jsr   Output            ;
007914  2               ;                 lda   #$0a              ; lf Char
007914  2               ;                 jsr   Output            ;
007914  2  60                             rts                     ;
007915  2               ;
007915  2  A9 07        Bell:             lda  #$07               ; Ctrl G Bell
007917  2  4C 0F 78                       jmp  Output             ;
00791A  2               ;
00791A  2  8D E2 03     BRKroutine:       sta   ACC               ; save A    Monitor"s break handler
00791D  2  8E E3 03                       stx   XREG              ; save X
007920  2  8C E4 03                       sty   YREG              ; save Y
007923  2  68                             pla                     ;
007924  2  8D E6 03                       sta   Preg              ; save P
007927  2  68                             pla                     ; PCL
007928  2  A8                             tay
007929  2  68                             pla                     ; PCH
00792A  2  AA                             tax
00792B  2  98                             tya
00792C  2  38                             sec                     ;
00792D  2  E9 02                          sbc   #$02              ;
00792F  2  8D E1 03                       sta   PCL               ; backup to BRK cmd
007932  2  B0 01                          bcs   Brk2              ;
007934  2  CA                             dex                     ;
007935  2  8E E0 03     Brk2:             stx   PCH               ; save PC
007938  2  BA                             tsx                     ; get stack pointer
007939  2  8E E5 03                       stx   SPtr              ; save stack pointer
00793C  2  20 15 79                       jsr   Bell              ; Beep speaker
00793F  2  20 36 78                       jsr   PrintReg          ; dump register contents
007942  2  A2 FF                          ldx   #$FF              ;
007944  2  9A                             txs                     ; clear stack
007945  2  58                             cli                     ; enable interrupts again
007946  2  4C 4C 79                       jmp   Monitor           ; start the monitor
007949  2               
007949  2               ;*************************************************************************
007949  2               ;
007949  2               ;  Monitor Program
007949  2               ;
007949  2               ;**************************************************************************
007949  2               MonitorBoot:
007949  2                                 ;jsr   Bell              ; beep ready
007949  2  20 B9 79                       jsr   Version           ;
00794C  2               SYSjmp:  ; Added for ehBASIC
00794C  2  A2 FF        Monitor:          ldx   #$FF              ;
00794E  2  9A                             txs                           ;  Init the stack
00794F  2  20 A6 78                       jsr   Input             ;  line Input
007952  2  A9 00                          lda   #$00              ;
007954  2  A8                             tay                     ;  set to 1st character in line
007955  2  85 33                          sta   Linecnt           ; normal list vs range list
007957  2  85 37        Mon01:            sta   Memchr            ;
007959  2  A9 00        Mon02:            lda   #$00              ;
00795B  2  85 3C                          sta   Hexdigits         ;  holds parsed hex
00795D  2  85 3D                          sta   Hexdigits+1       ;
00795F  2  20 93 79                       jsr   ParseHexDig       ;  Get any Hex chars
007962  2  A2 0B                          ldx   #CmdCount         ;  get # of cmds currently used
007964  2  DD 09 7B     Mon08:            cmp   CmdAscii,X        ;  is non hex cmd chr?
007967  2  F0 05                          beq   Mon09             ;  yes x= cmd number
007969  2  CA                             dex                     ;
00796A  2  10 F8                          bpl   Mon08             ;
00796C  2  30 DE                          bmi   Monitor           ;  no
00796E  2  8A           Mon09:            txa
00796F  2  48                             pha
007970  2  98                             tya
007971  2  48                             pha
007972  2  8A                             txa                     ;
007973  2  0A                             asl                     ;  ptr * 2
007974  2  AA                             tax                     ;
007975  2  20 85 79                       jsr   Mon10             ;  Execute cmd
007978  2  68                             pla
007979  2  A8                             tay
00797A  2  68                             pla
00797B  2  AA                             tax
00797C  2  F0 CE                          beq   Monitor           ;  done
00797E  2  BD 2D 7B                       lda   Cmdseccode,X      ;
007981  2  30 D6                          bmi   Mon02             ;
007983  2  10 D2                          bpl   Mon01             ;
007985  2               Mon10:
007985  2  BD 15 7B                       lda   Cmdjmptbl,X
007988  2  85 34                          sta   Modejmp
00798A  2  E8                             inx
00798B  2  BD 15 7B                       lda   Cmdjmptbl,X
00798E  2  48                             pha
00798F  2  A5 34                          lda   Modejmp
007991  2  48                             pha
007992  2  60                             rts
007993  2               ;                 jmp   (Cmdjmptbl,X)     ;
007993  2               ;--------------- Routines used by the Monitor commands ----------------------
007993  2  A9 00        ParseHexDig:      lda   #$00
007995  2  85 35                          sta   Hexdigcnt         ;  cntr
007997  2  4C AA 79                       jmp   ParseHex05        ;
00799A  2  8A           ParseHex03:       txa                     ;  parse hex dig
00799B  2  A2 04                          ldx   #$04              ;
00799D  2  06 3C        ParseHex04:       asl   Hexdigits         ;
00799F  2  26 3D                          rol   Hexdigits+1       ;
0079A1  2  CA                             dex                     ;
0079A2  2  D0 F9                          bne   ParseHex04        ;
0079A4  2  05 3C                          ora   Hexdigits         ;
0079A6  2  85 3C                          sta   Hexdigits         ;
0079A8  2  C6 35                          dec   Hexdigcnt         ;
0079AA  2  B9 00 03     ParseHex05:       lda   Buffer,Y          ;
0079AD  2  A2 0F                          ldx   #$0F              ;   is hex chr?
0079AF  2  C8                             iny                     ;
0079B0  2  DD F9 7A     ParseHex07:       cmp   Hexdigdata,X      ;
0079B3  2  F0 E5                          beq   ParseHex03        ;   yes
0079B5  2  CA                             dex                     ;
0079B6  2  10 F8                          bpl   ParseHex07        ;
0079B8  2  60                             rts                     ; Stored in Hexdigits if HexDigCnt <> 0
0079B9  2               ;
0079B9  2  20 6E 78     Version:          jsr   Print_CR          ;
0079BC  2  A2 FF                          ldx   #$FF              ; set txt pointer
0079BE  2  A9 0D                          lda   #$0d              ;
0079C0  2  E8           PortReadyMsg:     inx                     ;
0079C1  2  20 0F 78                       jsr   Output            ; put character to Port
0079C4  2  BD 39 7B                       lda   Porttxt,x         ; get message text
0079C7  2  D0 F7                          bne   PortReadyMsg      ;
0079C9  2  60                             rts                     ;
0079CA  2               
0079CA  2  20 D3 79     Excute_cmd:       jsr   exe1              ;
0079CD  2  A2 FF                          ldx   #$FF              ; reset stack
0079CF  2  9A                             txs                     ;
0079D0  2  4C 4C 79                       jmp   Monitor           ;
0079D3  2  6C 3C 00     exe1:             jmp   (Hexdigits)       ;
0079D6  2               ;
0079D6  2  A6 3C        DOT_cmd:          ldx   Hexdigits         ; move address to Addrptr
0079D8  2  A5 3D                          lda   Hexdigits+1       ;
0079DA  2  86 3A                          stx   Addrptr           ;
0079DC  2  85 3B                          sta   Addrptr+1         ;
0079DE  2  E6 33                          inc   Linecnt           ; range list command
0079E0  2  60                             rts                     ;
0079E1  2               ;
0079E1  2  C0 01        CR_cmd:           cpy   #$01              ;
0079E3  2  D0 0D                          bne   SP_cmd            ;
0079E5  2  A5 3A                          lda   Addrptr           ; CR alone - move Addrptr to Hexdigits
0079E7  2  09 0F                          ora   #$0F              ;  to simulate entering an address
0079E9  2  85 3C                          sta   Hexdigits         ; *** change 07 to 0f for 16 byte/line
0079EB  2  A5 3B                          lda   Addrptr+1         ;
0079ED  2  85 3D                          sta   Hexdigits+1       ;
0079EF  2  4C 0C 7A                       jmp   SP_cmd2           ;
0079F2  2  A5 35        SP_cmd:           lda   Hexdigcnt         ; Space command entry
0079F4  2  F0 63                          beq   SP_cmd5           ; any digits to process? no - done
0079F6  2  A6 37                          ldx   Memchr            ; yes - is sec cmd code 0 ? yes -
0079F8  2  F0 0C                          beq   SP_cmd1           ; yes -
0079FA  2  CA                             dex                     ; Is sec cmd = 1?
0079FB  2  F0 21                          beq   SP_cmd3           ;       yes - is sec cmd code 1 ?
0079FD  2  A5 3C                          lda   Hexdigits         ;             no - ":" cmd processed
0079FF  2  A2 00                          ldx   #$00
007A01  2  81 3A                          sta   (Addrptr,x)       ;
007A03  2  4C 7A 7A                       jmp   Inc_Addrptr       ; set to next address and return
007A06  2  20 D6 79     SP_cmd1:          jsr   DOT_cmd           ; sec dig = 0  move address to Addrptr
007A09  2  4C 1E 7A                       jmp   SP_cmd3           ;
007A0C  2  A5 3A        SP_cmd2:          lda   Addrptr           ; CR cmd entry
007A0E  2  29 0F                          and   #$0F              ; *** changed 07 to 0F for 16 bytes/line
007A10  2  F0 0C                          beq   SP_cmd3           ; if 16, print new line
007A12  2  C0 00                          cpy   #$00              ; if TXT cmd, don"t print the - or spaces between chrs
007A14  2  F0 4E                          beq   TXT_Cmd1          ;
007A16  2  A5 3A                          lda   Addrptr           ; CR cmd entry
007A18  2  29 07                          and   #$07              ; if 8, print -
007A1A  2  F0 11                          beq   SP_cmd33          ;
007A1C  2  D0 19                          bne   SP_cmd4           ; else print next byte
007A1E  2  20 6E 78     SP_cmd3:          jsr   Print_CR          ; "." cmd - display address and data
007A21  2  20 0C 78                       jsr   Scan_Input        ; see if brk requested
007A24  2  B0 2F                          bcs   SP_brk            ; if so, stop
007A26  2  A5 3B                          lda   Addrptr+1         ; print address
007A28  2  A6 3A                          ldx   Addrptr           ;
007A2A  2  20 7B 78                       jsr   Print2Byte        ;
007A2D  2  A9 20        SP_cmd33:         lda   #$20              ; " " print 1 - 16 bytes of data
007A2F  2  20 0F 78                       jsr   Output            ;
007A32  2  A9 2D                          lda   #$2D              ; "-"
007A34  2  20 0F 78                       jsr   Output            ;
007A37  2  A9 20        SP_cmd4:          lda   #$20              ; " "
007A39  2  20 0F 78                       jsr   Output            ;
007A3C  2  C0 00                          cpy   #$00              ;
007A3E  2  F0 24                          beq   TXT_Cmd1          ;
007A40  2  A2 00                          ldx   #$00              ;
007A42  2  A1 3A                          lda   (Addrptr,x)       ;
007A44  2  20 7F 78                       jsr   Print1Byte        ;
007A47  2  38           SP_cmd44:         sec                     ;  checks if range done
007A48  2  A5 3A                          lda   Addrptr           ;
007A4A  2  E5 3C                          sbc   Hexdigits         ;
007A4C  2  A5 3B                          lda   Addrptr+1         ;
007A4E  2  E5 3D                          sbc   Hexdigits+1       ;
007A50  2  20 7A 7A                       jsr   Inc_Addrptr       ;
007A53  2  90 B7                          bcc   SP_cmd2           ; loop until range done
007A55  2  A9 00        SP_brk:           lda   #$00
007A57  2  85 37                          sta   Memchr            ; reset sec cmd code
007A59  2  60           SP_cmd5:          rts                     ; done or no digits to process
007A5A  2               ;
007A5A  2  84 31        TXT_cmd:          sty   ysav              ;
007A5C  2  A0 00                          ldy   #$00              ;
007A5E  2  20 F2 79                       jsr   SP_cmd            ;
007A61  2  A4 31                          ldy   ysav              ;
007A63  2  60                             rts                     ;
007A64  2  A2 00        TXT_Cmd1:         ldx   #$00
007A66  2  A1 3A                          lda   (Addrptr,x)       ;
007A68  2  29 7F                          and   #$7F              ;
007A6A  2  C9 7F                          cmp   #$7F              ;
007A6C  2  F0 04                          beq   TXT_Cmd2          ;
007A6E  2  C9 20                          cmp   #$20              ; " "
007A70  2  B0 02                          bcs   TXT_Cmd3          ;
007A72  2  A9 2E        TXT_Cmd2:         lda   #$2E              ; "." use "." if not printable char
007A74  2  20 0F 78     TXT_Cmd3:         jsr   Output            ;
007A77  2  4C 47 7A                       jmp   SP_cmd44          ;
007A7A  2               ;
007A7A  2  E6 3A        Inc_Addrptr:      inc   Addrptr           ;  increments Addrptr
007A7C  2  D0 02                          bne   Inc_addr1         ;
007A7E  2  E6 3B                          inc   Addrptr+1         ;
007A80  2  60           Inc_addr1:        rts                     ;
007A81  2               ;
007A81  2  A5 33        Insert_Cmd:       lda   Linecnt           ;  "I" cmd code
007A83  2  F0 40                          beq   Insert_3          ; abort if no . cmd entered
007A85  2  38                             sec                     ;
007A86  2  A5 3C                          lda   Hexdigits         ;
007A88  2  E5 3A                          sbc   Addrptr           ;
007A8A  2  AA                             tax                     ;
007A8B  2  A5 3D                          lda   Hexdigits+1       ;
007A8D  2  E5 3B                          sbc   Addrptr+1         ;
007A8F  2  A8                             tay                     ;
007A90  2  90 33                          bcc   Insert_3          ;
007A92  2  18                             clc                     ;
007A93  2  8A                             txa                     ;
007A94  2  65 3E                          adc   Memptr            ;
007A96  2  85 3C                          sta   Hexdigits         ;
007A98  2  98                             tya                     ;
007A99  2  65 3F                          adc   Memptr+1          ;
007A9B  2  85 3D                          sta   Hexdigits+1       ;
007A9D  2  A2 00        Insert_0:         ldx   #$00
007A9F  2  A1 3E                          lda   (Memptr,x)        ;
007AA1  2  81 3C                          sta   (Hexdigits,x)     ;
007AA3  2  A9 FF                          lda   #$FF              ;
007AA5  2  C6 3C                          dec   Hexdigits         ;
007AA7  2  C5 3C                          cmp   Hexdigits         ;
007AA9  2  D0 02                          bne   Insert_1          ;
007AAB  2  C6 3D                          dec   Hexdigits+1       ;
007AAD  2  C6 3E        Insert_1:         dec   Memptr            ;
007AAF  2  C5 3E                          cmp   Memptr            ;
007AB1  2  D0 02                          bne   Insert_2          ;
007AB3  2  C6 3F                          dec   Memptr+1          ;
007AB5  2  38           Insert_2:         sec                     ;
007AB6  2  A5 3E                          lda   Memptr            ;
007AB8  2  E5 3A                          sbc   Addrptr           ;
007ABA  2  A5 3F                          lda   Memptr+1          ;
007ABC  2  E5 3B                          sbc   Addrptr+1         ;
007ABE  2  90 05                          bcc   Insert_3          ;
007AC0  2  20 0C 78                       jsr   Scan_Input        ; see if brk requested
007AC3  2  90 D8                          bcc   Insert_0          ; if so, stop List
007AC5  2  60           Insert_3:         rts                     ;
007AC6  2               ;
007AC6  2  A5 33        Move_cmd:         lda   Linecnt           ; *** any changes to this routine affect EEPROM_WR too!!!
007AC8  2  D0 0D                          bne   Move_cmd3         ; abort if no . cmd was used
007ACA  2  60           Move_brk:         rts                     ;
007ACB  2  E6 3A        Move_cmd1:        inc   Addrptr           ;  increments Addrptr
007ACD  2  D0 02                          bne   Move_cmd2         ;
007ACF  2  E6 3B                          inc   Addrptr+1         ;
007AD1  2  E6 3C        Move_cmd2:        inc   Hexdigits         ;  "M" cmd code
007AD3  2  D0 02                          bne   Move_cmd3         ;
007AD5  2  E6 3D                          inc   Hexdigits+1       ;
007AD7  2  38           Move_cmd3:        sec                     ;  checks if range done
007AD8  2  A5 3E                          lda   Memptr            ;
007ADA  2  E5 3A                          sbc   Addrptr           ;
007ADC  2  A5 3F                          lda   Memptr+1          ;
007ADE  2  E5 3B                          sbc   Addrptr+1         ;
007AE0  2  90 E8                          bcc   Move_brk          ;  exit if range done
007AE2  2  20 0C 78                       jsr   Scan_Input        ; see if brk requested
007AE5  2  B0 E3                          bcs   Move_brk          ;
007AE7  2  A2 00                          ldx   #$00
007AE9  2  A1 3A                          lda   (Addrptr,x)       ;  Moves one byte
007AEB  2  81 3C                          sta   (Hexdigits,x)     ;
007AED  2  4C CB 7A                       jmp   Move_cmd1         ; (zapped after move from eeprom_wr)
007AF0  2               ;
007AF0  2  A6 3C        Dest_cmd:         ldx   Hexdigits         ;  ">" cmd code
007AF2  2  A5 3D                          lda   Hexdigits+1       ;
007AF4  2  86 3E                          stx   Memptr            ;  move address to Memptr
007AF6  2  85 3F                          sta   Memptr+1          ;
007AF8  2  60                             rts                     ;
007AF9  2                                 ;
007AF9  2               ;
007AF9  2               ;-----------DATA TABLES ------------------------------------------------
007AF9  2               ;
007AF9  2  30 31 32 33  Hexdigdata:       .byte "0123456789ABCDEF";hex char table
007AFD  2  34 35 36 37  
007B01  2  38 39 41 42  
007B09  2               ;
007B09  2               CmdCount          := $0b                    ; number of commands to scan for
007B09  2  0D           CmdAscii:         .byte $0D               ; 0 enter    cmd codes
007B0A  2  20                             .byte $20               ; 1 SPACE
007B0B  2  2E                             .byte $2E               ; 2 .
007B0C  2  3A                             .byte $3A               ; 3 :
007B0D  2  3E                             .byte $3E               ; 4 >
007B0E  2  47                             .byte $47               ; 5 g - Go
007B0F  2  49                             .byte $49               ; 6 i - Insert
007B10  2  4D                             .byte $4D               ; 7 m - Move
007B11  2  51                             .byte $51               ; 8 q - Query memory (text dump)
007B12  2  52                             .byte $52               ; 9 r - Registers
007B13  2  56                             .byte $56               ; a v - Version
007B14  2  55                             .byte $55               ; a u - upload
007B15  2               
007B15  2               ;
007B15  2  E0 79        Cmdjmptbl:        .addr CR_cmd-1            ; 0  enter   cmd jmp table
007B17  2  F1 79                          .addr SP_cmd-1            ; 1   space
007B19  2  D5 79                          .addr DOT_cmd-1           ; 2    .
007B1B  2  D5 79                          .addr DOT_cmd-1           ; 3    :
007B1D  2  EF 7A                          .addr Dest_cmd-1          ; 4    >
007B1F  2  C9 79                          .addr Excute_cmd-1        ; 5    g
007B21  2  80 7A                          .addr Insert_Cmd-1        ; 6    i
007B23  2  C5 7A                          .addr Move_cmd-1          ; 7    m
007B25  2  59 7A                          .addr TXT_cmd-1           ; 8    q
007B27  2  35 78                          .addr PrintReg-1          ; 9    r
007B29  2  B8 79                          .addr Version-1           ; a    v
007B2B  2  91 7B                          .addr HexUpLd-1           ; b    u
007B2D  2               ;
007B2D  2  00           Cmdseccode:       .byte $00               ; 0   enter       secondary command table
007B2E  2  FF                             .byte $FF               ; 1   sp
007B2F  2  01                             .byte $01               ; 2   .
007B30  2  02                             .byte $02               ; 3   :
007B31  2  00                             .byte $00               ; 4   >
007B32  2  00                             .byte $00               ; 5   g
007B33  2  00                             .byte $00               ; 6   i
007B34  2  00                             .byte $00               ; 7   m
007B35  2  00                             .byte $00               ; 8   q
007B36  2  00                             .byte $00               ; 9   r
007B37  2  00                             .byte $00               ; a   v
007B38  2  00                             .byte $00               ; a   u
007B39  2               ;
007B39  2               ;
007B39  2  36 35 30 32  Porttxt:          .byte "6502 Monitor v1"
007B3D  2  20 4D 6F 6E  
007B41  2  69 74 6F 72  
007B48  2  0D 0A                          .byte  $0d, $0a
007B4A  2  00                             .byte $00
007B4B  2               ;
007B4B  2               ; *** VERSION Notes ***
007B4B  2               ; 3.5 added the text dump command, "q"
007B4B  2               ; 4.0 reorganized structure, added RAM vectors for chrin, scan_in, and chrout
007B4B  2               ; 4.1 fixed set time routine so 20-23 is correct
007B4B  2               ; 4.2 RST, IRQ, NMI, BRK all jmp ind to 02xx page to allow user prog to control
007B4B  2               ; 4.3 added status register bits to printreg routine
007B4B  2               ; 4.4 refined set time to reduce unneeded sec"s and branches, disp time added CR,
007B4B  2               ;     and added zeromem to the reset routine, ensuring a reset starts fresh every time!
007B4B  2               ;     continued to re-organize - moved monitor"s brk handler into mon area.
007B4B  2               ; 4.5 nop out the jsr Scan_Input in the eeprom write routine to prevent BRK"s
007B4B  2               ; 4.6 added version printout when entering assember to show ? prompt
007B4B  2               ; 4.7 added Lee Davison's Enhanced Basic to ROM Image
007B4B  2               ; 4.9 Added all of the WDC opcodes to the disassembler and mini-assembler
007B4B  2               ; 5.0 Added TAB key support to the Input routine, expands tabs to spaces
007B4B  2               ; 5.1 Added jump table at the start of the monitor to commonly used routines
007B4B  2               ; 5.1.1 Lite Version - removed List and Mini-Assembler & Help
007B4B  2               ;end of file
007B4B  2               
007B4B  1                  .include "ACIA1.asm"   	   ; ACIA init (19200,n,8,1)
007B4B  2               ; ----------------- assembly instructions ----------------------------
007B4B  2               ;
007B4B  2               ; this is a subroutine library only
007B4B  2               ; it must be included in an executable source file
007B4B  2               ;
007B4B  2               ;
007B4B  2               ;*** I/O Locations *******************************
007B4B  2               ; define the i/o address of the ACIA1 chip
007B4B  2               ;*** 6551 CIA ************************
007B4B  2               ;ACIA1dat       :=     $F810
007B4B  2               ;ACIA1Sta       :=     $F811
007B4B  2               ;ACIA1cmd       :=     $F812
007B4B  2               ;ACIA1ctl       :=     $F813
007B4B  2               ACIA1dat       :=     $F814
007B4B  2               ACIA1Sta       :=     $F815
007B4B  2               ACIA1cmd       :=     $F816
007B4B  2               ACIA1ctl       :=     $F817
007B4B  2               VIAMUC_VIAORB   := $F8F0
007B4B  2               VIAMUC_VIAORA   := $F8F1
007B4B  2               VIAMUC_DRB      := $F8F2
007B4B  2               VIAMUC_DRA      := $F8F3
007B4B  2               MUC6522_T1L     := $F8F4
007B4B  2               MUC6522_T1H     := $F8F5
007B4B  2               MUC6522_T1_LatchL:= $F8F6
007B4B  2               MUC6522_T1_LatchH:= $F8F7
007B4B  2               MUC6522_T2L     := $F8F8
007B4B  2               MUC6522_T2H     := $F8F9
007B4B  2               MUC6522_SR      := $F8FA
007B4B  2               MUC6522_ACR     := $F8FB
007B4B  2               MUC6522_PCR     := $F8FC
007B4B  2               MUC6522_IFR     := $F8FD
007B4B  2               MUC6522_IER     := $F8FE
007B4B  2               MUC6522_ORA     := $F8FF
007B4B  2               OUTMAP_F8E0     := $F8E0
007B4B  2               OUTUMAP_F8E8    := $F8E8
007B4B  2               ;***********************************************************************
007B4B  2               ; 6551 I/O Support Routines
007B4B  2               ;
007B4B  2               Per_init:
007B4B  2  A5 00                 lda $00
007B4D  2  8D F1 F8              sta VIAMUC_VIAORA
007B50  2  A9 FE                 lda #$FE
007B52  2  8D E0 F8              sta OUTMAP_F8E0
007B55  2  A9 7E                 lda #$7E
007B57  2  8D E8 F8              sta OUTUMAP_F8E8         ; User 0
007B5A  2                        ;lda $FF
007B5A  2                        ;sta VIAMUC_VIAORA
007B5A  2  A5 70                 lda $70
007B5C  2  8D F2 F8              sta VIAMUC_DRB
007B5F  2  8D F0 F8              sta VIAMUC_VIAORB
007B62  2                        ;lda $ff
007B62  2                        ;sta VIAMUC_DRA      ;PORTA all Output
007B62  2                        ;lda #$C0
007B62  2                        ;sta MUC6522_ACR  ;T1 Free Running Mode, Output to PB7
007B62  2                        ;lda #$0E
007B62  2                        ;sta MUC6522_T1L
007B62  2                        ;lda #$27
007B62  2                        ;sta MUC6522_T1H
007B62  2                        ;lda #$82
007B62  2                        ;sta MUC6522_IER
007B62  2               ACIA1portset:
007B62  2  A9 1F                       lda #$1f               ; 1E - 9k6, 1F - 19.2K/8/1
007B64  2  8D 17 F8                    sta ACIA1ctl           ; control reg
007B67  2                              ;lda #$10
007B67  2                              ;sta ACIA1Sta
007B67  2  A9 0B                       lda #$0B               ; N parity/echo off/rx int off/ dtr active low
007B69  2                              ;lda #$09               ; N parity/echo off/rx int off/ dtr active low/ RX Interrupt
007B69  2  8D 16 F8                    sta ACIA1cmd           ; command reg
007B6C  2  60                          rts                      ; done
007B6D  2               ;
007B6D  2               ; input chr from ACIA1 (waiting)
007B6D  2               ;
007B6D  2               
007B6D  2               ACIA1_Input:
007B6D  2  AD 15 F8                    lda   ACIA1Sta           ; Serial port status
007B70  2  29 08                       and   #$08               ; is recvr full
007B72  2  F0 F9                       beq   ACIA1_Input        ; no char to get
007B74  2  AD 14 F8                    lda   ACIA1dat           ; get chr
007B77  2  60                          rts                      ;
007B78  2               ;
007B78  2               ; non-waiting get character routine
007B78  2               ;
007B78  2               
007B78  2  18           ACIA1_Scan:    clc
007B79  2  AD 15 F8                    lda   ACIA1Sta           ; Serial port status
007B7C  2  29 08                       and   #$08               ; mask rcvr full bit
007B7E  2  F0 04                       beq   ACIA1_scan2
007B80  2  AD 14 F8                    lda   ACIA1dat           ; get chr
007B83  2  38           	      sec
007B84  2  60           ACIA1_scan2:   rts
007B85  2               ;
007B85  2               ; output to OutPut Port
007B85  2               ;
007B85  2               
007B85  2  48           ACIA1_Output:  PHA                      ; save registers
007B86  2  AD 15 F8     ACIA1_Out1:    lda   ACIA1Sta           ; serial port status
007B89  2  29 10                       and   #$10               ; is tx buffer empty
007B8B  2  F0 F9                       beq   ACIA1_Out1         ; no
007B8D  2  68                          pla                      ; get chr
007B8E  2  8D 14 F8                    sta   ACIA1dat           ; put character to Port
007B91  2  60                          rts                      ; done
007B92  2               ;
007B92  2               ;end of file
007B92  2               
007B92  1                  .include "upload.asm"        ; $FA00  Intel Hex & Xmodem-CRC uploader
007B92  2               ; upload.asm   (hooked into SbcOS at $fa00-feff)
007B92  2               ; By Daryl Rictor & Ross Archer  Aug 2002
007B92  2               ;
007B92  2               ; 21st century code for 20th century CPUs (tm?)
007B92  2               ;
007B92  2               ; A simple file transfer program to allow upload from a serial
007B92  2               ; port to the SBC.
007B92  2               ; As soon as the receiver sees an Intel Hex
007B92  2               ; character ':' coming in, it aborts the XMODEM-CRC upload attempt and
007B92  2               ; tries to accept Intel Hex instead.  This is the format used natively
007B92  2               ; by a lot of generic tools such as TASM.
007B92  2               
007B92  2               ; Note: testing shows that no end-of-line delay is required for Intel Hex
007B92  2               ; uploads, but in case your circumstances differ and you encounter
007B92  2               ; error indications from a download (especially if you decided to run the
007B92  2               ; controller under 1 Mhz), adding a 10-50 mS delay after each line is
007B92  2               ; harmless and will ensure no problems even at low clock speeds
007B92  2               ;
007B92  2               ;
007B92  2               ; Style conventions being tried on this file for possible future adoption:
007B92  2               ; 1. Constants known at assembly time are ALL CAPS
007B92  2               ; 2. Variables are all lower-case, with underscores used as the word separator
007B92  2               ; 3. Labels are PascalStyleLikeThis to distinguish from constants and variables
007B92  2               ; 4. Old labels from external modules are left alone.  We may want
007B92  2               ;    to adopt these conventions and retrofit old source later.
007B92  2               ; 5. Op-codes are lower-case
007B92  2               ; 6. Comments are free-style but ought to line up with similar adjacent comments
007B92  2               
007B92  2               ; zero page variables (Its ok to stomp on the monitor's zp vars)
007B92  2               ;
007B92  2               ;
007B92  2               ;crc               := $38      ; CRC lo byte
007B92  2               ;crch              := $39      ; CRC hi byte
007B92  2               strptr            := $40
007B92  2               strptrh           := $41      ; temporary string pointer (not preserved across calls)
007B92  2               chksum            := $42      ; record checksum accumulator
007B92  2               reclen            := $43      ; record length in bytes
007B92  2               start_lo          := $44
007B92  2               start_hi          := $45
007B92  2               retry             := $46      ; retry counter
007B92  2               retry2            := $47      ; 2nd counter
007B92  2               rectype           := $48
007B92  2               dlfail            := $49      ; flag for upload failure
007B92  2               temp              := $4A      ; save hex value
007B92  2               
007B92  2               ;
007B92  2               ;  tables and constants
007B92  2               ;
007B92  2                                                            ; (uses the Monitor's input buffer)
007B92  2               CR                := 13
007B92  2               LF                := 10
007B92  2               ESC               := 27          ; ESC to exit
007B92  2               
007B92  2               ;****************************************************
007B92  2               ;
007B92  2               ; Intel-hex 6502 upload program
007B92  2               ; Ross Archer, 25 July 2002
007B92  2               ;
007B92  2               ;
007B92  2  A9 0D        HexUpLd:          lda     #CR
007B94  2  20 0F 78                       jsr     Output
007B97  2  A9 0A                          lda     #LF
007B99  2  20 0F 78                       jsr     Output
007B9C  2  A9 00                          lda     #0
007B9E  2  85 49                          sta     dlfail          ;Start by assuming no D/L failure
007BA0  2                                 ;beq     IHex
007BA0  2  20 40 7C     HdwRecs:          jsr     GetSer          ; Wait for start of record mark ':'
007BA3  2  C9 3A                          cmp     #$3A ;":"
007BA5  2  D0 F9                          bne     HdwRecs         ; not found yet
007BA7  2                                                         ; Start of record marker has been found
007BA7  2  20 49 7C     IHex:             jsr     GetHex          ; Get the record length
007BAA  2  85 43                          sta     reclen          ; save it
007BAC  2  85 42                          sta     chksum          ; and save first byte of checksum
007BAE  2  20 49 7C                       jsr     GetHex          ; Get the high part of start address
007BB1  2  85 45                          sta     start_hi
007BB3  2  18                             clc
007BB4  2  65 42                          adc     chksum          ; Add in the checksum
007BB6  2  85 42                          sta     chksum          ;
007BB8  2  20 49 7C                       jsr     GetHex          ; Get the low part of the start address
007BBB  2  85 44                          sta     start_lo
007BBD  2  18                             clc
007BBE  2  65 42                          adc     chksum
007BC0  2  85 42                          sta     chksum
007BC2  2  20 49 7C                       jsr     GetHex          ; Get the record type
007BC5  2  85 48                          sta     rectype         ; & save it
007BC7  2  18                             clc
007BC8  2  65 42                          adc     chksum
007BCA  2  85 42                          sta     chksum
007BCC  2  A5 48                          lda     rectype
007BCE  2  D0 2C                          bne     HdEr1           ; end-of-record
007BD0  2  A6 43                          ldx     reclen          ; number of data bytes to write to memory
007BD2  2  A0 00                          ldy     #0              ; start offset at 0
007BD4  2  20 49 7C     HdLp1:            jsr     GetHex          ; Get the first/next/last data byte
007BD7  2  91 44                          sta     (start_lo),y    ; Save it to RAM
007BD9  2  18                             clc
007BDA  2  65 42                          adc     chksum
007BDC  2  85 42                          sta     chksum          ;
007BDE  2  C8                             iny                     ; update data pointer
007BDF  2  CA                             dex                     ; decrement count
007BE0  2  D0 F2                          bne     HdLp1
007BE2  2  20 49 7C                       jsr     GetHex          ; get the checksum
007BE5  2  18                             clc
007BE6  2  65 42                          adc     chksum
007BE8  2  D0 08                          bne     HdDlF1          ; If failed, report it
007BEA  2                                                         ; Another successful record has been processed
007BEA  2  A9 40                          lda     #$40 ; @ ;"#"       ; Character indicating record OK = '#'
007BEC  2  8D 14 F8                       sta     ACIA1dat        ; write it out but don't wait for Output
007BEF  2  4C A0 7B                       jmp     HdwRecs         ; get next record
007BF2  2  A9 46        HdDlF1:           lda     #$46 ;"F"       ; Character indicating record failure = 'F'
007BF4  2  85 49                          sta     dlfail          ; upload failed if non-zero
007BF6  2  8D 14 F8                       sta     ACIA1dat        ; write it to transmit buffer register
007BF9  2  4C A0 7B                       jmp     HdwRecs         ; wait for next record start
007BFC  2  C9 01        HdEr1:            cmp     #1              ; Check for end-of-record type
007BFE  2  F0 1B                          beq     HdEr2
007C00  2  A9 7C                          lda     #>MsgUnknownRecType
007C02  2  A2 7B                          ldx     #<MsgUnknownRecType
007C04  2  20 66 7C                       jsr     PrintStrAX      ; Warn user of unknown record type
007C07  2  A5 48                          lda     rectype         ; Get it
007C09  2  85 49                          sta     dlfail          ; non-zero --> upload has failed
007C0B  2  20 7F 78                       jsr     Print1Byte      ; print it
007C0E  2  A9 0D                          lda     #CR             ; but we'll let it finish so as not to
007C10  2  20 0F 78                       jsr     Output          ; falsely start a new d/l from existing
007C13  2  A9 0A                          lda     #LF             ; file that may still be coming in for
007C15  2  20 0F 78                       jsr     Output          ; quite some time yet.
007C18  2  4C A0 7B                       jmp     HdwRecs
007C1B  2                                                         ; We've reached the end-of-record record
007C1B  2  20 49 7C     HdEr2:            jsr     GetHex          ; get the checksum
007C1E  2  18                             clc
007C1F  2  65 42                          adc     chksum          ; Add previous checksum accumulator value
007C21  2  F0 07                          beq     HdEr3           ; checksum = 0 means we're OK!
007C23  2  A9 7C                          lda     #>MsgBadRecChksum
007C25  2  A2 95                          ldx     #<MsgBadRecChksum
007C27  2  4C 66 7C                       jmp     PrintStrAX
007C2A  2  A5 49        HdEr3:            lda     dlfail
007C2C  2  F0 07                          beq     HdErOK
007C2E  2                                                         ;A upload failure has occurred
007C2E  2  A9 7C                          lda     #>MsgUploadFail
007C30  2  A2 AE                          ldx     #<MsgUploadFail
007C32  2  4C 66 7C                       jmp     PrintStrAX
007C35  2  A9 7C        HdErOK:           lda     #>MsgUploadOK
007C37  2  A2 CB                          ldx     #<MsgUploadOK
007C39  2  20 66 7C                       jsr     PrintStrAX
007C3C  2                                                         ; Eat final characters so monitor doesn't cope with it
007C3C  2  20 F5 7C                       jsr     Flush           ; flush the input buffer
007C3F  2  60           HdErNX:           rts
007C40  2               ;
007C40  2               ;  subroutines
007C40  2               ;
007C40  2               
007C40  2  20 09 78     GetSer:           jsr     Input_chr      ; get input from Serial Port
007C43  2  C9 1B                          cmp     #ESC            ; check for abort
007C45  2  D0 01                          bne     GSerXit         ; return character if not
007C47  2  00                             brk
007C48  2  60           GSerXit:          rts
007C49  2               
007C49  2  A9 00        GetHex:           lda     #$00
007C4B  2  85 4A                          sta     temp
007C4D  2  20 56 7C                       jsr     GetNibl
007C50  2  0A                             asl     a
007C51  2  0A                             asl     a
007C52  2  0A                             asl     a
007C53  2  0A                             asl     a               ; This is the upper nibble
007C54  2  85 4A                          sta     temp
007C56  2  20 40 7C     GetNibl:          jsr     GetSer
007C59  2                                                         ; Convert the ASCII nibble to numeric value from 0-F:
007C59  2  C9 3A                          cmp     #$3A ;"9"+1     ; See if it's 0-9 or 'A'..'F' (no lowercase yet)
007C5B  2  90 02                          bcc     MkNnh           ; If we borrowed, we lost the carry so 0..9
007C5D  2  E9 08                          sbc     #7+1            ; Subtract off extra 7 (sbc subtracts off one less)
007C5F  2                                                         ; If we fall through, carry is set unlike direct entry at MkNnh
007C5F  2  E9 2F        MkNnh:            sbc     #$2F ;"0"-1     ; subtract off '0' (if carry clear coming in)
007C61  2  29 0F                          and     #$0F            ; no upper nibble no matter what
007C63  2  05 4A                          ora     temp
007C65  2  60                             rts                     ; return with the nibble received
007C66  2               
007C66  2               
007C66  2               
007C66  2               ;Print the string starting at (AX) until we encounter a NULL
007C66  2               ;string can be in RAM or ROM.  It's limited to <= 255 bytes.
007C66  2               ;
007C66  2  85 41        PrintStrAX:       sta     strptr+1
007C68  2  86 40                          stx      strptr
007C6A  2  98                             tya
007C6B  2  48                             pha
007C6C  2  A0 00                          ldy      #0
007C6E  2  B1 40        PrintStrAXL1:     lda     (strptr),y
007C70  2  F0 06                          beq     PrintStrAXX1      ; quit if NULL
007C72  2  20 0F 78                       jsr      Output
007C75  2  C8                             iny
007C76  2  D0 F6                          bne     PrintStrAXL1      ; quit if > 255
007C78  2  68           PrintStrAXX1:     pla
007C79  2  A8                             tay
007C7A  2  60                             rts
007C7B  2               
007C7B  2               ; Checksum messages
007C7B  2               ;
007C7B  2               MsgUnknownRecType:
007C7B  2  0D 0A 0D 0A                    .byte   CR,LF,CR,LF
007C7F  2  55 6E 6B 6E                    .byte   "Unknown record type $"
007C83  2  6F 77 6E 20  
007C87  2  72 65 63 6F  
007C94  2  00                             .byte    0                 ; null-terminate every string
007C95  2  0D 0A 0D 0A  MsgBadRecChksum:  .byte   CR,LF,CR,LF
007C99  2  42 61 64 20                    .byte   "Bad record checksum!"
007C9D  2  72 65 63 6F  
007CA1  2  72 64 20 63  
007CAD  2  00                             .byte   0                  ; Null-terminate
007CAE  2  0D 0A 0D 0A  MsgUploadFail:    .byte   CR,LF,CR,LF
007CB2  2  55 70 6C 6F                    .byte   "Upload Failed",CR,LF
007CB6  2  61 64 20 46  
007CBA  2  61 69 6C 65  
007CC1  2  41 62 6F 72                    .byte   "Aborting!"
007CC5  2  74 69 6E 67  
007CC9  2  21           
007CCA  2  00                             .byte   0               ; null-terminate every string or crash'n'burn
007CCB  2  0D 0A 0D 0A  MsgUploadOK:      .byte   CR,LF,CR,LF
007CCF  2  55 70 6C 6F                    .byte   "Upload Successful!"
007CD3  2  61 64 20 53  
007CD7  2  75 63 63 65  
007CE1  2  00                             .byte   0
007CE2  2               ;
007CE2  2               ; subroutines
007CE2  2               ;
007CE2  2               ;                                            ;
007CE2  2  A9 00        GetByte:          lda      #$00              ; wait for chr input and cycle timing loop
007CE4  2  85 46                          sta      retry             ; set low value of timing loop
007CE6  2  20 0C 78     StartCrcLp:       jsr      Scan_Input        ; get chr from serial port, don't wait
007CE9  2  B0 09                          bcs      GetByte1          ; got one, so exit
007CEB  2  C6 46                          dec      retry             ; no character received, so dec counter
007CED  2  D0 F7                          bne      StartCrcLp        ;
007CEF  2  C6 47                          dec      retry2            ; dec hi byte of counter
007CF1  2  D0 F3                          bne      StartCrcLp        ; look for character again
007CF3  2  18                             clc                        ; if loop times out, CLC, else SEC and return
007CF4  2  60           GetByte1:         rts                        ; with character in "A"
007CF5  2               ;                                            ;
007CF5  2  A9 70        Flush:            lda      #$70              ; flush receive buffer
007CF7  2  85 47                          sta      retry2            ; flush until empty for ~1 sec.
007CF9  2  20 E2 7C     Flush1:           jsr      GetByte           ; read the port
007CFC  2  B0 F7                          bcs      Flush
007CFE  2  60                             rts
007CFF  2               
007CFF  1                  .include "reset.asm"       ; Reset & IRQ handler
007CFF  2               ; ----------------- assembly instructions ----------------------------
007CFF  2               ;
007CFF  2               ;****************************************************************************
007CFF  2               ; Reset, Interrupt, & Break Handlers
007CFF  2               ;****************************************************************************
007CFF  2               ;               *= $FF00             ; put this in last page of ROM
007CFF  2                        ;.org $ff00
007CFF  2                        ;.segment "reset"
007CFF  2               
007CFF  2               ;--------------Reset handler----------------------------------------------
007CFF  2  78           Reset:          SEI                     ; diable interupts
007D00  2  D8                          CLD                     ; clear decimal mode
007D01  2  A2 FF                       LDX   #$FF              ;
007D03  2  9A                          TXS                     ; init stack pointer
007D04  2  20 4B 7B                    jsr   Per_init	       ; init the I/O devices
007D07  2               
007D07  2  58                          CLI                     ; Enable interrupt system
007D08  2  4C 49 79                    JMP  MonitorBoot        ; Monitor for cold reset
007D0B  2               ;
007D0B  2               Interrupt:
007D0B  2  48                          PHA                     ; a
007D0C  2  8A                          TXA  	               ;
007D0D  2  48                          PHA                     ; X
007D0E  2  AD FD F8                    lda     MUC6522_IFR       ; clear interrupt
007D11  2  8D FD F8                    sta     MUC6522_IFR       ; clear interrupt
007D14  2               ;               TSX                     ; get stack pointer
007D14  2               ;               LDA   $0103,X           ; load INT-P Reg off stack
007D14  2               ;               AND   #$10              ; mask BRK
007D14  2               ;               BNE   BrkCmd            ; BRK CMD
007D14  2  68                          PLA                     ; x
007D15  2  AA                          tax                     ;
007D16  2  68                          pla                     ; a
007D17  2  40           NMIjump:        RTI                     ; Null Interrupt return
007D18  2  68           BrkCmd:         pla                     ; X
007D19  2  AA                          tax                     ;
007D1A  2  68                          pla                     ; A
007D1B  2  4C 1A 79                    jmp   BRKroutine        ; patch in user BRK routine
007D1E  2               
007D1E  2               ;
007D1E  2               ;  NMIjmp      =     $FFFA
007D1E  2               ;  RESjmp      =     $FFFC
007D1E  2               ;  INTjmp      =     $FFFE
007D1E  2               
007D1E  2               ;               *=    $FFFA
007D1E  2               ;         .org $fffa
007D1E  2               ;         .segment "vectors"
007D1E  2               ;               .addr NMIjump
007D1E  2               ;               .addr Reset
007D1E  2               ;               .addr Interrupt
007D1E  2               ;end of file
007D1E  2               
007D1E  1               
007D1E  1               
