EESchema Schematic File Version 4
EELAYER 30 0
EELAYER END
$Descr A3 16535 11693
encoding utf-8
Sheet 3 16
Title "CPU 6502 Board"
Date "2020-04-01"
Rev "v0.1"
Comp "Offner Robert"
Comment1 ""
Comment2 ""
Comment3 ""
Comment4 ""
$EndDescr
$Comp
L 65xx:6502 U7
U 1 1 5E84AC45
P 5500 3925
AR Path="/5E84A03F/5E84AC45" Ref="U7"  Part="1" 
AR Path="/5EAB9D7B/5E84AC45" Ref="U?"  Part="1" 
F 0 "U7" H 5150 5475 50  0000 C CNN
F 1 "6502" H 5200 5350 50  0000 C CIB
F 2 "" H 5500 5925 50  0001 C CNN
F 3 "http://www.6502.org/documents/datasheets/mos/mos_6500_mpu_mar_1980.pdf" H 5500 5825 50  0001 C CNN
	1    5500 3925
	1    0    0    -1  
$EndComp
$Comp
L power:+5V #PWR?
U 1 1 5E84C196
P 5500 2125
AR Path="/5E84A03F/5E84C196" Ref="#PWR?"  Part="1" 
AR Path="/5EAB9D7B/5E84C196" Ref="#PWR?"  Part="1" 
F 0 "#PWR?" H 5500 1975 50  0001 C CNN
F 1 "+5V" H 5515 2298 50  0000 C CNN
F 2 "" H 5500 2125 50  0001 C CNN
F 3 "" H 5500 2125 50  0001 C CNN
	1    5500 2125
	1    0    0    -1  
$EndComp
Wire Wire Line
	5500 2125 5500 2150
$Comp
L power:GND #PWR?
U 1 1 5E8502FD
P 5700 2375
AR Path="/5E84A03F/5E8502FD" Ref="#PWR?"  Part="1" 
AR Path="/5EAB9D7B/5E8502FD" Ref="#PWR?"  Part="1" 
F 0 "#PWR?" H 5700 2125 50  0001 C CNN
F 1 "GND" H 5700 2225 50  0000 C CNN
F 2 "" H 5700 2375 50  0001 C CNN
F 3 "" H 5700 2375 50  0001 C CNN
	1    5700 2375
	1    0    0    -1  
$EndComp
$Comp
L Device:C_Small C?
U 1 1 5E850ADB
P 5700 2275
AR Path="/5E84A03F/5E850ADB" Ref="C?"  Part="1" 
AR Path="/5EAB9D7B/5E850ADB" Ref="C?"  Part="1" 
F 0 "C?" H 5792 2321 50  0000 L CNN
F 1 "100n" H 5792 2230 50  0000 L CNN
F 2 "" H 5700 2275 50  0001 C CNN
F 3 "~" H 5700 2275 50  0001 C CNN
	1    5700 2275
	1    0    0    -1  
$EndComp
Wire Wire Line
	5700 2175 5700 2150
Wire Wire Line
	5700 2150 5500 2150
Connection ~ 5500 2150
Wire Wire Line
	5500 2150 5500 2375
$Comp
L power:GND #PWR?
U 1 1 5E851BC0
P 5500 5525
AR Path="/5E84A03F/5E851BC0" Ref="#PWR?"  Part="1" 
AR Path="/5EAB9D7B/5E851BC0" Ref="#PWR?"  Part="1" 
F 0 "#PWR?" H 5500 5275 50  0001 C CNN
F 1 "GND" H 5500 5375 50  0000 C CNN
F 2 "" H 5500 5525 50  0001 C CNN
F 3 "" H 5500 5525 50  0001 C CNN
	1    5500 5525
	1    0    0    -1  
$EndComp
Wire Wire Line
	5500 5525 5500 5500
Wire Wire Line
	5400 5475 5400 5500
Wire Wire Line
	5400 5500 5500 5500
Connection ~ 5500 5500
Wire Wire Line
	5500 5500 5500 5475
$Comp
L 74xx:74LS367 U1
U 1 1 5E8622E4
P 8275 1725
AR Path="/5E84A03F/5E8622E4" Ref="U1"  Part="1" 
AR Path="/5EAB9D7B/5E8622E4" Ref="U?"  Part="1" 
F 0 "U1" H 7900 2350 50  0000 C CNN
F 1 "N8T97N" H 8000 2275 50  0000 C CNN
F 2 "" H 8275 1725 50  0001 C CNN
F 3 "http://www.ti.com/lit/gpn/sn74LS367" H 8275 1725 50  0001 C CNN
	1    8275 1725
	1    0    0    -1  
$EndComp
Wire Wire Line
	8275 800  8275 1025
Connection ~ 8275 800 
$Comp
L Device:C_Small C?
U 1 1 5E8662D8
P 8475 925
AR Path="/5E84A03F/5E8662D8" Ref="C?"  Part="1" 
AR Path="/5EAB9D7B/5E8662D8" Ref="C?"  Part="1" 
F 0 "C?" H 8567 971 50  0000 L CNN
F 1 "22n" H 8567 880 50  0000 L CNN
F 2 "" H 8475 925 50  0001 C CNN
F 3 "~" H 8475 925 50  0001 C CNN
	1    8475 925 
	1    0    0    -1  
$EndComp
Wire Wire Line
	8275 775  8275 800 
Wire Wire Line
	8475 800  8275 800 
$Comp
L power:GND #PWR?
U 1 1 5E867F4A
P 8275 2425
AR Path="/5E84A03F/5E867F4A" Ref="#PWR?"  Part="1" 
AR Path="/5EAB9D7B/5E867F4A" Ref="#PWR?"  Part="1" 
F 0 "#PWR?" H 8275 2175 50  0001 C CNN
F 1 "GND" H 8275 2275 50  0000 C CNN
F 2 "" H 8275 2425 50  0001 C CNN
F 3 "" H 8275 2425 50  0001 C CNN
	1    8275 2425
	1    0    0    -1  
$EndComp
$Comp
L power:+5V #PWR?
U 1 1 5E8662CA
P 8275 775
AR Path="/5E84A03F/5E8662CA" Ref="#PWR?"  Part="1" 
AR Path="/5EAB9D7B/5E8662CA" Ref="#PWR?"  Part="1" 
F 0 "#PWR?" H 8275 625 50  0001 C CNN
F 1 "+5V" H 8290 948 50  0000 C CNN
F 2 "" H 8275 775 50  0001 C CNN
F 3 "" H 8275 775 50  0001 C CNN
	1    8275 775 
	1    0    0    -1  
$EndComp
$Comp
L power:GND #PWR?
U 1 1 5E8662BA
P 8475 1025
AR Path="/5E84A03F/5E8662BA" Ref="#PWR?"  Part="1" 
AR Path="/5EAB9D7B/5E8662BA" Ref="#PWR?"  Part="1" 
F 0 "#PWR?" H 8475 775 50  0001 C CNN
F 1 "GND" H 8475 875 50  0000 C CNN
F 2 "" H 8475 1025 50  0001 C CNN
F 3 "" H 8475 1025 50  0001 C CNN
	1    8475 1025
	1    0    0    -1  
$EndComp
Wire Wire Line
	8475 825  8475 800 
Wire Wire Line
	6100 2725 6425 2725
Wire Wire Line
	6100 2825 6425 2825
Wire Wire Line
	6100 2925 6425 2925
Wire Wire Line
	6100 3025 6425 3025
Wire Wire Line
	6100 3125 6425 3125
Wire Wire Line
	6100 3225 6425 3225
Wire Wire Line
	6100 3325 6425 3325
Wire Wire Line
	6100 3425 6425 3425
Wire Wire Line
	6100 3525 6425 3525
Wire Wire Line
	6100 3625 6425 3625
Wire Wire Line
	6100 3725 6425 3725
Wire Wire Line
	6100 3825 6425 3825
Wire Wire Line
	6100 3925 6425 3925
Wire Wire Line
	6100 4025 6425 4025
Wire Wire Line
	6100 4125 6425 4125
Wire Wire Line
	6100 4225 6425 4225
Wire Wire Line
	6100 4425 6425 4425
Wire Wire Line
	6100 4525 6425 4525
Wire Wire Line
	6100 4625 6425 4625
Wire Wire Line
	6100 4725 6425 4725
Wire Wire Line
	6100 4825 6425 4825
Wire Wire Line
	6100 4925 6425 4925
Wire Wire Line
	6100 5025 6425 5025
Wire Wire Line
	6100 5125 6425 5125
Wire Wire Line
	4575 2725 4900 2725
Wire Wire Line
	4575 3025 4900 3025
Wire Wire Line
	4575 3125 4900 3125
Wire Wire Line
	4575 3225 4900 3225
Wire Wire Line
	4575 3525 4900 3525
Wire Wire Line
	4575 3625 4900 3625
Wire Wire Line
	4575 3925 4900 3925
Wire Wire Line
	4575 4225 4900 4225
Wire Wire Line
	4575 4625 4900 4625
Wire Wire Line
	4575 5125 4900 5125
Text Label 6425 2725 2    50   ~ 0
A0
Text Label 6425 2825 2    50   ~ 0
A1
Text Label 6425 2925 2    50   ~ 0
A2
Text Label 6425 3025 2    50   ~ 0
A3
Text Label 6425 3125 2    50   ~ 0
A4
Text Label 6425 3225 2    50   ~ 0
A5
Text Label 6425 3325 2    50   ~ 0
A6
Text Label 6425 3425 2    50   ~ 0
A7
Text Label 6425 3525 2    50   ~ 0
A8
Text Label 6425 3625 2    50   ~ 0
A9
Text Label 6425 3725 2    50   ~ 0
A10
Text Label 6425 3825 2    50   ~ 0
A11
Text Label 6425 3925 2    50   ~ 0
A12
Text Label 6425 4025 2    50   ~ 0
A13
Text Label 6425 4125 2    50   ~ 0
A14
Text Label 6425 4225 2    50   ~ 0
A15
Text Label 6425 4425 2    50   ~ 0
D0
Text Label 6425 4525 2    50   ~ 0
D1
Text Label 6425 4625 2    50   ~ 0
D2
Text Label 6425 4725 2    50   ~ 0
D3
Text Label 6425 4825 2    50   ~ 0
D4
Text Label 6425 4925 2    50   ~ 0
D5
Text Label 6425 5025 2    50   ~ 0
D6
Text Label 6425 5125 2    50   ~ 0
D7
Text Label 10900 1625 0    50   ~ 0
A13
Text Label 9175 1825 0    50   ~ 0
A6
Wire Wire Line
	7775 2025 7750 2025
Wire Wire Line
	7775 1725 7450 1725
Text Label 10900 1825 0    50   ~ 0
A15
Wire Wire Line
	7775 1425 7450 1425
Text Label 9175 1325 0    50   ~ 0
A9
Wire Wire Line
	7775 1525 7450 1525
Text Label 10900 1325 0    50   ~ 0
A12
Text Label 9175 1425 0    50   ~ 0
A8
Text Label 7450 1425 0    50   ~ 0
A2
Text Label 10900 1725 0    50   ~ 0
A14
Text Label 9175 1625 0    50   ~ 0
A4
Text Label 7450 1325 0    50   ~ 0
A3
Text Label 7450 1525 0    50   ~ 0
A1
Text Label 9175 1725 0    50   ~ 0
A5
Text Label 7450 1625 0    50   ~ 0
A0
Wire Wire Line
	7775 1625 7450 1625
Wire Wire Line
	7775 1825 7450 1825
Text Label 10900 1525 0    50   ~ 0
A11
Text Label 9175 1525 0    50   ~ 0
A7
Wire Wire Line
	7775 1325 7450 1325
$Comp
L 74xx:74LS367 U3
U 1 1 5E8757EE
P 10000 1725
AR Path="/5E84A03F/5E8757EE" Ref="U3"  Part="1" 
AR Path="/5EAB9D7B/5E8757EE" Ref="U?"  Part="1" 
F 0 "U3" H 9625 2350 50  0000 C CNN
F 1 "N8T97N" H 9725 2275 50  0000 C CNN
F 2 "" H 10000 1725 50  0001 C CNN
F 3 "http://www.ti.com/lit/gpn/sn74LS367" H 10000 1725 50  0001 C CNN
	1    10000 1725
	1    0    0    -1  
$EndComp
Wire Wire Line
	9500 2025 9475 2025
Wire Wire Line
	9500 1325 9175 1325
Wire Wire Line
	9500 1625 9175 1625
Wire Wire Line
	9500 1825 9175 1825
Wire Wire Line
	9500 1525 9175 1525
Wire Wire Line
	9500 1725 9175 1725
Wire Wire Line
	10200 825  10200 800 
$Comp
L power:GND #PWR?
U 1 1 5E875804
P 10200 1025
AR Path="/5E84A03F/5E875804" Ref="#PWR?"  Part="1" 
AR Path="/5EAB9D7B/5E875804" Ref="#PWR?"  Part="1" 
F 0 "#PWR?" H 10200 775 50  0001 C CNN
F 1 "GND" H 10200 875 50  0000 C CNN
F 2 "" H 10200 1025 50  0001 C CNN
F 3 "" H 10200 1025 50  0001 C CNN
	1    10200 1025
	1    0    0    -1  
$EndComp
Wire Wire Line
	9500 1425 9175 1425
$Comp
L power:+5V #PWR?
U 1 1 5E875812
P 10000 775
AR Path="/5E84A03F/5E875812" Ref="#PWR?"  Part="1" 
AR Path="/5EAB9D7B/5E875812" Ref="#PWR?"  Part="1" 
F 0 "#PWR?" H 10000 625 50  0001 C CNN
F 1 "+5V" H 10015 948 50  0000 C CNN
F 2 "" H 10000 775 50  0001 C CNN
F 3 "" H 10000 775 50  0001 C CNN
	1    10000 775 
	1    0    0    -1  
$EndComp
$Comp
L power:GND #PWR?
U 1 1 5E87581F
P 10000 2425
AR Path="/5E84A03F/5E87581F" Ref="#PWR?"  Part="1" 
AR Path="/5EAB9D7B/5E87581F" Ref="#PWR?"  Part="1" 
F 0 "#PWR?" H 10000 2175 50  0001 C CNN
F 1 "GND" H 10000 2275 50  0000 C CNN
F 2 "" H 10000 2425 50  0001 C CNN
F 3 "" H 10000 2425 50  0001 C CNN
	1    10000 2425
	1    0    0    -1  
$EndComp
Wire Wire Line
	10200 800  10000 800 
Wire Wire Line
	10000 775  10000 800 
$Comp
L Device:C_Small C?
U 1 1 5E87582F
P 10200 925
AR Path="/5E84A03F/5E87582F" Ref="C?"  Part="1" 
AR Path="/5EAB9D7B/5E87582F" Ref="C?"  Part="1" 
F 0 "C?" H 10292 971 50  0000 L CNN
F 1 "22n" H 10292 880 50  0000 L CNN
F 2 "" H 10200 925 50  0001 C CNN
F 3 "~" H 10200 925 50  0001 C CNN
	1    10200 925 
	1    0    0    -1  
$EndComp
Connection ~ 10000 800 
Wire Wire Line
	10000 800  10000 1025
Wire Wire Line
	11225 1325 10900 1325
Wire Wire Line
	11225 1625 10900 1625
Wire Wire Line
	11925 825  11925 800 
Wire Wire Line
	11225 1825 10900 1825
Wire Wire Line
	11925 800  11725 800 
Wire Wire Line
	11725 775  11725 800 
$Comp
L 74xx:74LS367 U4
U 1 1 5E87EEE4
P 11725 1725
AR Path="/5E84A03F/5E87EEE4" Ref="U4"  Part="1" 
AR Path="/5EAB9D7B/5E87EEE4" Ref="U?"  Part="1" 
F 0 "U4" H 11350 2350 50  0000 C CNN
F 1 "N8T97N" H 11450 2275 50  0000 C CNN
F 2 "" H 11725 1725 50  0001 C CNN
F 3 "http://www.ti.com/lit/gpn/sn74LS367" H 11725 1725 50  0001 C CNN
	1    11725 1725
	1    0    0    -1  
$EndComp
$Comp
L power:GND #PWR?
U 1 1 5E87EEF1
P 11725 2425
AR Path="/5E84A03F/5E87EEF1" Ref="#PWR?"  Part="1" 
AR Path="/5EAB9D7B/5E87EEF1" Ref="#PWR?"  Part="1" 
F 0 "#PWR?" H 11725 2175 50  0001 C CNN
F 1 "GND" H 11725 2275 50  0000 C CNN
F 2 "" H 11725 2425 50  0001 C CNN
F 3 "" H 11725 2425 50  0001 C CNN
	1    11725 2425
	1    0    0    -1  
$EndComp
Wire Wire Line
	11225 1725 10900 1725
$Comp
L power:GND #PWR?
U 1 1 5E87EF01
P 11925 1025
AR Path="/5E84A03F/5E87EF01" Ref="#PWR?"  Part="1" 
AR Path="/5EAB9D7B/5E87EF01" Ref="#PWR?"  Part="1" 
F 0 "#PWR?" H 11925 775 50  0001 C CNN
F 1 "GND" H 11925 875 50  0000 C CNN
F 2 "" H 11925 1025 50  0001 C CNN
F 3 "" H 11925 1025 50  0001 C CNN
	1    11925 1025
	1    0    0    -1  
$EndComp
Wire Wire Line
	11225 1525 10900 1525
Wire Wire Line
	11225 2025 11200 2025
$Comp
L Device:C_Small C?
U 1 1 5E87EF13
P 11925 925
AR Path="/5E84A03F/5E87EF13" Ref="C?"  Part="1" 
AR Path="/5EAB9D7B/5E87EF13" Ref="C?"  Part="1" 
F 0 "C?" H 12017 971 50  0000 L CNN
F 1 "22n" H 12017 880 50  0000 L CNN
F 2 "" H 11925 925 50  0001 C CNN
F 3 "~" H 11925 925 50  0001 C CNN
	1    11925 925 
	1    0    0    -1  
$EndComp
Wire Wire Line
	11225 1425 10900 1425
$Comp
L power:+5V #PWR?
U 1 1 5E87EF21
P 11725 775
AR Path="/5E84A03F/5E87EF21" Ref="#PWR?"  Part="1" 
AR Path="/5EAB9D7B/5E87EF21" Ref="#PWR?"  Part="1" 
F 0 "#PWR?" H 11725 625 50  0001 C CNN
F 1 "+5V" H 11740 948 50  0000 C CNN
F 2 "" H 11725 775 50  0001 C CNN
F 3 "" H 11725 775 50  0001 C CNN
	1    11725 775 
	1    0    0    -1  
$EndComp
Connection ~ 11725 800 
Wire Wire Line
	11725 800  11725 1025
Text Label 10900 1425 0    50   ~ 0
A10
Wire Wire Line
	7775 2125 7750 2125
Wire Wire Line
	7750 2125 7750 2025
Connection ~ 7750 2025
Wire Wire Line
	7750 2025 7450 2025
Wire Wire Line
	9500 2125 9475 2125
Wire Wire Line
	9475 2125 9475 2025
Connection ~ 9475 2025
Wire Wire Line
	9475 2025 9175 2025
Wire Wire Line
	11225 2125 11200 2125
Wire Wire Line
	11200 2125 11200 2025
Connection ~ 11200 2025
Wire Wire Line
	11200 2025 10900 2025
Text Label 7450 2025 0    50   ~ 0
~AEN
Text Label 9175 2025 0    50   ~ 0
~AEN
Text Label 10900 2025 0    50   ~ 0
~AEN
Text Label 4575 4625 0    50   ~ 0
SYN
Text Label 7450 1825 0    50   ~ 0
SYN
Text Label 4575 3225 0    50   ~ 0
PH2
Text Label 7450 1725 0    50   ~ 0
PH2
Wire Wire Line
	12950 1625 12625 1625
$Comp
L power:GND #PWR?
U 1 1 5E89011F
P 13650 1025
AR Path="/5E84A03F/5E89011F" Ref="#PWR?"  Part="1" 
AR Path="/5EAB9D7B/5E89011F" Ref="#PWR?"  Part="1" 
F 0 "#PWR?" H 13650 775 50  0001 C CNN
F 1 "GND" H 13650 875 50  0000 C CNN
F 2 "" H 13650 1025 50  0001 C CNN
F 3 "" H 13650 1025 50  0001 C CNN
	1    13650 1025
	1    0    0    -1  
$EndComp
$Comp
L power:GND #PWR?
U 1 1 5E89012C
P 13450 2425
AR Path="/5E84A03F/5E89012C" Ref="#PWR?"  Part="1" 
AR Path="/5EAB9D7B/5E89012C" Ref="#PWR?"  Part="1" 
F 0 "#PWR?" H 13450 2175 50  0001 C CNN
F 1 "GND" H 13450 2275 50  0000 C CNN
F 2 "" H 13450 2425 50  0001 C CNN
F 3 "" H 13450 2425 50  0001 C CNN
	1    13450 2425
	1    0    0    -1  
$EndComp
$Comp
L 74xx:74LS367 U2
U 1 1 5E890148
P 13450 1725
AR Path="/5E84A03F/5E890148" Ref="U2"  Part="1" 
AR Path="/5EAB9D7B/5E890148" Ref="U?"  Part="1" 
F 0 "U2" H 13075 2350 50  0000 C CNN
F 1 "N8T97N" H 13175 2275 50  0000 C CNN
F 2 "" H 13450 1725 50  0001 C CNN
F 3 "http://www.ti.com/lit/gpn/sn74LS367" H 13450 1725 50  0001 C CNN
	1    13450 1725
	1    0    0    -1  
$EndComp
Wire Wire Line
	13650 800  13450 800 
Wire Wire Line
	12950 1825 12625 1825
$Comp
L Device:C_Small C?
U 1 1 5E890158
P 13650 925
AR Path="/5E84A03F/5E890158" Ref="C?"  Part="1" 
AR Path="/5EAB9D7B/5E890158" Ref="C?"  Part="1" 
F 0 "C?" H 13742 971 50  0000 L CNN
F 1 "22n" H 13742 880 50  0000 L CNN
F 2 "" H 13650 925 50  0001 C CNN
F 3 "~" H 13650 925 50  0001 C CNN
	1    13650 925 
	1    0    0    -1  
$EndComp
Wire Wire Line
	13650 825  13650 800 
Wire Wire Line
	12950 1525 12625 1525
Wire Wire Line
	12950 1725 12625 1725
Wire Wire Line
	13450 775  13450 800 
Wire Wire Line
	12950 2025 12925 2025
$Comp
L power:+5V #PWR?
U 1 1 5E89016B
P 13450 775
AR Path="/5E84A03F/5E89016B" Ref="#PWR?"  Part="1" 
AR Path="/5EAB9D7B/5E89016B" Ref="#PWR?"  Part="1" 
F 0 "#PWR?" H 13450 625 50  0001 C CNN
F 1 "+5V" H 13465 948 50  0000 C CNN
F 2 "" H 13450 775 50  0001 C CNN
F 3 "" H 13450 775 50  0001 C CNN
	1    13450 775 
	1    0    0    -1  
$EndComp
Wire Wire Line
	12925 2125 12925 2025
Wire Wire Line
	12950 2125 12925 2125
Connection ~ 13450 800 
Wire Wire Line
	13450 800  13450 1025
Wire Wire Line
	12950 1425 12625 1425
Wire Wire Line
	12950 1325 12625 1325
$Comp
L power:GND #PWR?
U 1 1 5E8941EE
P 12925 2150
AR Path="/5E84A03F/5E8941EE" Ref="#PWR?"  Part="1" 
AR Path="/5EAB9D7B/5E8941EE" Ref="#PWR?"  Part="1" 
F 0 "#PWR?" H 12925 1900 50  0001 C CNN
F 1 "GND" H 12925 2000 50  0000 C CNN
F 2 "" H 12925 2150 50  0001 C CNN
F 3 "" H 12925 2150 50  0001 C CNN
	1    12925 2150
	1    0    0    -1  
$EndComp
Wire Wire Line
	12925 2150 12925 2125
Connection ~ 12925 2125
Wire Wire Line
	10825 1525 10500 1525
Wire Wire Line
	10825 1625 10500 1625
Wire Wire Line
	10825 1325 10500 1325
Wire Wire Line
	10825 1425 10500 1425
Wire Wire Line
	10825 1725 10500 1725
Wire Wire Line
	10825 1825 10500 1825
Wire Wire Line
	12550 1525 12225 1525
Wire Wire Line
	12550 1625 12225 1625
Wire Wire Line
	12550 1325 12225 1325
Wire Wire Line
	12550 1425 12225 1425
Wire Wire Line
	12550 1725 12225 1725
Wire Wire Line
	12550 1825 12225 1825
Wire Wire Line
	9100 1725 8775 1725
Wire Wire Line
	9100 1425 8775 1425
Wire Wire Line
	9100 1825 8775 1825
Wire Wire Line
	9100 1625 8775 1625
Wire Wire Line
	9100 1325 8775 1325
Wire Wire Line
	9100 1525 8775 1525
Text Label 9100 1625 2    50   ~ 0
AA0
Text Label 9100 1525 2    50   ~ 0
AA1
Text Label 9100 1425 2    50   ~ 0
AA2
Text Label 9100 1325 2    50   ~ 0
AA3
Text Label 10825 1625 2    50   ~ 0
AA4
Text Label 10825 1725 2    50   ~ 0
AA5
Text Label 10825 1825 2    50   ~ 0
AA6
Text Label 10825 1525 2    50   ~ 0
AA7
Text Label 10825 1425 2    50   ~ 0
AA8
Text Label 10825 1325 2    50   ~ 0
AA9
Text Label 12550 1425 2    50   ~ 0
AA10
Text Label 12550 1525 2    50   ~ 0
AA11
Text Label 12550 1325 2    50   ~ 0
AA12
Text Label 12550 1625 2    50   ~ 0
AA13
Text Label 12550 1725 2    50   ~ 0
AA14
Text Label 12550 1825 2    50   ~ 0
AA15
Text Label 9100 1725 2    50   ~ 0
PH2b
Text Label 9100 1825 2    50   ~ 0
SYNb
Text Label 12625 1825 0    50   ~ 0
AA6
Text Label 12625 1525 0    50   ~ 0
AA7
Text Label 12625 1725 0    50   ~ 0
AA5
Text Label 12625 1325 0    50   ~ 0
AA9
Text Label 12625 1625 0    50   ~ 0
AA4
Text Label 12625 1425 0    50   ~ 0
AA8
$Comp
L power:GND #PWR?
U 1 1 5EA2E392
P 2050 4050
AR Path="/5E84A03F/5EA2E392" Ref="#PWR?"  Part="1" 
AR Path="/5EAB9D7B/5EA2E392" Ref="#PWR?"  Part="1" 
F 0 "#PWR?" H 2050 3800 50  0001 C CNN
F 1 "GND" H 2050 3900 50  0000 C CNN
F 2 "" H 2050 4050 50  0001 C CNN
F 3 "" H 2050 4050 50  0001 C CNN
	1    2050 4050
	1    0    0    -1  
$EndComp
Wire Wire Line
	2000 4000 2050 4000
Wire Wire Line
	2050 4000 2050 4050
Wire Wire Line
	2000 900  2300 900 
Wire Wire Line
	2300 900  2300 775 
$Comp
L power:+5V #PWR?
U 1 1 5EA2E393
P 2300 775
AR Path="/5E84A03F/5EA2E393" Ref="#PWR?"  Part="1" 
AR Path="/5EAB9D7B/5EA2E393" Ref="#PWR?"  Part="1" 
F 0 "#PWR?" H 2300 625 50  0001 C CNN
F 1 "+5V" H 2315 948 50  0000 C CNN
F 2 "" H 2300 775 50  0001 C CNN
F 3 "" H 2300 775 50  0001 C CNN
	1    2300 775 
	1    0    0    -1  
$EndComp
$Comp
L power:+5V #PWR?
U 1 1 5EA2E397
P 1425 775
AR Path="/5E84A03F/5EA2E397" Ref="#PWR?"  Part="1" 
AR Path="/5EAB9D7B/5EA2E397" Ref="#PWR?"  Part="1" 
F 0 "#PWR?" H 1425 625 50  0001 C CNN
F 1 "+5V" H 1440 948 50  0000 C CNN
F 2 "" H 1425 775 50  0001 C CNN
F 3 "" H 1425 775 50  0001 C CNN
	1    1425 775 
	1    0    0    -1  
$EndComp
Wire Wire Line
	1425 900  1425 775 
Wire Wire Line
	1125 900  1425 900 
Wire Wire Line
	1175 4000 1175 4050
Wire Wire Line
	1125 4000 1175 4000
$Comp
L power:GND #PWR?
U 1 1 5EAA2363
P 1175 4050
AR Path="/5E84A03F/5EAA2363" Ref="#PWR?"  Part="1" 
AR Path="/5EAB9D7B/5EAA2363" Ref="#PWR?"  Part="1" 
F 0 "#PWR?" H 1175 3800 50  0001 C CNN
F 1 "GND" H 1175 3900 50  0000 C CNN
F 2 "" H 1175 4050 50  0001 C CNN
F 3 "" H 1175 4050 50  0001 C CNN
	1    1175 4050
	1    0    0    -1  
$EndComp
Wire Wire Line
	1125 1100 1425 1100
Wire Wire Line
	1125 1200 1425 1200
Wire Wire Line
	1125 1300 1425 1300
Wire Wire Line
	1125 1400 1425 1400
Wire Wire Line
	1125 1500 1425 1500
Wire Wire Line
	1125 1600 1425 1600
Wire Wire Line
	1125 1700 1425 1700
Wire Wire Line
	1125 1800 1425 1800
Wire Wire Line
	1125 1900 1425 1900
Wire Wire Line
	1125 2000 1425 2000
Wire Wire Line
	1125 2100 1425 2100
Wire Wire Line
	1125 2200 1425 2200
Wire Wire Line
	1125 2300 1425 2300
Wire Wire Line
	1125 2500 1425 2500
Wire Wire Line
	1125 2600 1425 2600
Wire Wire Line
	1125 3000 1425 3000
Wire Wire Line
	1125 3100 1425 3100
Wire Wire Line
	1125 3200 1425 3200
Wire Wire Line
	1125 3300 1425 3300
Wire Wire Line
	1125 3400 1425 3400
Wire Wire Line
	1125 3500 1425 3500
Wire Wire Line
	1125 3600 1425 3600
Wire Wire Line
	1125 3700 1425 3700
Wire Wire Line
	2000 1300 2300 1300
Wire Wire Line
	2000 2900 2300 2900
Wire Wire Line
	2000 1200 2300 1200
Wire Wire Line
	2000 2700 2300 2700
Wire Wire Line
	2000 2600 2300 2600
Wire Wire Line
	2000 1100 2300 1100
Wire Wire Line
	2000 3900 2300 3900
Wire Wire Line
	2000 3300 2300 3300
Wire Wire Line
	2000 3600 2300 3600
Wire Wire Line
	2000 2800 2300 2800
$Comp
L es65-rescue:CONN_DIN41612_32x3-my_conn P?
U 1 1 5EA2E394
P 925 2450
AR Path="/5E84A03F/5EA2E394" Ref="P?"  Part="1" 
AR Path="/5EAB9D7B/5EA2E394" Ref="P?"  Part="1" 
AR Path="/5EA2E394" Ref="P?"  Part="1" 
F 0 "P?" H 842 675 50  0000 C CNN
F 1 "CONN_DIN41612_32x3" H 842 766 50  0000 C CNN
F 2 "" H 925 2450 50  0000 C CNN
F 3 "" H 925 2450 50  0000 C CNN
	1    925  2450
	-1   0    0    1   
$EndComp
$Comp
L es65-rescue:CONN_DIN41612_32x3-my_conn P?
U 3 1 5E8EE805
P 1800 2450
AR Path="/5E84A03F/5E8EE805" Ref="P?"  Part="3" 
AR Path="/5EAB9D7B/5E8EE805" Ref="P?"  Part="2" 
AR Path="/5E8EE805" Ref="P?"  Part="3" 
F 0 "P?" H 1717 675 50  0000 C CNN
F 1 "CONN_DIN41612_32x3" H 1717 766 50  0000 C CNN
F 2 "" H 1800 2450 50  0000 C CNN
F 3 "" H 1800 2450 50  0000 C CNN
	3    1800 2450
	-1   0    0    1   
$EndComp
$Comp
L es65-rescue:CONN_DIN41612_32x3-my_conn P?
U 2 1 5EAA235E
P 2700 2450
AR Path="/5E84A03F/5EAA235E" Ref="P?"  Part="2" 
AR Path="/5EAB9D7B/5EAA235E" Ref="P?"  Part="3" 
AR Path="/5EAA235E" Ref="P?"  Part="2" 
F 0 "P?" H 2617 675 50  0000 C CNN
F 1 "CONN_DIN41612_32x3" H 2617 766 50  0000 C CNN
F 2 "" H 2700 2450 50  0000 C CNN
F 3 "" H 2700 2450 50  0000 C CNN
	2    2700 2450
	-1   0    0    1   
$EndComp
NoConn ~ 2900 4000
NoConn ~ 2900 3900
NoConn ~ 2900 3500
NoConn ~ 2900 900 
NoConn ~ 2900 1200
NoConn ~ 2900 1300
NoConn ~ 2900 1400
NoConn ~ 2900 1500
NoConn ~ 2900 1600
NoConn ~ 2900 1700
NoConn ~ 2900 1800
NoConn ~ 2900 1900
NoConn ~ 2900 2000
NoConn ~ 2900 2100
NoConn ~ 2900 2200
NoConn ~ 2900 2300
NoConn ~ 2900 2400
NoConn ~ 2900 2500
NoConn ~ 2900 2600
NoConn ~ 2900 2700
NoConn ~ 2900 2800
NoConn ~ 2900 2900
NoConn ~ 2900 3000
NoConn ~ 2900 3100
NoConn ~ 2900 3200
NoConn ~ 2900 3300
NoConn ~ 2900 3400
NoConn ~ 2000 3400
NoConn ~ 2000 3500
NoConn ~ 2000 3100
NoConn ~ 2000 3200
NoConn ~ 2000 1900
NoConn ~ 2000 2000
NoConn ~ 2000 2100
NoConn ~ 2000 2200
NoConn ~ 2000 2300
NoConn ~ 2000 2400
NoConn ~ 2000 2500
NoConn ~ 2000 3000
NoConn ~ 2000 1400
NoConn ~ 2000 1500
NoConn ~ 2000 1600
NoConn ~ 2000 1700
NoConn ~ 2000 1800
Wire Wire Line
	2900 3600 3200 3600
Wire Wire Line
	2900 3700 3200 3700
Wire Wire Line
	2900 3800 3200 3800
Wire Wire Line
	2900 1000 3200 1000
NoConn ~ 2000 1000
Text Label 1425 1100 2    50   ~ 0
AA0
Text Label 1425 1400 2    50   ~ 0
AA3
Text Label 1425 3000 2    50   ~ 0
SYNb
Text Label 1425 1300 2    50   ~ 0
AA2
Text Label 1425 1200 2    50   ~ 0
AA1
Text Label 2300 2700 2    50   ~ 0
PH2b
Text Label 1425 1700 2    50   ~ 0
AA6
Text Label 1425 1800 2    50   ~ 0
AA7
Text Label 1425 1600 2    50   ~ 0
AA5
Text Label 1425 2000 2    50   ~ 0
AA9
Text Label 1425 1500 2    50   ~ 0
AA4
Text Label 1425 1900 2    50   ~ 0
AA8
Text Label 1425 2400 2    50   ~ 0
AA13
Text Label 1425 2500 2    50   ~ 0
AA14
Text Label 1425 2200 2    50   ~ 0
AA11
Text Label 1425 2300 2    50   ~ 0
AA12
Text Label 1425 2100 2    50   ~ 0
AA10
Text Label 1425 2600 2    50   ~ 0
AA15
Wire Wire Line
	1125 2400 1425 2400
NoConn ~ 1125 2700
NoConn ~ 1125 2800
$Comp
L 74xx:74LS74 U16
U 1 1 5E950516
P 14600 3975
AR Path="/5E84A03F/5E950516" Ref="U16"  Part="1" 
AR Path="/5EAB9D7B/5E950516" Ref="U?"  Part="1" 
F 0 "U16" H 14325 4300 50  0000 C CNN
F 1 "74LS74" H 14375 4225 50  0000 C CNN
F 2 "" H 14600 3975 50  0001 C CNN
F 3 "74xx/74hc_hct74.pdf" H 14600 3975 50  0001 C CNN
	1    14600 3975
	1    0    0    -1  
$EndComp
$Comp
L 74xx:74LS74 U16
U 2 1 5E9510F3
P 2150 4900
AR Path="/5E84A03F/5E9510F3" Ref="U16"  Part="2" 
AR Path="/5EAB9D7B/5E9510F3" Ref="U?"  Part="2" 
F 0 "U16" H 2150 5381 50  0000 C CNN
F 1 "74LS74" H 2150 5290 50  0000 C CNN
F 2 "" H 2150 4900 50  0001 C CNN
F 3 "74xx/74hc_hct74.pdf" H 2150 4900 50  0001 C CNN
	2    2150 4900
	1    0    0    -1  
$EndComp
$Comp
L 74xx:74LS74 U16
U 3 1 5E951E6D
P 725 10600
AR Path="/5E84A03F/5E951E6D" Ref="U16"  Part="3" 
AR Path="/5EAB9D7B/5E951E6D" Ref="U?"  Part="3" 
F 0 "U16" H 955 10646 50  0000 L CNN
F 1 "74LS74" H 955 10555 50  0000 L CNN
F 2 "" H 725 10600 50  0001 C CNN
F 3 "74xx/74hc_hct74.pdf" H 725 10600 50  0001 C CNN
	3    725  10600
	1    0    0    -1  
$EndComp
$Comp
L power:GND #PWR?
U 1 1 5E955A99
P 725 11025
AR Path="/5E84A03F/5E955A99" Ref="#PWR?"  Part="1" 
AR Path="/5EAB9D7B/5E955A99" Ref="#PWR?"  Part="1" 
F 0 "#PWR?" H 725 10775 50  0001 C CNN
F 1 "GND" H 725 10875 50  0000 C CNN
F 2 "" H 725 11025 50  0001 C CNN
F 3 "" H 725 11025 50  0001 C CNN
	1    725  11025
	1    0    0    -1  
$EndComp
Wire Wire Line
	725  9850 725  9875
Wire Wire Line
	725  9875 725  10200
Wire Wire Line
	925  9875 725  9875
Wire Wire Line
	925  9900 925  9875
$Comp
L power:GND #PWR?
U 1 1 5E957796
P 925 10100
AR Path="/5E84A03F/5E957796" Ref="#PWR?"  Part="1" 
AR Path="/5EAB9D7B/5E957796" Ref="#PWR?"  Part="1" 
F 0 "#PWR?" H 925 9850 50  0001 C CNN
F 1 "GND" H 925 9950 50  0000 C CNN
F 2 "" H 925 10100 50  0001 C CNN
F 3 "" H 925 10100 50  0001 C CNN
	1    925  10100
	1    0    0    -1  
$EndComp
$Comp
L power:+5V #PWR?
U 1 1 5E9577A3
P 725 9850
AR Path="/5E84A03F/5E9577A3" Ref="#PWR?"  Part="1" 
AR Path="/5EAB9D7B/5E9577A3" Ref="#PWR?"  Part="1" 
F 0 "#PWR?" H 725 9700 50  0001 C CNN
F 1 "+5V" H 740 10023 50  0000 C CNN
F 2 "" H 725 9850 50  0001 C CNN
F 3 "" H 725 9850 50  0001 C CNN
	1    725  9850
	1    0    0    -1  
$EndComp
$Comp
L Device:C_Small C?
U 1 1 5E9577B1
P 925 10000
AR Path="/5E84A03F/5E9577B1" Ref="C?"  Part="1" 
AR Path="/5EAB9D7B/5E9577B1" Ref="C?"  Part="1" 
F 0 "C?" H 1017 10046 50  0000 L CNN
F 1 "22n" H 1017 9955 50  0000 L CNN
F 2 "" H 925 10000 50  0001 C CNN
F 3 "~" H 925 10000 50  0001 C CNN
	1    925  10000
	1    0    0    -1  
$EndComp
Connection ~ 725  9875
Wire Wire Line
	725  11025 725  11000
$Comp
L es65-rescue:DS8T28N-my_ics U6
U 1 1 5E855EBA
P 8250 3775
AR Path="/5E84A03F/5E855EBA" Ref="U6"  Part="1" 
AR Path="/5EAB9D7B/5E855EBA" Ref="U?"  Part="1" 
F 0 "U6" H 7875 4300 50  0000 C CNN
F 1 "DS8T28N" H 8000 4225 50  0000 C CNN
F 2 "" H 8250 3775 50  0001 C CNN
F 3 "" H 8250 3775 50  0001 C CNN
	1    8250 3775
	1    0    0    -1  
$EndComp
$Comp
L power:GND #PWR?
U 1 1 5E858817
P 8250 4425
AR Path="/5E84A03F/5E858817" Ref="#PWR?"  Part="1" 
AR Path="/5EAB9D7B/5E858817" Ref="#PWR?"  Part="1" 
F 0 "#PWR?" H 8250 4175 50  0001 C CNN
F 1 "GND" H 8250 4275 50  0000 C CNN
F 2 "" H 8250 4425 50  0001 C CNN
F 3 "" H 8250 4425 50  0001 C CNN
	1    8250 4425
	1    0    0    -1  
$EndComp
Wire Wire Line
	8250 2925 8250 2950
Connection ~ 8250 2950
Wire Wire Line
	8450 2950 8250 2950
$Comp
L Device:C_Small C?
U 1 1 5E85C2A4
P 8450 3075
AR Path="/5E84A03F/5E85C2A4" Ref="C?"  Part="1" 
AR Path="/5EAB9D7B/5E85C2A4" Ref="C?"  Part="1" 
F 0 "C?" H 8542 3121 50  0000 L CNN
F 1 "22n" H 8542 3030 50  0000 L CNN
F 2 "" H 8450 3075 50  0001 C CNN
F 3 "~" H 8450 3075 50  0001 C CNN
	1    8450 3075
	1    0    0    -1  
$EndComp
Wire Wire Line
	8450 2975 8450 2950
$Comp
L power:+5V #PWR?
U 1 1 5E85C296
P 8250 2925
AR Path="/5E84A03F/5E85C296" Ref="#PWR?"  Part="1" 
AR Path="/5EAB9D7B/5E85C296" Ref="#PWR?"  Part="1" 
F 0 "#PWR?" H 8250 2775 50  0001 C CNN
F 1 "+5V" H 8265 3098 50  0000 C CNN
F 2 "" H 8250 2925 50  0001 C CNN
F 3 "" H 8250 2925 50  0001 C CNN
	1    8250 2925
	1    0    0    -1  
$EndComp
Wire Wire Line
	8250 2950 8250 3175
$Comp
L power:GND #PWR?
U 1 1 5E85C289
P 8450 3175
AR Path="/5E84A03F/5E85C289" Ref="#PWR?"  Part="1" 
AR Path="/5EAB9D7B/5E85C289" Ref="#PWR?"  Part="1" 
F 0 "#PWR?" H 8450 2925 50  0001 C CNN
F 1 "GND" H 8450 3025 50  0000 C CNN
F 2 "" H 8450 3175 50  0001 C CNN
F 3 "" H 8450 3175 50  0001 C CNN
	1    8450 3175
	1    0    0    -1  
$EndComp
Wire Wire Line
	7750 3975 7725 3975
Wire Wire Line
	7725 3975 7725 4075
Wire Wire Line
	7725 4075 7750 4075
Wire Wire Line
	7725 4075 7500 4075
Connection ~ 7725 4075
Wire Wire Line
	7750 3475 7425 3475
Wire Wire Line
	7750 3575 7425 3575
Wire Wire Line
	7750 3675 7425 3675
Wire Wire Line
	7750 3775 7425 3775
Text Label 9075 4175 2    50   ~ 0
D5
Text Label 9075 3975 2    50   ~ 0
D6
Text Label 9075 3875 2    50   ~ 0
D7
Text Label 9075 4075 2    50   ~ 0
D4
Text Label 1425 3100 2    50   ~ 0
AD0
Text Label 1425 3200 2    50   ~ 0
AD1
Text Label 1425 3300 2    50   ~ 0
AD2
Text Label 1425 3400 2    50   ~ 0
AD3
Text Label 1425 3500 2    50   ~ 0
AD4
Text Label 1425 3600 2    50   ~ 0
AD5
Text Label 1425 3800 2    50   ~ 0
AD7
Wire Wire Line
	8750 3475 8775 3475
Text Label 7425 3675 0    50   ~ 0
AD4
Text Label 7425 3575 0    50   ~ 0
AD6
Text Label 7425 3475 0    50   ~ 0
AD7
Text Label 7425 3775 0    50   ~ 0
AD5
Text Label 1425 3700 2    50   ~ 0
AD6
Wire Wire Line
	1125 3800 1425 3800
Wire Wire Line
	10600 3975 10675 3975
Wire Wire Line
	9575 3975 9575 4075
Wire Wire Line
	9575 4075 9600 4075
Connection ~ 9575 4075
$Comp
L power:GND #PWR?
U 1 1 5E877CDE
P 10300 3175
AR Path="/5E84A03F/5E877CDE" Ref="#PWR?"  Part="1" 
AR Path="/5EAB9D7B/5E877CDE" Ref="#PWR?"  Part="1" 
F 0 "#PWR?" H 10300 2925 50  0001 C CNN
F 1 "GND" H 10300 3025 50  0000 C CNN
F 2 "" H 10300 3175 50  0001 C CNN
F 3 "" H 10300 3175 50  0001 C CNN
	1    10300 3175
	1    0    0    -1  
$EndComp
Wire Wire Line
	10100 2950 10100 3175
Wire Wire Line
	9275 3675 9600 3675
$Comp
L power:+5V #PWR?
U 1 1 5E877CED
P 10100 2925
AR Path="/5E84A03F/5E877CED" Ref="#PWR?"  Part="1" 
AR Path="/5EAB9D7B/5E877CED" Ref="#PWR?"  Part="1" 
F 0 "#PWR?" H 10100 2775 50  0001 C CNN
F 1 "+5V" H 10115 3098 50  0000 C CNN
F 2 "" H 10100 2925 50  0001 C CNN
F 3 "" H 10100 2925 50  0001 C CNN
	1    10100 2925
	1    0    0    -1  
$EndComp
Wire Wire Line
	9275 3575 9600 3575
Wire Wire Line
	9275 3775 9600 3775
Wire Wire Line
	10300 2975 10300 2950
Wire Wire Line
	9575 4075 9350 4075
$Comp
L Device:C_Small C?
U 1 1 5E877D03
P 10300 3075
AR Path="/5E84A03F/5E877D03" Ref="C?"  Part="1" 
AR Path="/5EAB9D7B/5E877D03" Ref="C?"  Part="1" 
F 0 "C?" H 10392 3121 50  0000 L CNN
F 1 "22n" H 10392 3030 50  0000 L CNN
F 2 "" H 10300 3075 50  0001 C CNN
F 3 "~" H 10300 3075 50  0001 C CNN
	1    10300 3075
	1    0    0    -1  
$EndComp
Wire Wire Line
	9600 3975 9575 3975
Wire Wire Line
	10600 4175 10775 4175
Wire Wire Line
	10300 2950 10100 2950
$Comp
L es65-rescue:DS8T28N-my_ics U15
U 1 1 5E877D23
P 10100 3775
AR Path="/5E84A03F/5E877D23" Ref="U15"  Part="1" 
AR Path="/5EAB9D7B/5E877D23" Ref="U?"  Part="1" 
F 0 "U15" H 9725 4300 50  0000 C CNN
F 1 "DS8T28N" H 9850 4225 50  0000 C CNN
F 2 "" H 10100 3775 50  0001 C CNN
F 3 "" H 10100 3775 50  0001 C CNN
	1    10100 3775
	1    0    0    -1  
$EndComp
$Comp
L power:GND #PWR?
U 1 1 5E877D30
P 10100 4425
AR Path="/5E84A03F/5E877D30" Ref="#PWR?"  Part="1" 
AR Path="/5EAB9D7B/5E877D30" Ref="#PWR?"  Part="1" 
F 0 "#PWR?" H 10100 4175 50  0001 C CNN
F 1 "GND" H 10100 4275 50  0000 C CNN
F 2 "" H 10100 4425 50  0001 C CNN
F 3 "" H 10100 4425 50  0001 C CNN
	1    10100 4425
	1    0    0    -1  
$EndComp
Connection ~ 10100 2950
Wire Wire Line
	10100 2925 10100 2950
Wire Wire Line
	10600 4075 10725 4075
Wire Wire Line
	9600 3475 9275 3475
Text Label 9275 3575 0    50   ~ 0
AD1
Text Label 9275 3675 0    50   ~ 0
AD2
Text Label 9275 3475 0    50   ~ 0
AD3
Text Label 9275 3775 0    50   ~ 0
AD0
Text Label 10925 4075 2    50   ~ 0
D2
Text Label 10925 3975 2    50   ~ 0
D1
Text Label 10925 3875 2    50   ~ 0
D3
Text Label 10925 4175 2    50   ~ 0
D0
Wire Wire Line
	10600 3875 10625 3875
Wire Wire Line
	10600 3475 10625 3475
Wire Wire Line
	10625 3475 10625 3875
Connection ~ 10625 3875
Wire Wire Line
	10625 3875 10925 3875
Wire Wire Line
	10675 3575 10675 3975
Wire Wire Line
	10600 3575 10675 3575
Connection ~ 10675 3975
Wire Wire Line
	10675 3975 10925 3975
Wire Wire Line
	10600 3675 10725 3675
Wire Wire Line
	10725 3675 10725 4075
Connection ~ 10725 4075
Wire Wire Line
	10725 4075 10925 4075
Wire Wire Line
	10600 3775 10775 3775
Wire Wire Line
	10775 3775 10775 4175
Connection ~ 10775 4175
Wire Wire Line
	10775 4175 10925 4175
Wire Wire Line
	8825 3575 8750 3575
Wire Wire Line
	8875 3675 8750 3675
Wire Wire Line
	8925 3775 8750 3775
Wire Wire Line
	8750 3875 8775 3875
Wire Wire Line
	8925 3775 8925 4175
Connection ~ 8925 4175
Wire Wire Line
	8925 4175 9075 4175
Wire Wire Line
	8875 3675 8875 4075
Connection ~ 8875 4075
Wire Wire Line
	8875 4075 9075 4075
Wire Wire Line
	8750 4075 8875 4075
Wire Wire Line
	8825 3575 8825 3975
Wire Wire Line
	8750 3975 8825 3975
Connection ~ 8825 3975
Wire Wire Line
	8825 3975 9075 3975
Wire Wire Line
	8750 4175 8925 4175
Wire Wire Line
	8775 3475 8775 3875
Connection ~ 8775 3875
Wire Wire Line
	8775 3875 9075 3875
Text Label 9350 4075 0    50   ~ 0
DEN
Text Label 7500 4075 0    50   ~ 0
DEN
$Comp
L 74xx:74LS02 U17
U 2 1 5E884362
P 2575 6775
AR Path="/5E84A03F/5E884362" Ref="U17"  Part="2" 
AR Path="/5EAB9D7B/5E884362" Ref="U?"  Part="2" 
F 0 "U17" H 2575 7100 50  0000 C CNN
F 1 "74LS02" H 2575 7009 50  0000 C CNN
F 2 "" H 2575 6775 50  0001 C CNN
F 3 "http://www.ti.com/lit/gpn/sn74ls02" H 2575 6775 50  0001 C CNN
	2    2575 6775
	1    0    0    -1  
$EndComp
$Comp
L 74xx:74LS02 U17
U 3 1 5E88541C
P 14975 3325
AR Path="/5E84A03F/5E88541C" Ref="U17"  Part="3" 
AR Path="/5EAB9D7B/5E88541C" Ref="U?"  Part="3" 
F 0 "U17" H 14975 3650 50  0000 C CNN
F 1 "74LS02" H 14975 3559 50  0000 C CNN
F 2 "" H 14975 3325 50  0001 C CNN
F 3 "http://www.ti.com/lit/gpn/sn74ls02" H 14975 3325 50  0001 C CNN
	3    14975 3325
	1    0    0    -1  
$EndComp
$Comp
L 74xx:74LS02 U17
U 4 1 5E88744C
P 13850 3425
AR Path="/5E84A03F/5E88744C" Ref="U17"  Part="4" 
AR Path="/5EAB9D7B/5E88744C" Ref="U?"  Part="4" 
F 0 "U17" H 13850 3750 50  0000 C CNN
F 1 "74LS02" H 13850 3659 50  0000 C CNN
F 2 "" H 13850 3425 50  0001 C CNN
F 3 "http://www.ti.com/lit/gpn/sn74ls02" H 13850 3425 50  0001 C CNN
	4    13850 3425
	1    0    0    -1  
$EndComp
$Comp
L 74xx:74LS02 U17
U 5 1 5E8897F5
P 1450 10500
AR Path="/5E84A03F/5E8897F5" Ref="U17"  Part="5" 
AR Path="/5EAB9D7B/5E8897F5" Ref="U?"  Part="5" 
F 0 "U17" H 1680 10546 50  0000 L CNN
F 1 "74LS02" H 1680 10455 50  0000 L CNN
F 2 "" H 1450 10500 50  0001 C CNN
F 3 "http://www.ti.com/lit/gpn/sn74ls02" H 1450 10500 50  0001 C CNN
	5    1450 10500
	1    0    0    -1  
$EndComp
Connection ~ 1450 9775
$Comp
L power:GND #PWR?
U 1 1 5E88EFCB
P 1450 11025
AR Path="/5E84A03F/5E88EFCB" Ref="#PWR?"  Part="1" 
AR Path="/5EAB9D7B/5E88EFCB" Ref="#PWR?"  Part="1" 
F 0 "#PWR?" H 1450 10775 50  0001 C CNN
F 1 "GND" H 1450 10875 50  0000 C CNN
F 2 "" H 1450 11025 50  0001 C CNN
F 3 "" H 1450 11025 50  0001 C CNN
	1    1450 11025
	1    0    0    -1  
$EndComp
$Comp
L power:GND #PWR?
U 1 1 5E88EFD8
P 1650 10000
AR Path="/5E84A03F/5E88EFD8" Ref="#PWR?"  Part="1" 
AR Path="/5EAB9D7B/5E88EFD8" Ref="#PWR?"  Part="1" 
F 0 "#PWR?" H 1650 9750 50  0001 C CNN
F 1 "GND" H 1650 9850 50  0000 C CNN
F 2 "" H 1650 10000 50  0001 C CNN
F 3 "" H 1650 10000 50  0001 C CNN
	1    1650 10000
	1    0    0    -1  
$EndComp
$Comp
L power:+5V #PWR?
U 1 1 5E88EFE5
P 1450 9750
AR Path="/5E84A03F/5E88EFE5" Ref="#PWR?"  Part="1" 
AR Path="/5EAB9D7B/5E88EFE5" Ref="#PWR?"  Part="1" 
F 0 "#PWR?" H 1450 9600 50  0001 C CNN
F 1 "+5V" H 1465 9923 50  0000 C CNN
F 2 "" H 1450 9750 50  0001 C CNN
F 3 "" H 1450 9750 50  0001 C CNN
	1    1450 9750
	1    0    0    -1  
$EndComp
$Comp
L Device:C_Small C?
U 1 1 5E88EFF3
P 1650 9900
AR Path="/5E84A03F/5E88EFF3" Ref="C?"  Part="1" 
AR Path="/5EAB9D7B/5E88EFF3" Ref="C?"  Part="1" 
F 0 "C?" H 1742 9946 50  0000 L CNN
F 1 "22n" H 1742 9855 50  0000 L CNN
F 2 "" H 1650 9900 50  0001 C CNN
F 3 "~" H 1650 9900 50  0001 C CNN
	1    1650 9900
	1    0    0    -1  
$EndComp
Wire Wire Line
	1450 9750 1450 9775
Wire Wire Line
	1450 9775 1450 10000
Wire Wire Line
	1650 9775 1450 9775
Wire Wire Line
	1650 9800 1650 9775
Wire Wire Line
	1450 11025 1450 11000
Text Label 15500 3325 2    50   ~ 0
DEN
Wire Wire Line
	2275 6875 2225 6875
Wire Wire Line
	2225 6875 2225 6925
$Comp
L power:GND #PWR?
U 1 1 5E8D59C2
P 2225 6925
AR Path="/5E84A03F/5E8D59C2" Ref="#PWR?"  Part="1" 
AR Path="/5EAB9D7B/5E8D59C2" Ref="#PWR?"  Part="1" 
F 0 "#PWR?" H 2225 6675 50  0001 C CNN
F 1 "GND" H 2225 6775 50  0000 C CNN
F 2 "" H 2225 6925 50  0001 C CNN
F 3 "" H 2225 6925 50  0001 C CNN
	1    2225 6925
	1    0    0    -1  
$EndComp
Text Label 4575 3925 0    50   ~ 0
R{slash}~W
Text Label 14450 3225 0    50   ~ 0
R{slash}~W
Wire Wire Line
	14450 3225 14675 3225
Wire Wire Line
	14300 3975 14025 3975
Wire Wire Line
	2275 6675 2050 6675
Text Label 2050 6675 0    50   ~ 0
PH2
$Comp
L 74xx:74LS00 U12
U 1 1 5E8FC83A
P 2550 7650
AR Path="/5E84A03F/5E8FC83A" Ref="U12"  Part="1" 
AR Path="/5EAB9D7B/5E8FC83A" Ref="U?"  Part="1" 
F 0 "U12" H 2550 7975 50  0000 C CNN
F 1 "74LS00" H 2550 7884 50  0000 C CNN
F 2 "" H 2550 7650 50  0001 C CNN
F 3 "http://www.ti.com/lit/gpn/sn74ls00" H 2550 7650 50  0001 C CNN
	1    2550 7650
	1    0    0    -1  
$EndComp
$Comp
L 74xx:74LS00 U12
U 2 1 5E8FD8E9
P 9100 5350
AR Path="/5E84A03F/5E8FD8E9" Ref="U12"  Part="2" 
AR Path="/5EAB9D7B/5E8FD8E9" Ref="U?"  Part="2" 
F 0 "U12" H 9075 5425 50  0000 C CNN
F 1 "74LS00" H 9100 5350 50  0000 C CNN
F 2 "" H 9100 5350 50  0001 C CNN
F 3 "http://www.ti.com/lit/gpn/sn74ls00" H 9100 5350 50  0001 C CNN
	2    9100 5350
	1    0    0    -1  
$EndComp
$Comp
L 74xx:74LS00 U12
U 3 1 5E8FEBB5
P 12500 8725
AR Path="/5E84A03F/5E8FEBB5" Ref="U12"  Part="3" 
AR Path="/5EAB9D7B/5E8FEBB5" Ref="U?"  Part="3" 
F 0 "U12" H 12475 8800 50  0000 C CNN
F 1 "74LS00" H 12500 8725 50  0000 C CNN
F 2 "" H 12500 8725 50  0001 C CNN
F 3 "http://www.ti.com/lit/gpn/sn74ls00" H 12500 8725 50  0001 C CNN
	3    12500 8725
	1    0    0    -1  
$EndComp
$Comp
L 74xx:74LS00 U12
U 4 1 5E8FFC11
P 9100 5725
AR Path="/5E84A03F/5E8FFC11" Ref="U12"  Part="4" 
AR Path="/5EAB9D7B/5E8FFC11" Ref="U?"  Part="4" 
F 0 "U12" H 9075 5800 50  0000 C CNN
F 1 "74LS00" H 9100 5725 50  0000 C CNN
F 2 "" H 9100 5725 50  0001 C CNN
F 3 "http://www.ti.com/lit/gpn/sn74ls00" H 9100 5725 50  0001 C CNN
	4    9100 5725
	1    0    0    -1  
$EndComp
$Comp
L 74xx:74LS00 U12
U 5 1 5E90083E
P 2175 10500
AR Path="/5E84A03F/5E90083E" Ref="U12"  Part="5" 
AR Path="/5EAB9D7B/5E90083E" Ref="U?"  Part="5" 
F 0 "U12" H 2405 10546 50  0000 L CNN
F 1 "74LS00" H 2405 10455 50  0000 L CNN
F 2 "" H 2175 10500 50  0001 C CNN
F 3 "http://www.ti.com/lit/gpn/sn74ls00" H 2175 10500 50  0001 C CNN
	5    2175 10500
	1    0    0    -1  
$EndComp
$Comp
L power:GND #PWR?
U 1 1 5E905D27
P 2175 11025
AR Path="/5E84A03F/5E905D27" Ref="#PWR?"  Part="1" 
AR Path="/5EAB9D7B/5E905D27" Ref="#PWR?"  Part="1" 
F 0 "#PWR?" H 2175 10775 50  0001 C CNN
F 1 "GND" H 2175 10875 50  0000 C CNN
F 2 "" H 2175 11025 50  0001 C CNN
F 3 "" H 2175 11025 50  0001 C CNN
	1    2175 11025
	1    0    0    -1  
$EndComp
$Comp
L power:GND #PWR?
U 1 1 5E905D34
P 2375 10000
AR Path="/5E84A03F/5E905D34" Ref="#PWR?"  Part="1" 
AR Path="/5EAB9D7B/5E905D34" Ref="#PWR?"  Part="1" 
F 0 "#PWR?" H 2375 9750 50  0001 C CNN
F 1 "GND" H 2375 9850 50  0000 C CNN
F 2 "" H 2375 10000 50  0001 C CNN
F 3 "" H 2375 10000 50  0001 C CNN
	1    2375 10000
	1    0    0    -1  
$EndComp
$Comp
L power:+5V #PWR?
U 1 1 5E905D4F
P 2175 9750
AR Path="/5E84A03F/5E905D4F" Ref="#PWR?"  Part="1" 
AR Path="/5EAB9D7B/5E905D4F" Ref="#PWR?"  Part="1" 
F 0 "#PWR?" H 2175 9600 50  0001 C CNN
F 1 "+5V" H 2190 9923 50  0000 C CNN
F 2 "" H 2175 9750 50  0001 C CNN
F 3 "" H 2175 9750 50  0001 C CNN
	1    2175 9750
	1    0    0    -1  
$EndComp
Wire Wire Line
	2175 9775 2175 10000
Connection ~ 2175 9775
$Comp
L Device:C_Small C?
U 1 1 5E905D5F
P 2375 9900
AR Path="/5E84A03F/5E905D5F" Ref="C?"  Part="1" 
AR Path="/5EAB9D7B/5E905D5F" Ref="C?"  Part="1" 
F 0 "C?" H 2467 9946 50  0000 L CNN
F 1 "22n" H 2467 9855 50  0000 L CNN
F 2 "" H 2375 9900 50  0001 C CNN
F 3 "~" H 2375 9900 50  0001 C CNN
	1    2375 9900
	1    0    0    -1  
$EndComp
Wire Wire Line
	2375 9800 2375 9775
Wire Wire Line
	2175 11025 2175 11000
Wire Wire Line
	2375 9775 2175 9775
Wire Wire Line
	2175 9750 2175 9775
$Comp
L 74xx:74LS02 U17
U 1 1 5E882E65
P 12475 8175
AR Path="/5E84A03F/5E882E65" Ref="U17"  Part="1" 
AR Path="/5EAB9D7B/5E882E65" Ref="U?"  Part="1" 
F 0 "U17" H 12500 8175 50  0000 C CNN
F 1 "74LS02" H 12750 8050 50  0000 C CNN
F 2 "" H 12475 8175 50  0001 C CNN
F 3 "http://www.ti.com/lit/gpn/sn74ls02" H 12475 8175 50  0001 C CNN
	1    12475 8175
	1    0    0    -1  
$EndComp
Wire Wire Line
	13550 3325 13325 3325
Wire Wire Line
	14225 3875 14300 3875
Wire Wire Line
	12200 8625 12100 8625
Wire Wire Line
	12100 8625 12100 8075
Wire Wire Line
	12100 8075 12175 8075
$Comp
L es65-rescue:XO-33D-my_something_else X9
U 1 1 5E945C7A
P 4375 1375
AR Path="/5E84A03F/5E945C7A" Ref="X9"  Part="1" 
AR Path="/5EAB9D7B/5E945C7A" Ref="X?"  Part="1" 
F 0 "X9" H 4450 1700 50  0000 L CNN
F 1 "4M" H 4450 1625 50  0000 L CNN
F 2 "" H 4825 1025 50  0001 C CNN
F 3 "" H 4275 1375 50  0001 C CNN
	1    4375 1375
	1    0    0    -1  
$EndComp
$Comp
L power:+5V #PWR?
U 1 1 5E9471E0
P 4375 1075
AR Path="/5E84A03F/5E9471E0" Ref="#PWR?"  Part="1" 
AR Path="/5EAB9D7B/5E9471E0" Ref="#PWR?"  Part="1" 
F 0 "#PWR?" H 4375 925 50  0001 C CNN
F 1 "+5V" H 4390 1248 50  0000 C CNN
F 2 "" H 4375 1075 50  0001 C CNN
F 3 "" H 4375 1075 50  0001 C CNN
	1    4375 1075
	1    0    0    -1  
$EndComp
$Comp
L power:GND #PWR?
U 1 1 5E947AF5
P 4375 1675
AR Path="/5E84A03F/5E947AF5" Ref="#PWR?"  Part="1" 
AR Path="/5EAB9D7B/5E947AF5" Ref="#PWR?"  Part="1" 
F 0 "#PWR?" H 4375 1425 50  0001 C CNN
F 1 "GND" H 4375 1525 50  0000 C CNN
F 2 "" H 4375 1675 50  0001 C CNN
F 3 "" H 4375 1675 50  0001 C CNN
	1    4375 1675
	1    0    0    -1  
$EndComp
$Comp
L 74xx:74LS107 U8
U 1 1 5E949CC0
P 5200 1375
AR Path="/5E84A03F/5E949CC0" Ref="U8"  Part="1" 
AR Path="/5EAB9D7B/5E949CC0" Ref="U?"  Part="1" 
F 0 "U8" H 5200 1742 50  0000 C CNN
F 1 "74LS107" H 5200 1651 50  0000 C CNN
F 2 "" H 5200 1375 50  0001 C CNN
F 3 "http://www.ti.com/lit/gpn/sn74LS107" H 5200 1375 50  0001 C CNN
	1    5200 1375
	1    0    0    -1  
$EndComp
$Comp
L 74xx:74LS107 U8
U 2 1 5E94B357
P 5900 950
AR Path="/5E84A03F/5E94B357" Ref="U8"  Part="2" 
AR Path="/5EAB9D7B/5E94B357" Ref="U?"  Part="2" 
F 0 "U8" H 5900 1275 50  0000 C CNN
F 1 "74LS107" H 5900 1200 50  0000 C CNN
F 2 "" H 5900 950 50  0001 C CNN
F 3 "http://www.ti.com/lit/gpn/sn74LS107" H 5900 950 50  0001 C CNN
	2    5900 950 
	1    0    0    -1  
$EndComp
$Comp
L 74xx:74LS107 U8
U 3 1 5E94BD5A
P 2900 10600
AR Path="/5E84A03F/5E94BD5A" Ref="U8"  Part="3" 
AR Path="/5EAB9D7B/5E94BD5A" Ref="U?"  Part="3" 
F 0 "U8" H 3130 10646 50  0000 L CNN
F 1 "74LS107" H 3130 10555 50  0000 L CNN
F 2 "" H 2900 10600 50  0001 C CNN
F 3 "http://www.ti.com/lit/gpn/sn74LS107" H 2900 10600 50  0001 C CNN
	3    2900 10600
	1    0    0    -1  
$EndComp
Connection ~ 2900 9875
$Comp
L power:GND #PWR?
U 1 1 5E95C152
P 2900 11025
AR Path="/5E84A03F/5E95C152" Ref="#PWR?"  Part="1" 
AR Path="/5EAB9D7B/5E95C152" Ref="#PWR?"  Part="1" 
F 0 "#PWR?" H 2900 10775 50  0001 C CNN
F 1 "GND" H 2900 10875 50  0000 C CNN
F 2 "" H 2900 11025 50  0001 C CNN
F 3 "" H 2900 11025 50  0001 C CNN
	1    2900 11025
	1    0    0    -1  
$EndComp
$Comp
L power:GND #PWR?
U 1 1 5E95C15F
P 3100 10100
AR Path="/5E84A03F/5E95C15F" Ref="#PWR?"  Part="1" 
AR Path="/5EAB9D7B/5E95C15F" Ref="#PWR?"  Part="1" 
F 0 "#PWR?" H 3100 9850 50  0001 C CNN
F 1 "GND" H 3100 9950 50  0000 C CNN
F 2 "" H 3100 10100 50  0001 C CNN
F 3 "" H 3100 10100 50  0001 C CNN
	1    3100 10100
	1    0    0    -1  
$EndComp
$Comp
L power:+5V #PWR?
U 1 1 5E95C16C
P 2900 9850
AR Path="/5E84A03F/5E95C16C" Ref="#PWR?"  Part="1" 
AR Path="/5EAB9D7B/5E95C16C" Ref="#PWR?"  Part="1" 
F 0 "#PWR?" H 2900 9700 50  0001 C CNN
F 1 "+5V" H 2915 10023 50  0000 C CNN
F 2 "" H 2900 9850 50  0001 C CNN
F 3 "" H 2900 9850 50  0001 C CNN
	1    2900 9850
	1    0    0    -1  
$EndComp
$Comp
L Device:C_Small C?
U 1 1 5E95C17A
P 3100 10000
AR Path="/5E84A03F/5E95C17A" Ref="C?"  Part="1" 
AR Path="/5EAB9D7B/5E95C17A" Ref="C?"  Part="1" 
F 0 "C?" H 3192 10046 50  0000 L CNN
F 1 "22n" H 3192 9955 50  0000 L CNN
F 2 "" H 3100 10000 50  0001 C CNN
F 3 "~" H 3100 10000 50  0001 C CNN
	1    3100 10000
	1    0    0    -1  
$EndComp
Wire Wire Line
	2900 9850 2900 9875
Wire Wire Line
	2900 9875 2900 10200
Wire Wire Line
	3100 9875 2900 9875
Wire Wire Line
	3100 9900 3100 9875
Wire Wire Line
	2900 11025 2900 11000
Wire Wire Line
	5600 1050 5575 1050
$Comp
L power:+5V #PWR?
U 1 1 5E965DDB
P 4850 1225
AR Path="/5E84A03F/5E965DDB" Ref="#PWR?"  Part="1" 
AR Path="/5EAB9D7B/5E965DDB" Ref="#PWR?"  Part="1" 
F 0 "#PWR?" H 4850 1075 50  0001 C CNN
F 1 "+5V" H 4865 1398 50  0000 C CNN
F 2 "" H 4850 1225 50  0001 C CNN
F 3 "" H 4850 1225 50  0001 C CNN
	1    4850 1225
	1    0    0    -1  
$EndComp
Wire Wire Line
	4850 1225 4850 1275
Wire Wire Line
	4850 1275 4900 1275
Wire Wire Line
	4900 1475 4850 1475
Wire Wire Line
	4850 1475 4850 1275
Connection ~ 4850 1275
$Comp
L power:+5V #PWR?
U 1 1 5E966FFD
P 6200 1300
AR Path="/5E84A03F/5E966FFD" Ref="#PWR?"  Part="1" 
AR Path="/5EAB9D7B/5E966FFD" Ref="#PWR?"  Part="1" 
F 0 "#PWR?" H 6200 1150 50  0001 C CNN
F 1 "+5V" H 6215 1473 50  0000 C CNN
F 2 "" H 6200 1300 50  0001 C CNN
F 3 "" H 6200 1300 50  0001 C CNN
	1    6200 1300
	1    0    0    -1  
$EndComp
Wire Wire Line
	5900 1325 5900 1250
Wire Wire Line
	5200 1700 5200 1675
Wire Wire Line
	5200 1700 4850 1700
Wire Wire Line
	4850 1700 4850 1475
Connection ~ 4850 1475
Wire Wire Line
	5600 850  5575 850 
Wire Wire Line
	5575 850  5575 1050
Wire Wire Line
	4900 1375 4750 1375
Wire Wire Line
	5600 950  4750 950 
Wire Wire Line
	4750 950  4750 1375
Connection ~ 4750 1375
Wire Wire Line
	4675 1375 4750 1375
Wire Wire Line
	5500 1275 5525 1275
Wire Wire Line
	5525 1275 5525 1050
Wire Wire Line
	5525 1050 5575 1050
Connection ~ 5575 1050
NoConn ~ 5500 1475
NoConn ~ 6200 1050
$Comp
L Jumper:Jumper_3_Bridged12 JP?
U 1 1 5E97979B
P 6625 850
AR Path="/5E84A03F/5E97979B" Ref="JP?"  Part="1" 
AR Path="/5EAB9D7B/5E97979B" Ref="JP?"  Part="1" 
F 0 "JP?" H 6625 1054 50  0000 C CNN
F 1 "Jumper_3_Bridged12" H 6625 963 50  0000 C CNN
F 2 "" H 6625 850 50  0001 C CNN
F 3 "~" H 6625 850 50  0001 C CNN
	1    6625 850 
	1    0    0    -1  
$EndComp
Wire Wire Line
	6375 850  6200 850 
Text Label 4575 3025 0    50   ~ 0
PH0
Text Label 6975 1150 2    50   ~ 0
PH0
Wire Wire Line
	6975 1150 6625 1150
Wire Wire Line
	6625 1150 6625 1000
Wire Notes Line
	3950 550  7275 550 
Wire Notes Line
	7275 550  7275 1875
Wire Notes Line
	7275 1875 3950 1875
Wire Notes Line
	3950 1875 3950 550 
Text Notes 4000 675  0    50   ~ 0
Clock
Wire Wire Line
	6875 850  7175 850 
Wire Wire Line
	6200 1300 6200 1325
Wire Wire Line
	6200 1325 5900 1325
Text Label 2300 2600 2    50   ~ 0
CLK_IN
Text Label 7175 850  2    50   ~ 0
CLK_IN
Connection ~ 11975 2950
$Comp
L 74xx:74LS367 U10
U 1 1 5E986718
P 11975 3875
AR Path="/5E84A03F/5E986718" Ref="U10"  Part="1" 
AR Path="/5EAB9D7B/5E986718" Ref="U?"  Part="1" 
F 0 "U10" H 11600 4500 50  0000 C CNN
F 1 "N8T97N" H 11700 4425 50  0000 C CNN
F 2 "" H 11975 3875 50  0001 C CNN
F 3 "http://www.ti.com/lit/gpn/sn74LS367" H 11975 3875 50  0001 C CNN
	1    11975 3875
	1    0    0    -1  
$EndComp
$Comp
L power:GND #PWR?
U 1 1 5E986725
P 11975 4575
AR Path="/5E84A03F/5E986725" Ref="#PWR?"  Part="1" 
AR Path="/5EAB9D7B/5E986725" Ref="#PWR?"  Part="1" 
F 0 "#PWR?" H 11975 4325 50  0001 C CNN
F 1 "GND" H 11975 4425 50  0000 C CNN
F 2 "" H 11975 4575 50  0001 C CNN
F 3 "" H 11975 4575 50  0001 C CNN
	1    11975 4575
	1    0    0    -1  
$EndComp
$Comp
L power:GND #PWR?
U 1 1 5E986732
P 12175 3175
AR Path="/5E84A03F/5E986732" Ref="#PWR?"  Part="1" 
AR Path="/5EAB9D7B/5E986732" Ref="#PWR?"  Part="1" 
F 0 "#PWR?" H 12175 2925 50  0001 C CNN
F 1 "GND" H 12175 3025 50  0000 C CNN
F 2 "" H 12175 3175 50  0001 C CNN
F 3 "" H 12175 3175 50  0001 C CNN
	1    12175 3175
	1    0    0    -1  
$EndComp
$Comp
L Device:C_Small C?
U 1 1 5E986740
P 12175 3075
AR Path="/5E84A03F/5E986740" Ref="C?"  Part="1" 
AR Path="/5EAB9D7B/5E986740" Ref="C?"  Part="1" 
F 0 "C?" H 12267 3121 50  0000 L CNN
F 1 "22n" H 12267 3030 50  0000 L CNN
F 2 "" H 12175 3075 50  0001 C CNN
F 3 "~" H 12175 3075 50  0001 C CNN
	1    12175 3075
	1    0    0    -1  
$EndComp
$Comp
L power:+5V #PWR?
U 1 1 5E98674D
P 11975 2925
AR Path="/5E84A03F/5E98674D" Ref="#PWR?"  Part="1" 
AR Path="/5EAB9D7B/5E98674D" Ref="#PWR?"  Part="1" 
F 0 "#PWR?" H 11975 2775 50  0001 C CNN
F 1 "+5V" H 11990 3098 50  0000 C CNN
F 2 "" H 11975 2925 50  0001 C CNN
F 3 "" H 11975 2925 50  0001 C CNN
	1    11975 2925
	1    0    0    -1  
$EndComp
Wire Wire Line
	12800 3875 12475 3875
Wire Wire Line
	12800 3975 12475 3975
Wire Wire Line
	11475 3875 11150 3875
Wire Wire Line
	12175 2950 11975 2950
Wire Wire Line
	12800 3675 12475 3675
Wire Wire Line
	11975 2950 11975 3175
Wire Wire Line
	11475 3575 11150 3575
Wire Wire Line
	11475 3975 11150 3975
Wire Wire Line
	12800 3775 12475 3775
Wire Wire Line
	12175 2975 12175 2950
Wire Wire Line
	12800 3575 12475 3575
Wire Wire Line
	11475 3675 11150 3675
Wire Wire Line
	12800 3475 12475 3475
Wire Wire Line
	11475 3475 11150 3475
Wire Wire Line
	11475 3775 11150 3775
Wire Wire Line
	11975 2925 11975 2950
Text Label 4575 3125 0    50   ~ 0
PH1
Text Label 11150 3975 0    50   ~ 0
PH1
Text Label 12800 3975 2    50   ~ 0
PH1b
Text Label 2300 2800 2    50   ~ 0
PH1b
Text Notes 13900 2075 0    50   ~ 0
not \npopul.
Wire Notes Line
	7300 550  15975 550 
Wire Notes Line
	15975 550  15975 2650
Wire Notes Line
	15975 2650 7300 2650
Wire Notes Line
	7300 2650 7300 550 
Text Notes 7375 700  0    50   ~ 0
Address Buffers
Wire Notes Line
	7300 2675 10975 2675
Wire Notes Line
	10975 2675 10975 4650
Wire Notes Line
	10975 4650 7300 4650
Wire Notes Line
	7300 4650 7300 2675
Text Notes 7425 2850 0    50   ~ 0
Data Buffers
Wire Wire Line
	11150 4175 11475 4175
Text Label 11150 4275 0    50   ~ 0
~AEN
Wire Wire Line
	11150 4275 11475 4275
Text Label 14450 3425 0    50   ~ 0
~AEN
Wire Wire Line
	14450 3425 14675 3425
Wire Wire Line
	15125 3875 14900 3875
Text Label 15125 3875 2    50   ~ 0
~AEN
Text Label 13325 3325 0    50   ~ 0
DEN
Wire Wire Line
	15275 3325 15500 3325
Wire Wire Line
	14150 3425 14225 3425
Wire Wire Line
	14225 3425 14225 3875
$Comp
L power:+5V #PWR?
U 1 1 5E9CB848
P 4400 6500
AR Path="/5E84A03F/5E9CB848" Ref="#PWR?"  Part="1" 
AR Path="/5EAB9D7B/5E9CB848" Ref="#PWR?"  Part="1" 
F 0 "#PWR?" H 4400 6350 50  0001 C CNN
F 1 "+5V" H 4415 6673 50  0000 C CNN
F 2 "" H 4400 6500 50  0001 C CNN
F 3 "" H 4400 6500 50  0001 C CNN
	1    4400 6500
	1    0    0    -1  
$EndComp
Wire Wire Line
	3900 7350 3575 7350
Wire Wire Line
	5225 7050 4900 7050
Wire Wire Line
	3900 7250 3575 7250
Wire Wire Line
	4400 6525 4400 6750
$Comp
L power:GND #PWR?
U 1 1 5E9CB859
P 4400 8150
AR Path="/5E84A03F/5E9CB859" Ref="#PWR?"  Part="1" 
AR Path="/5EAB9D7B/5E9CB859" Ref="#PWR?"  Part="1" 
F 0 "#PWR?" H 4400 7900 50  0001 C CNN
F 1 "GND" H 4400 8000 50  0000 C CNN
F 2 "" H 4400 8150 50  0001 C CNN
F 3 "" H 4400 8150 50  0001 C CNN
	1    4400 8150
	1    0    0    -1  
$EndComp
$Comp
L Device:C_Small C?
U 1 1 5E9CB867
P 4600 6650
AR Path="/5E84A03F/5E9CB867" Ref="C?"  Part="1" 
AR Path="/5EAB9D7B/5E9CB867" Ref="C?"  Part="1" 
F 0 "C?" H 4692 6696 50  0000 L CNN
F 1 "22n" H 4692 6605 50  0000 L CNN
F 2 "" H 4600 6650 50  0001 C CNN
F 3 "~" H 4600 6650 50  0001 C CNN
	1    4600 6650
	1    0    0    -1  
$EndComp
$Comp
L power:GND #PWR?
U 1 1 5E9CB875
P 4600 6750
AR Path="/5E84A03F/5E9CB875" Ref="#PWR?"  Part="1" 
AR Path="/5EAB9D7B/5E9CB875" Ref="#PWR?"  Part="1" 
F 0 "#PWR?" H 4600 6500 50  0001 C CNN
F 1 "GND" H 4600 6600 50  0000 C CNN
F 2 "" H 4600 6750 50  0001 C CNN
F 3 "" H 4600 6750 50  0001 C CNN
	1    4600 6750
	1    0    0    -1  
$EndComp
Wire Wire Line
	5225 7450 4900 7450
Wire Wire Line
	3900 7150 3575 7150
Wire Wire Line
	5225 7350 4900 7350
Connection ~ 4400 6525
Wire Wire Line
	5225 7150 4900 7150
Wire Wire Line
	3900 7450 3575 7450
$Comp
L 74xx:74LS367 U11
U 1 1 5E9CB89A
P 4400 7450
AR Path="/5E84A03F/5E9CB89A" Ref="U11"  Part="1" 
AR Path="/5EAB9D7B/5E9CB89A" Ref="U?"  Part="1" 
F 0 "U11" H 4025 8075 50  0000 C CNN
F 1 "N8T97N" H 4125 8000 50  0000 C CNN
F 2 "" H 4400 7450 50  0001 C CNN
F 3 "http://www.ti.com/lit/gpn/sn74LS367" H 4400 7450 50  0001 C CNN
	1    4400 7450
	1    0    0    -1  
$EndComp
Wire Wire Line
	5225 7550 4900 7550
Wire Wire Line
	4600 6525 4400 6525
Wire Wire Line
	4600 6550 4600 6525
Wire Wire Line
	4400 6500 4400 6525
Wire Wire Line
	3900 7550 3575 7550
Text Label 4575 2725 0    50   ~ 0
~RSTb
Text Label 5225 7450 2    50   ~ 0
~RSTb
Text Label 3575 7450 0    50   ~ 0
~RST
Wire Wire Line
	12100 7175 12100 7275
Wire Wire Line
	12100 7275 12125 7275
Wire Wire Line
	11800 6975 12125 6975
Wire Wire Line
	12825 6175 12825 6150
Wire Wire Line
	13300 6975 13300 7375
Wire Wire Line
	13125 7075 13150 7075
Connection ~ 13250 7275
Wire Wire Line
	13125 7375 13300 7375
Wire Wire Line
	12825 6150 12625 6150
$Comp
L es65-rescue:DS8T28N-my_ics U13
U 1 1 5E9CF5CC
P 12625 6975
AR Path="/5E84A03F/5E9CF5CC" Ref="U13"  Part="1" 
AR Path="/5EAB9D7B/5E9CF5CC" Ref="U?"  Part="1" 
F 0 "U13" H 12250 7500 50  0000 C CNN
F 1 "DS8T28N" H 12375 7425 50  0000 C CNN
F 2 "" H 12625 6975 50  0001 C CNN
F 3 "" H 12625 6975 50  0001 C CNN
	1    12625 6975
	1    0    0    -1  
$EndComp
$Comp
L power:GND #PWR?
U 1 1 5E9CF5D9
P 12625 7625
AR Path="/5E84A03F/5E9CF5D9" Ref="#PWR?"  Part="1" 
AR Path="/5EAB9D7B/5E9CF5D9" Ref="#PWR?"  Part="1" 
F 0 "#PWR?" H 12625 7375 50  0001 C CNN
F 1 "GND" H 12625 7475 50  0000 C CNN
F 2 "" H 12625 7625 50  0001 C CNN
F 3 "" H 12625 7625 50  0001 C CNN
	1    12625 7625
	1    0    0    -1  
$EndComp
Connection ~ 12625 6150
Wire Wire Line
	12625 6125 12625 6150
Wire Wire Line
	13125 7275 13250 7275
Wire Wire Line
	12125 6675 11800 6675
Wire Wire Line
	13125 7175 13200 7175
Wire Wire Line
	11800 6775 12125 6775
Wire Wire Line
	13150 6675 13150 7075
Wire Wire Line
	13250 7275 13500 7275
Wire Wire Line
	13125 6675 13150 6675
Connection ~ 13150 7075
Wire Wire Line
	13150 7075 13500 7075
Wire Wire Line
	13125 6975 13300 6975
Connection ~ 13300 7375
Wire Wire Line
	13300 7375 13500 7375
Connection ~ 13200 7175
Wire Wire Line
	13200 6775 13200 7175
$Comp
L power:GND #PWR?
U 1 1 5E9CF5F9
P 12825 6375
AR Path="/5E84A03F/5E9CF5F9" Ref="#PWR?"  Part="1" 
AR Path="/5EAB9D7B/5E9CF5F9" Ref="#PWR?"  Part="1" 
F 0 "#PWR?" H 12825 6125 50  0001 C CNN
F 1 "GND" H 12825 6225 50  0000 C CNN
F 2 "" H 12825 6375 50  0001 C CNN
F 3 "" H 12825 6375 50  0001 C CNN
	1    12825 6375
	1    0    0    -1  
$EndComp
$Comp
L Device:C_Small C?
U 1 1 5E9CF609
P 12825 6275
AR Path="/5E84A03F/5E9CF609" Ref="C?"  Part="1" 
AR Path="/5EAB9D7B/5E9CF609" Ref="C?"  Part="1" 
F 0 "C?" H 12917 6321 50  0000 L CNN
F 1 "22n" H 12917 6230 50  0000 L CNN
F 2 "" H 12825 6275 50  0001 C CNN
F 3 "~" H 12825 6275 50  0001 C CNN
	1    12825 6275
	1    0    0    -1  
$EndComp
Wire Wire Line
	12125 7175 12100 7175
Wire Wire Line
	11800 6875 12125 6875
$Comp
L power:+5V #PWR?
U 1 1 5E9CF619
P 12625 6125
AR Path="/5E84A03F/5E9CF619" Ref="#PWR?"  Part="1" 
AR Path="/5EAB9D7B/5E9CF619" Ref="#PWR?"  Part="1" 
F 0 "#PWR?" H 12625 5975 50  0001 C CNN
F 1 "+5V" H 12640 6298 50  0000 C CNN
F 2 "" H 12625 6125 50  0001 C CNN
F 3 "" H 12625 6125 50  0001 C CNN
	1    12625 6125
	1    0    0    -1  
$EndComp
Wire Wire Line
	12625 6150 12625 6375
Connection ~ 12100 7275
Wire Wire Line
	13125 6875 13250 6875
Wire Wire Line
	13200 7175 13500 7175
Wire Wire Line
	13125 6775 13200 6775
Wire Wire Line
	13250 6875 13250 7275
Connection ~ 15400 7350
$Comp
L es65-rescue:DS8T28N-my_ics U14
U 1 1 5E9D61FF
P 14725 6950
AR Path="/5E84A03F/5E9D61FF" Ref="U14"  Part="1" 
AR Path="/5EAB9D7B/5E9D61FF" Ref="U?"  Part="1" 
F 0 "U14" H 14350 7475 50  0000 C CNN
F 1 "DS8T28N" H 14475 7400 50  0000 C CNN
F 2 "" H 14725 6950 50  0001 C CNN
F 3 "" H 14725 6950 50  0001 C CNN
	1    14725 6950
	1    0    0    -1  
$EndComp
Wire Wire Line
	14225 7150 14200 7150
Wire Wire Line
	13900 6750 14225 6750
Wire Wire Line
	15225 6850 15350 6850
$Comp
L power:+5V #PWR?
U 1 1 5E9D620F
P 14725 6100
AR Path="/5E84A03F/5E9D620F" Ref="#PWR?"  Part="1" 
AR Path="/5EAB9D7B/5E9D620F" Ref="#PWR?"  Part="1" 
F 0 "#PWR?" H 14725 5950 50  0001 C CNN
F 1 "+5V" H 14740 6273 50  0000 C CNN
F 2 "" H 14725 6100 50  0001 C CNN
F 3 "" H 14725 6100 50  0001 C CNN
	1    14725 6100
	1    0    0    -1  
$EndComp
Wire Wire Line
	15400 7350 15625 7350
Wire Wire Line
	14725 6125 14725 6350
Wire Wire Line
	14225 6650 13900 6650
Wire Wire Line
	14925 6125 14725 6125
Connection ~ 15350 7250
Connection ~ 14200 7250
Connection ~ 14725 6125
Connection ~ 15250 7050
Wire Wire Line
	15250 6650 15250 7050
$Comp
L power:GND #PWR?
U 1 1 5E9D6225
P 14725 7600
AR Path="/5E84A03F/5E9D6225" Ref="#PWR?"  Part="1" 
AR Path="/5EAB9D7B/5E9D6225" Ref="#PWR?"  Part="1" 
F 0 "#PWR?" H 14725 7350 50  0001 C CNN
F 1 "GND" H 14725 7450 50  0000 C CNN
F 2 "" H 14725 7600 50  0001 C CNN
F 3 "" H 14725 7600 50  0001 C CNN
	1    14725 7600
	1    0    0    -1  
$EndComp
Connection ~ 15300 7150
Wire Wire Line
	15225 6650 15250 6650
Wire Wire Line
	15225 6950 15400 6950
Wire Wire Line
	14200 7250 13900 7250
Wire Wire Line
	15250 7050 15625 7050
Wire Wire Line
	14200 7250 14225 7250
Wire Wire Line
	15350 7250 15625 7250
Wire Wire Line
	15225 7050 15250 7050
Wire Wire Line
	15300 7150 15625 7150
Wire Wire Line
	15350 6850 15350 7250
Wire Wire Line
	13900 6950 14225 6950
Wire Wire Line
	14925 6150 14925 6125
Wire Wire Line
	13900 6850 14225 6850
Wire Wire Line
	15400 6950 15400 7350
$Comp
L power:GND #PWR?
U 1 1 5E9D6240
P 14925 6350
AR Path="/5E84A03F/5E9D6240" Ref="#PWR?"  Part="1" 
AR Path="/5EAB9D7B/5E9D6240" Ref="#PWR?"  Part="1" 
F 0 "#PWR?" H 14925 6100 50  0001 C CNN
F 1 "GND" H 14925 6200 50  0000 C CNN
F 2 "" H 14925 6350 50  0001 C CNN
F 3 "" H 14925 6350 50  0001 C CNN
	1    14925 6350
	1    0    0    -1  
$EndComp
Wire Wire Line
	15225 6750 15300 6750
Wire Wire Line
	15225 7250 15350 7250
$Comp
L Device:C_Small C?
U 1 1 5E9D6250
P 14925 6250
AR Path="/5E84A03F/5E9D6250" Ref="C?"  Part="1" 
AR Path="/5EAB9D7B/5E9D6250" Ref="C?"  Part="1" 
F 0 "C?" H 15017 6296 50  0000 L CNN
F 1 "22n" H 15017 6205 50  0000 L CNN
F 2 "" H 14925 6250 50  0001 C CNN
F 3 "~" H 14925 6250 50  0001 C CNN
	1    14925 6250
	1    0    0    -1  
$EndComp
Wire Wire Line
	14200 7150 14200 7250
Wire Wire Line
	15225 7350 15400 7350
Wire Wire Line
	15225 7150 15300 7150
Wire Wire Line
	15300 6750 15300 7150
Wire Wire Line
	14725 6100 14725 6125
Wire Wire Line
	12800 7825 12800 8175
Wire Wire Line
	12800 8175 12775 8175
Wire Wire Line
	12100 7275 12100 7825
Wire Wire Line
	12800 8175 13900 8175
Wire Wire Line
	13900 8175 13900 7250
Connection ~ 12800 8175
Text Label 13900 6650 0    50   ~ 0
AD3
Text Label 13900 6950 0    50   ~ 0
AD0
Text Label 13900 6750 0    50   ~ 0
AD1
Text Label 13900 6850 0    50   ~ 0
AD2
Text Label 11800 6975 0    50   ~ 0
AD5
Text Label 11800 6675 0    50   ~ 0
AD7
Text Label 11800 6775 0    50   ~ 0
AD6
Text Label 11800 6875 0    50   ~ 0
AD4
Text Notes 15650 7275 0    50   ~ 0
not \npopul.
Text Notes 13525 7300 0    50   ~ 0
not \npopul.
Text Label 11150 3475 0    50   ~ 0
AA2
Text Label 11150 3575 0    50   ~ 0
AA1
Text Label 11150 3675 0    50   ~ 0
AA3
Text Label 11150 3775 0    50   ~ 0
AA0
Text Label 11150 3875 0    50   ~ 0
R{slash}~W
Text Label 12800 3875 2    50   ~ 0
R{slash}~Wb
Text Notes 12900 3675 0    50   ~ 0
not \npopul.
$Comp
L Device:R_Network05 RN?
U 1 1 5E9F635C
P 2100 5900
AR Path="/5E84A03F/5E9F635C" Ref="RN?"  Part="1" 
AR Path="/5EAB9D7B/5E9F635C" Ref="RN?"  Part="1" 
F 0 "RN?" V 2525 5900 50  0000 C CNN
F 1 "R_Network05" V 2434 5900 50  0000 C CNN
F 2 "Resistor_THT:R_Array_SIP6" V 2475 5900 50  0001 C CNN
F 3 "http://www.vishay.com/docs/31509/csc.pdf" H 2100 5900 50  0001 C CNN
	1    2100 5900
	0    -1   -1   0   
$EndComp
$Comp
L power:+5V #PWR?
U 1 1 5E9FAC19
P 2900 5950
AR Path="/5E84A03F/5E9FAC19" Ref="#PWR?"  Part="1" 
AR Path="/5EAB9D7B/5E9FAC19" Ref="#PWR?"  Part="1" 
F 0 "#PWR?" H 2900 5800 50  0001 C CNN
F 1 "+5V" H 2915 6123 50  0000 C CNN
F 2 "" H 2900 5950 50  0001 C CNN
F 3 "" H 2900 5950 50  0001 C CNN
	1    2900 5950
	1    0    0    -1  
$EndComp
$Comp
L power:+5V #PWR?
U 1 1 5E9FB6FF
P 1850 5950
AR Path="/5E84A03F/5E9FB6FF" Ref="#PWR?"  Part="1" 
AR Path="/5EAB9D7B/5E9FB6FF" Ref="#PWR?"  Part="1" 
F 0 "#PWR?" H 1850 5800 50  0001 C CNN
F 1 "+5V" H 1865 6123 50  0000 C CNN
F 2 "" H 1850 5950 50  0001 C CNN
F 3 "" H 1850 5950 50  0001 C CNN
	1    1850 5950
	1    0    0    -1  
$EndComp
Text Label 4575 4225 0    50   ~ 0
RDY
Text Label 2725 4800 2    50   ~ 0
RDY
Wire Wire Line
	2725 4800 2450 4800
Text Label 13325 3525 0    50   ~ 0
RDY
Wire Wire Line
	13325 3525 13550 3525
Connection ~ 15125 800 
Connection ~ 14600 2125
$Comp
L power:GND #PWR?
U 1 1 5EA1DC56
P 15325 1025
AR Path="/5E84A03F/5EA1DC56" Ref="#PWR?"  Part="1" 
AR Path="/5EAB9D7B/5EA1DC56" Ref="#PWR?"  Part="1" 
F 0 "#PWR?" H 15325 775 50  0001 C CNN
F 1 "GND" H 15325 875 50  0000 C CNN
F 2 "" H 15325 1025 50  0001 C CNN
F 3 "" H 15325 1025 50  0001 C CNN
	1    15325 1025
	1    0    0    -1  
$EndComp
$Comp
L power:GND #PWR?
U 1 1 5EA1DC63
P 15125 2425
AR Path="/5E84A03F/5EA1DC63" Ref="#PWR?"  Part="1" 
AR Path="/5EAB9D7B/5EA1DC63" Ref="#PWR?"  Part="1" 
F 0 "#PWR?" H 15125 2175 50  0001 C CNN
F 1 "GND" H 15125 2275 50  0000 C CNN
F 2 "" H 15125 2425 50  0001 C CNN
F 3 "" H 15125 2425 50  0001 C CNN
	1    15125 2425
	1    0    0    -1  
$EndComp
$Comp
L 74xx:74LS367 U5
U 1 1 5EA1DC7F
P 15125 1725
AR Path="/5E84A03F/5EA1DC7F" Ref="U5"  Part="1" 
AR Path="/5EAB9D7B/5EA1DC7F" Ref="U?"  Part="1" 
F 0 "U5" H 14750 2350 50  0000 C CNN
F 1 "N8T97N" H 14850 2275 50  0000 C CNN
F 2 "" H 15125 1725 50  0001 C CNN
F 3 "http://www.ti.com/lit/gpn/sn74LS367" H 15125 1725 50  0001 C CNN
	1    15125 1725
	1    0    0    -1  
$EndComp
$Comp
L Device:C_Small C?
U 1 1 5EA1DC8D
P 15325 925
AR Path="/5E84A03F/5EA1DC8D" Ref="C?"  Part="1" 
AR Path="/5EAB9D7B/5EA1DC8D" Ref="C?"  Part="1" 
F 0 "C?" H 15417 971 50  0000 L CNN
F 1 "22n" H 15417 880 50  0000 L CNN
F 2 "" H 15325 925 50  0001 C CNN
F 3 "~" H 15325 925 50  0001 C CNN
	1    15325 925 
	1    0    0    -1  
$EndComp
$Comp
L power:+5V #PWR?
U 1 1 5EA1DC9A
P 15125 775
AR Path="/5E84A03F/5EA1DC9A" Ref="#PWR?"  Part="1" 
AR Path="/5EAB9D7B/5EA1DC9A" Ref="#PWR?"  Part="1" 
F 0 "#PWR?" H 15125 625 50  0001 C CNN
F 1 "+5V" H 15140 948 50  0000 C CNN
F 2 "" H 15125 775 50  0001 C CNN
F 3 "" H 15125 775 50  0001 C CNN
	1    15125 775 
	1    0    0    -1  
$EndComp
$Comp
L power:GND #PWR?
U 1 1 5EA1DCA7
P 14600 2150
AR Path="/5E84A03F/5EA1DCA7" Ref="#PWR?"  Part="1" 
AR Path="/5EAB9D7B/5EA1DCA7" Ref="#PWR?"  Part="1" 
F 0 "#PWR?" H 14600 1900 50  0001 C CNN
F 1 "GND" H 14600 2000 50  0000 C CNN
F 2 "" H 14600 2150 50  0001 C CNN
F 3 "" H 14600 2150 50  0001 C CNN
	1    14600 2150
	1    0    0    -1  
$EndComp
Wire Wire Line
	14625 1625 14300 1625
Wire Wire Line
	14625 2025 14600 2025
Wire Wire Line
	15125 775  15125 800 
Wire Wire Line
	14625 1325 14300 1325
Wire Wire Line
	14625 2125 14600 2125
Wire Wire Line
	14625 1425 14300 1425
Wire Wire Line
	14625 1725 14300 1725
Wire Wire Line
	14600 2150 14600 2125
Wire Wire Line
	14600 2125 14600 2025
Wire Wire Line
	14625 1825 14300 1825
Wire Wire Line
	15325 800  15125 800 
Wire Wire Line
	14625 1525 14300 1525
Wire Wire Line
	15325 825  15325 800 
Wire Wire Line
	15125 800  15125 1025
Text Notes 15675 2075 0    50   ~ 0
not \npopul.
Text Label 14300 1825 0    50   ~ 0
AA15
Text Label 14300 1325 0    50   ~ 0
AA12
Text Label 14300 1725 0    50   ~ 0
AA14
Text Label 14300 1425 0    50   ~ 0
AA10
Text Label 14300 1525 0    50   ~ 0
AA11
Text Label 14300 1625 0    50   ~ 0
AA13
Wire Wire Line
	12175 8275 11850 8275
Text Label 3575 7250 0    50   ~ 0
PH1b
Text Label 11850 8275 0    50   ~ 0
PH1bb
Text Label 5225 7250 2    50   ~ 0
PH1bb
Wire Wire Line
	5225 7250 4900 7250
$Comp
L power:GND #PWR?
U 1 1 5EA35218
P 3850 7900
AR Path="/5E84A03F/5EA35218" Ref="#PWR?"  Part="1" 
AR Path="/5EAB9D7B/5EA35218" Ref="#PWR?"  Part="1" 
F 0 "#PWR?" H 3850 7650 50  0001 C CNN
F 1 "GND" H 3850 7750 50  0000 C CNN
F 2 "" H 3850 7900 50  0001 C CNN
F 3 "" H 3850 7900 50  0001 C CNN
	1    3850 7900
	1    0    0    -1  
$EndComp
Wire Wire Line
	3850 7900 3850 7850
Wire Wire Line
	3850 7750 3900 7750
Wire Wire Line
	3900 7850 3850 7850
Connection ~ 3850 7850
Wire Wire Line
	3850 7850 3850 7750
Text Label 4575 3525 0    50   ~ 0
~IRQb
Text Label 5225 7050 2    50   ~ 0
~IRQb
Text Label 3575 7050 0    50   ~ 0
~IRQ
Text Label 2300 3700 2    50   ~ 0
~IRQ
Wire Wire Line
	3900 7050 3575 7050
Wire Wire Line
	2000 3700 2300 3700
Text Label 4575 3625 0    50   ~ 0
~NMIb
Text Label 5225 7150 2    50   ~ 0
~NMIb
Text Label 3575 7150 0    50   ~ 0
~NMI
Text Label 2300 3600 2    50   ~ 0
~NMI
Text Label 4575 5125 0    50   ~ 0
~SO
Text Label 2300 1200 2    50   ~ 0
~SO
Text Label 3625 5750 2    50   ~ 0
~SO
Wire Wire Line
	1850 5950 1850 6100
Wire Wire Line
	1850 6100 1900 6100
Wire Wire Line
	2900 5950 2900 6050
Wire Wire Line
	2900 6050 2950 6050
Wire Wire Line
	2300 5700 2575 5700
Wire Wire Line
	2300 5800 2575 5800
Wire Wire Line
	2300 5900 2575 5900
Wire Wire Line
	2300 6000 2575 6000
Wire Wire Line
	3350 5550 3625 5550
Wire Wire Line
	3350 5650 3625 5650
Wire Wire Line
	3350 5750 3625 5750
Wire Wire Line
	3350 5850 3625 5850
Wire Wire Line
	3350 5950 3625 5950
Wire Wire Line
	3350 6050 3625 6050
$Comp
L Device:R_Network07 RN?
U 1 1 5EA4057E
P 3150 5750
AR Path="/5E84A03F/5EA4057E" Ref="RN?"  Part="1" 
AR Path="/5EAB9D7B/5EA4057E" Ref="RN?"  Part="1" 
F 0 "RN?" V 3675 5750 50  0000 C CNN
F 1 "R_Network07" V 3584 5750 50  0000 C CNN
F 2 "Resistor_THT:R_Array_SIP8" V 3625 5750 50  0001 C CNN
F 3 "http://www.vishay.com/docs/31509/csc.pdf" H 3150 5750 50  0001 C CNN
	1    3150 5750
	0    -1   -1   0   
$EndComp
Wire Wire Line
	3350 5450 3625 5450
$Comp
L power:+5V #PWR?
U 1 1 5EA5F2E4
P 2200 7450
AR Path="/5E84A03F/5EA5F2E4" Ref="#PWR?"  Part="1" 
AR Path="/5EAB9D7B/5EA5F2E4" Ref="#PWR?"  Part="1" 
F 0 "#PWR?" H 2200 7300 50  0001 C CNN
F 1 "+5V" H 2215 7623 50  0000 C CNN
F 2 "" H 2200 7450 50  0001 C CNN
F 3 "" H 2200 7450 50  0001 C CNN
	1    2200 7450
	1    0    0    -1  
$EndComp
Wire Wire Line
	2200 7450 2200 7550
Wire Wire Line
	2200 7750 2250 7750
Wire Wire Line
	2250 7550 2200 7550
Connection ~ 2200 7550
Wire Wire Line
	2200 7550 2200 7750
Text Notes 9575 5400 0    50   ~ 0
not \npopul.
Wire Wire Line
	9400 5350 9550 5350
Wire Wire Line
	8525 5450 8800 5450
Connection ~ 12100 8075
Text Notes 11775 8050 0    50   ~ 0
not \npopul.
Text Label 3575 7550 0    50   ~ 0
PH2b
Text Label 5225 7550 2    50   ~ 0
PH2bb
Text Label 11825 8825 0    50   ~ 0
PH2bb
Text Notes 13025 9025 0    50   ~ 0
not \npopul.
Wire Wire Line
	12800 8725 13050 8725
Wire Wire Line
	9400 5725 9650 5725
Wire Wire Line
	2875 6775 3125 6775
Text Label 3125 6775 2    50   ~ 0
~PH2
Text Label 14025 3975 0    50   ~ 0
~PH2
Text Label 1600 4900 0    50   ~ 0
~PH2
Wire Wire Line
	1850 4900 1600 4900
Wire Wire Line
	2500 4575 2150 4575
Wire Wire Line
	2150 4575 2150 4600
Wire Wire Line
	14600 3675 14600 3625
Wire Wire Line
	14600 3625 14875 3625
Text Label 14875 3625 2    50   ~ 0
PLUP7
Text Label 2550 5250 2    50   ~ 0
PLUP7
Wire Wire Line
	2550 5250 2150 5250
Wire Wire Line
	2150 5250 2150 5200
Wire Wire Line
	2450 5000 2725 5000
Text Label 2725 5000 2    50   ~ 0
RESFF
Text Label 14025 4425 0    50   ~ 0
RESFF
Wire Wire Line
	14025 4425 14600 4425
Wire Wire Line
	14600 4425 14600 4275
Wire Wire Line
	14900 4075 15125 4075
Text Notes 15175 4125 0    50   ~ 0
not \npopul.
NoConn ~ 2300 6100
Text Label 3200 3700 2    50   ~ 0
4B
Text Label 2575 6000 2    50   ~ 0
4B
Text Label 2575 5800 2    50   ~ 0
3B
Text Label 3200 3800 2    50   ~ 0
3B
Text Label 3200 3600 2    50   ~ 0
5B
Text Label 2575 5900 2    50   ~ 0
5B
NoConn ~ 1125 1000
NoConn ~ 1125 3900
Text Label 4750 950  0    50   ~ 0
4MHZ
Text Label 2300 1100 2    50   ~ 0
4MHZ
Wire Wire Line
	5525 1275 5775 1275
Connection ~ 5525 1275
Text Label 5775 1275 2    50   ~ 0
2MHZ
Text Label 2300 1300 2    50   ~ 0
2MHZ
Text Label 2575 5700 2    50   ~ 0
8C
Text Label 2300 3300 2    50   ~ 0
8C
Text Notes 5350 7375 0    50   ~ 0
not \npopul.
Wire Wire Line
	1025 5300 1325 5300
Wire Wire Line
	1025 5500 1325 5500
Text Label 1325 6500 2    50   ~ 0
AA15
Wire Wire Line
	1025 6300 1325 6300
Text Label 1325 6100 2    50   ~ 0
AA11
Wire Wire Line
	1025 5400 1325 5400
Wire Wire Line
	1025 5700 1325 5700
Text Label 1325 5900 2    50   ~ 0
AA9
Text Label 1325 5500 2    50   ~ 0
AA5
Text Label 1325 5700 2    50   ~ 0
AA7
Text Label 1325 6200 2    50   ~ 0
AA12
Text Label 1325 5600 2    50   ~ 0
AA6
Text Label 1325 5100 2    50   ~ 0
AA1
Text Label 1325 5200 2    50   ~ 0
AA2
Text Label 1325 5300 2    50   ~ 0
AA3
Text Label 1325 5000 2    50   ~ 0
AA0
Wire Wire Line
	1025 5800 1325 5800
Wire Wire Line
	1025 6500 1325 6500
Text Label 1325 6400 2    50   ~ 0
AA14
Text Label 1325 6300 2    50   ~ 0
AA13
Text Label 1325 5800 2    50   ~ 0
AA8
Wire Wire Line
	1025 6400 1325 6400
Wire Wire Line
	1025 5900 1325 5900
Text Label 1325 5400 2    50   ~ 0
AA4
Wire Wire Line
	1025 6200 1325 6200
Wire Wire Line
	1025 6100 1325 6100
Wire Wire Line
	1025 5000 1325 5000
Text Label 1325 6000 2    50   ~ 0
AA10
Wire Wire Line
	1025 5100 1325 5100
Wire Wire Line
	1025 6000 1325 6000
Wire Wire Line
	1025 5600 1325 5600
Wire Wire Line
	1025 5200 1325 5200
Wire Wire Line
	1025 6700 1325 6700
Wire Wire Line
	1025 7000 1325 7000
Wire Wire Line
	1025 7100 1325 7100
Wire Wire Line
	1025 6900 1325 6900
Wire Wire Line
	1025 6800 1325 6800
Wire Wire Line
	1025 6600 1325 6600
Wire Wire Line
	1025 7700 1325 7700
Text Label 1325 7700 2    50   ~ 0
SYNb
Text Label 1325 6700 2    50   ~ 0
AD1
Text Label 1325 6600 2    50   ~ 0
AD0
Wire Wire Line
	1025 7200 1325 7200
Text Label 1325 6800 2    50   ~ 0
AD2
Wire Wire Line
	1025 7300 1325 7300
Text Label 1325 6900 2    50   ~ 0
AD3
Text Label 1325 7000 2    50   ~ 0
AD4
Text Label 1325 7200 2    50   ~ 0
AD6
Text Label 1325 7300 2    50   ~ 0
AD7
Text Label 1325 7100 2    50   ~ 0
AD5
Wire Wire Line
	1025 7600 1325 7600
Wire Wire Line
	1025 7400 1325 7400
Wire Wire Line
	1025 7500 1325 7500
Text Label 1325 7500 2    50   ~ 0
~SO
Text Label 1325 7400 2    50   ~ 0
4MHZ
Text Label 1325 7600 2    50   ~ 0
2MHZ
Text HLabel 1025 5000 0    50   Input ~ 0
AA0
Text HLabel 1025 5100 0    50   Input ~ 0
AA1
Text HLabel 1025 5200 0    50   Input ~ 0
AA2
Text HLabel 1025 5300 0    50   Input ~ 0
AA3
Text HLabel 1025 5400 0    50   Input ~ 0
AA4
Text HLabel 1025 5500 0    50   Input ~ 0
AA5
Text HLabel 1025 5600 0    50   Input ~ 0
AA6
Text HLabel 1025 5700 0    50   Input ~ 0
AA7
Text HLabel 1025 5800 0    50   Input ~ 0
AA8
Text HLabel 1025 5900 0    50   Input ~ 0
AA9
Text HLabel 1025 6000 0    50   Input ~ 0
AA10
Text HLabel 1025 6100 0    50   Input ~ 0
AA11
Text HLabel 1025 6200 0    50   Input ~ 0
AA12
Text HLabel 1025 6300 0    50   Input ~ 0
AA13
Text HLabel 1025 6400 0    50   Input ~ 0
AA14
Text HLabel 1025 6500 0    50   Input ~ 0
AA15
Text HLabel 1025 6600 0    50   Input ~ 0
AD0
Text HLabel 1025 6700 0    50   Input ~ 0
AD1
Text HLabel 1025 6800 0    50   Input ~ 0
AD2
Text HLabel 1025 6900 0    50   Input ~ 0
AD3
Text HLabel 1025 7000 0    50   Input ~ 0
AD4
Text HLabel 1025 7100 0    50   Input ~ 0
AD5
Text HLabel 1025 7200 0    50   Input ~ 0
AD6
Text HLabel 1025 7300 0    50   Input ~ 0
AD7
Text HLabel 1025 7400 0    50   Input ~ 0
4MHZ
Text HLabel 1025 7600 0    50   Input ~ 0
2MHZ
Text HLabel 1025 7500 0    50   Input ~ 0
~SO
Text HLabel 1025 7700 0    50   Input ~ 0
SYNb
Text HLabel 1525 4800 0    50   Input ~ 0
12A
Wire Wire Line
	1025 8500 1325 8500
Text Label 1325 7900 2    50   ~ 0
PH2b
Wire Wire Line
	1025 7800 1325 7800
Wire Wire Line
	1025 8000 1325 8000
Wire Wire Line
	1025 8300 1325 8300
Wire Wire Line
	1025 8100 1325 8100
Wire Wire Line
	1025 7900 1325 7900
Wire Wire Line
	1025 8200 1325 8200
Text Label 1325 8000 2    50   ~ 0
PH1b
Text Label 1325 8500 2    50   ~ 0
~RST
Text Label 1325 7800 2    50   ~ 0
CLK_IN
Text Label 1325 8300 2    50   ~ 0
~NMI
Text Label 1325 8200 2    50   ~ 0
8C
Text Label 1325 8400 2    50   ~ 0
~IRQ
Wire Wire Line
	1025 8400 1325 8400
Text HLabel 1025 7800 0    50   Input ~ 0
CLK_IN
Text HLabel 1025 7900 0    50   Input ~ 0
PH2b
Text HLabel 1025 8000 0    50   Input ~ 0
PH1b
Text HLabel 1025 8200 0    50   Input ~ 0
8C
Text HLabel 1025 8300 0    50   Input ~ 0
~NMI
Text HLabel 1025 8400 0    50   Input ~ 0
~IRQ
Text HLabel 1025 8500 0    50   Input ~ 0
~RST
Wire Wire Line
	1025 8800 1325 8800
Wire Wire Line
	1025 8600 1325 8600
Wire Wire Line
	1025 8700 1325 8700
Text Label 1325 8700 2    50   ~ 0
4B
Text Label 1325 8600 2    50   ~ 0
3B
Text Label 1325 8800 2    50   ~ 0
5B
Text HLabel 1025 8600 0    50   Input ~ 0
3B
Text HLabel 1025 8800 0    50   Input ~ 0
5B
Text HLabel 1025 8700 0    50   Input ~ 0
4B
Text Label 3200 1100 2    50   ~ 0
30B
Wire Wire Line
	3200 1100 2900 1100
Text Label 2500 4575 2    50   ~ 0
30B
Text Label 1325 8900 2    50   ~ 0
30B
Wire Wire Line
	1325 8900 1025 8900
Text HLabel 1025 8900 0    50   Input ~ 0
30B
Text Label 3200 1000 2    50   ~ 0
31B
Text Label 3625 5450 2    50   ~ 0
31B
Text Label 1325 9000 2    50   ~ 0
31B
Wire Wire Line
	1325 9000 1025 9000
Text HLabel 1025 9000 0    50   Input ~ 0
31B
Text Label 3575 7350 0    50   ~ 0
R{slash}~Wb
Text Label 1325 8100 2    50   ~ 0
R{slash}~Wb
Text Label 2300 2900 2    50   ~ 0
R{slash}~Wb
Text HLabel 1025 8100 0    50   Input ~ 0
R{slash}Wb
Text Label 2300 3900 2    50   ~ 0
~RSTb
Text Label 3625 5950 2    50   ~ 0
~RST
Text Label 3625 6050 2    50   ~ 0
~IRQ
Text Label 3625 5850 2    50   ~ 0
~NMI
Text Label 3625 5650 2    50   ~ 0
30B
Text Label 3625 5550 2    50   ~ 0
12A
Text Label 1400 2900 2    50   ~ 0
12A
Wire Wire Line
	1525 4800 1850 4800
Wire Wire Line
	1400 2900 1125 2900
Text Label 1750 4800 2    50   ~ 0
12A
Wire Wire Line
	2000 3800 2300 3800
Text Label 2300 3800 2    50   ~ 0
~RST
Wire Wire Line
	1600 8500 1900 8500
Text Label 1900 8500 2    50   ~ 0
~RSTb
Text HLabel 1600 8500 0    50   Input ~ 0
~RSTb
$Comp
L es65-rescue:27C32-my_ics U19
U 1 1 5F5254D2
P 7675 7450
F 0 "U19" H 7325 8525 50  0000 C CNN
F 1 "27C32" H 7400 8425 50  0000 C CNN
F 2 "Package_DIP:DIP-24_W15.24mm" H 7675 7450 50  0001 C CNN
F 3 "" H 7675 7450 50  0001 C CNN
	1    7675 7450
	1    0    0    -1  
$EndComp
$Comp
L power:+5V #PWR?
U 1 1 5F52CAF8
P 7675 6100
AR Path="/5E84A03F/5F52CAF8" Ref="#PWR?"  Part="1" 
AR Path="/5EAB9D7B/5F52CAF8" Ref="#PWR?"  Part="1" 
F 0 "#PWR?" H 7675 5950 50  0001 C CNN
F 1 "+5V" H 7690 6273 50  0000 C CNN
F 2 "" H 7675 6100 50  0001 C CNN
F 3 "" H 7675 6100 50  0001 C CNN
	1    7675 6100
	1    0    0    -1  
$EndComp
Wire Wire Line
	7875 6125 7675 6125
Connection ~ 7675 6125
Wire Wire Line
	7875 6150 7875 6125
$Comp
L power:GND #PWR?
U 1 1 5F52CB09
P 7875 6350
AR Path="/5E84A03F/5F52CB09" Ref="#PWR?"  Part="1" 
AR Path="/5EAB9D7B/5F52CB09" Ref="#PWR?"  Part="1" 
F 0 "#PWR?" H 7875 6100 50  0001 C CNN
F 1 "GND" H 7875 6200 50  0000 C CNN
F 2 "" H 7875 6350 50  0001 C CNN
F 3 "" H 7875 6350 50  0001 C CNN
	1    7875 6350
	1    0    0    -1  
$EndComp
$Comp
L Device:C_Small C?
U 1 1 5F52CB17
P 7875 6250
AR Path="/5E84A03F/5F52CB17" Ref="C?"  Part="1" 
AR Path="/5EAB9D7B/5F52CB17" Ref="C?"  Part="1" 
F 0 "C?" H 7967 6296 50  0000 L CNN
F 1 "22n" H 7967 6205 50  0000 L CNN
F 2 "" H 7875 6250 50  0001 C CNN
F 3 "~" H 7875 6250 50  0001 C CNN
	1    7875 6250
	1    0    0    -1  
$EndComp
Wire Wire Line
	7675 6100 7675 6125
Wire Wire Line
	7675 6125 7675 6450
$Comp
L power:GND #PWR?
U 1 1 5F52F13A
P 7675 8350
AR Path="/5E84A03F/5F52F13A" Ref="#PWR?"  Part="1" 
AR Path="/5EAB9D7B/5F52F13A" Ref="#PWR?"  Part="1" 
F 0 "#PWR?" H 7675 8100 50  0001 C CNN
F 1 "GND" H 7675 8200 50  0000 C CNN
F 2 "" H 7675 8350 50  0001 C CNN
F 3 "" H 7675 8350 50  0001 C CNN
	1    7675 8350
	1    0    0    -1  
$EndComp
Connection ~ 9475 6150
Wire Wire Line
	9675 6150 9475 6150
Wire Wire Line
	9675 6175 9675 6150
$Comp
L power:GND #PWR?
U 1 1 5F52FCA2
P 9475 8375
AR Path="/5E84A03F/5F52FCA2" Ref="#PWR?"  Part="1" 
AR Path="/5EAB9D7B/5F52FCA2" Ref="#PWR?"  Part="1" 
F 0 "#PWR?" H 9475 8125 50  0001 C CNN
F 1 "GND" H 9475 8225 50  0000 C CNN
F 2 "" H 9475 8375 50  0001 C CNN
F 3 "" H 9475 8375 50  0001 C CNN
	1    9475 8375
	1    0    0    -1  
$EndComp
Wire Wire Line
	9475 6125 9475 6150
$Comp
L power:+5V #PWR?
U 1 1 5F52FCB0
P 9475 6125
AR Path="/5E84A03F/5F52FCB0" Ref="#PWR?"  Part="1" 
AR Path="/5EAB9D7B/5F52FCB0" Ref="#PWR?"  Part="1" 
F 0 "#PWR?" H 9475 5975 50  0001 C CNN
F 1 "+5V" H 9500 6250 50  0000 C CNN
F 2 "" H 9475 6125 50  0001 C CNN
F 3 "" H 9475 6125 50  0001 C CNN
	1    9475 6125
	1    0    0    -1  
$EndComp
$Comp
L power:GND #PWR?
U 1 1 5F52FCBD
P 9675 6375
AR Path="/5E84A03F/5F52FCBD" Ref="#PWR?"  Part="1" 
AR Path="/5EAB9D7B/5F52FCBD" Ref="#PWR?"  Part="1" 
F 0 "#PWR?" H 9675 6125 50  0001 C CNN
F 1 "GND" H 9675 6225 50  0000 C CNN
F 2 "" H 9675 6375 50  0001 C CNN
F 3 "" H 9675 6375 50  0001 C CNN
	1    9675 6375
	1    0    0    -1  
$EndComp
$Comp
L Device:C_Small C?
U 1 1 5F52FCCB
P 9675 6275
AR Path="/5E84A03F/5F52FCCB" Ref="C?"  Part="1" 
AR Path="/5EAB9D7B/5F52FCCB" Ref="C?"  Part="1" 
F 0 "C?" H 9767 6321 50  0000 L CNN
F 1 "22n" H 9767 6230 50  0000 L CNN
F 2 "" H 9675 6275 50  0001 C CNN
F 3 "~" H 9675 6275 50  0001 C CNN
	1    9675 6275
	1    0    0    -1  
$EndComp
$Comp
L es65-rescue:27C32-my_ics U24
U 1 1 5F52FCF0
P 9475 7475
F 0 "U24" H 9125 8550 50  0000 C CNN
F 1 "27C32" H 9200 8450 50  0000 C CNN
F 2 "Package_DIP:DIP-24_W15.24mm" H 9475 7475 50  0001 C CNN
F 3 "" H 9475 7475 50  0001 C CNN
	1    9475 7475
	1    0    0    -1  
$EndComp
Wire Wire Line
	9475 6150 9475 6475
Wire Wire Line
	11025 6125 11025 6150
Wire Wire Line
	11025 6150 11025 6475
Wire Wire Line
	11225 6150 11025 6150
Wire Wire Line
	11225 6175 11225 6150
$Comp
L es65-rescue:27C32-my_ics U25
U 1 1 5F5353CE
P 11025 7475
F 0 "U25" H 10675 8550 50  0000 C CNN
F 1 "27C32" H 10750 8450 50  0000 C CNN
F 2 "Package_DIP:DIP-24_W15.24mm" H 11025 7475 50  0001 C CNN
F 3 "" H 11025 7475 50  0001 C CNN
	1    11025 7475
	1    0    0    -1  
$EndComp
$Comp
L Device:C_Small C?
U 1 1 5F5353DC
P 11225 6275
AR Path="/5E84A03F/5F5353DC" Ref="C?"  Part="1" 
AR Path="/5EAB9D7B/5F5353DC" Ref="C?"  Part="1" 
F 0 "C?" H 11317 6321 50  0000 L CNN
F 1 "22n" H 11317 6230 50  0000 L CNN
F 2 "" H 11225 6275 50  0001 C CNN
F 3 "~" H 11225 6275 50  0001 C CNN
	1    11225 6275
	1    0    0    -1  
$EndComp
$Comp
L power:GND #PWR?
U 1 1 5F5353E9
P 11225 6375
AR Path="/5E84A03F/5F5353E9" Ref="#PWR?"  Part="1" 
AR Path="/5EAB9D7B/5F5353E9" Ref="#PWR?"  Part="1" 
F 0 "#PWR?" H 11225 6125 50  0001 C CNN
F 1 "GND" H 11225 6225 50  0000 C CNN
F 2 "" H 11225 6375 50  0001 C CNN
F 3 "" H 11225 6375 50  0001 C CNN
	1    11225 6375
	1    0    0    -1  
$EndComp
$Comp
L power:GND #PWR?
U 1 1 5F5353F6
P 11025 8375
AR Path="/5E84A03F/5F5353F6" Ref="#PWR?"  Part="1" 
AR Path="/5EAB9D7B/5F5353F6" Ref="#PWR?"  Part="1" 
F 0 "#PWR?" H 11025 8125 50  0001 C CNN
F 1 "GND" H 11025 8225 50  0000 C CNN
F 2 "" H 11025 8375 50  0001 C CNN
F 3 "" H 11025 8375 50  0001 C CNN
	1    11025 8375
	1    0    0    -1  
$EndComp
Connection ~ 11025 6150
$Comp
L power:+5V #PWR?
U 1 1 5F535404
P 11025 6125
AR Path="/5E84A03F/5F535404" Ref="#PWR?"  Part="1" 
AR Path="/5EAB9D7B/5F535404" Ref="#PWR?"  Part="1" 
F 0 "#PWR?" H 11025 5975 50  0001 C CNN
F 1 "+5V" H 11040 6298 50  0000 C CNN
F 2 "" H 11025 6125 50  0001 C CNN
F 3 "" H 11025 6125 50  0001 C CNN
	1    11025 6125
	1    0    0    -1  
$EndComp
Wire Wire Line
	7275 6650 7000 6650
Wire Wire Line
	7275 6750 7000 6750
Wire Wire Line
	7275 6850 7000 6850
Wire Wire Line
	7275 6950 7000 6950
Wire Wire Line
	7275 7050 7000 7050
Wire Wire Line
	7275 7150 7000 7150
Wire Wire Line
	7275 7250 7000 7250
Wire Wire Line
	7275 7350 7000 7350
Wire Wire Line
	7275 7450 7000 7450
Wire Wire Line
	7275 7900 7000 7900
Wire Wire Line
	8375 6650 8075 6650
Wire Wire Line
	8350 7050 8075 7050
Wire Wire Line
	9075 6775 8800 6775
Wire Wire Line
	9075 7375 8800 7375
Wire Wire Line
	10150 6675 9875 6675
Wire Wire Line
	9075 6975 8800 6975
Wire Wire Line
	9075 7275 8800 7275
Wire Wire Line
	10150 7075 9875 7075
Wire Wire Line
	9075 7175 8800 7175
Wire Wire Line
	9075 7475 8800 7475
Wire Wire Line
	9075 7575 8800 7575
Wire Wire Line
	9075 6875 8800 6875
Wire Wire Line
	10150 6875 9875 6875
Wire Wire Line
	10150 7375 9875 7375
Wire Wire Line
	9075 6675 8800 6675
Wire Wire Line
	10150 6775 9875 6775
Wire Wire Line
	10150 6975 9875 6975
Wire Wire Line
	10150 7175 9875 7175
Wire Wire Line
	10150 7275 9875 7275
Wire Wire Line
	9075 7075 8800 7075
Wire Wire Line
	10625 7075 10350 7075
Wire Wire Line
	11700 6875 11425 6875
Wire Wire Line
	11700 7375 11425 7375
Wire Wire Line
	11700 7275 11425 7275
Wire Wire Line
	10625 7275 10350 7275
Wire Wire Line
	11700 6675 11425 6675
Wire Wire Line
	11700 6975 11425 6975
Wire Wire Line
	10625 6675 10350 6675
Wire Wire Line
	11700 7075 11425 7075
Wire Wire Line
	10625 7175 10350 7175
Wire Wire Line
	10625 6975 10350 6975
Wire Wire Line
	10625 7475 10350 7475
Wire Wire Line
	11700 7175 11425 7175
Wire Wire Line
	10625 6875 10350 6875
Wire Wire Line
	10625 7575 10350 7575
Wire Wire Line
	10625 6775 10350 6775
Wire Wire Line
	10625 7375 10350 7375
Wire Wire Line
	11700 6775 11425 6775
Text Label 8800 6675 0    50   ~ 0
AE0
Text Label 8800 6775 0    50   ~ 0
AE1
Text Label 8800 6875 0    50   ~ 0
AE2
Text Label 8800 6975 0    50   ~ 0
AE3
Text Label 8800 7075 0    50   ~ 0
AE4
Text Label 8800 7175 0    50   ~ 0
AE5
Text Label 8800 7275 0    50   ~ 0
AE6
Text Label 8800 7375 0    50   ~ 0
AE7
Text Label 8800 7475 0    50   ~ 0
AE8
Text Label 8800 7575 0    50   ~ 0
AE9
Text Label 7000 6650 0    50   ~ 0
AE10
Text Label 7000 6750 0    50   ~ 0
AE11
Text Label 7000 6850 0    50   ~ 0
AE12
Text Label 15850 1325 2    50   ~ 0
AE12
Text Label 12800 3475 2    50   ~ 0
AE2
Text Label 14100 1325 2    50   ~ 0
AE9
Text Label 15850 1625 2    50   ~ 0
AE13
Text Label 15850 1825 2    50   ~ 0
AE15
Text Label 12800 3575 2    50   ~ 0
AE1
Text Label 15850 1725 2    50   ~ 0
AE14
Text Label 14100 1725 2    50   ~ 0
AE5
Text Label 14100 1625 2    50   ~ 0
AE4
Text Label 14100 1825 2    50   ~ 0
AE6
Text Label 15850 1425 2    50   ~ 0
AE10
Text Label 15850 1525 2    50   ~ 0
AE11
Text Label 12800 3675 2    50   ~ 0
AE3
Text Label 14100 1525 2    50   ~ 0
AE7
Text Label 12800 3775 2    50   ~ 0
AE0
Text Label 14100 1425 2    50   ~ 0
AE8
Wire Wire Line
	13950 1325 14100 1325
Wire Wire Line
	13950 1425 14100 1425
Wire Wire Line
	13950 1525 14100 1525
Wire Wire Line
	13950 1625 14100 1625
Wire Wire Line
	13950 1725 14100 1725
Wire Wire Line
	13950 1825 14100 1825
Wire Wire Line
	15625 1525 15850 1525
Wire Wire Line
	15625 1325 15850 1325
Wire Wire Line
	15625 1825 15850 1825
Wire Wire Line
	15625 1725 15850 1725
Wire Wire Line
	15625 1625 15850 1625
Wire Wire Line
	15625 1425 15850 1425
Wire Wire Line
	8550 7250 8550 7675
Wire Wire Line
	8075 7250 8550 7250
Wire Wire Line
	8550 7675 9075 7675
Wire Wire Line
	8550 7675 8550 8600
Wire Wire Line
	10025 8600 10025 7675
Wire Wire Line
	10025 7675 10625 7675
Wire Wire Line
	8550 8600 10025 8600
Connection ~ 8550 7675
Text Label 10350 6875 0    50   ~ 0
AE2
Text Label 10350 7575 0    50   ~ 0
AE9
Text Label 10350 6775 0    50   ~ 0
AE1
Text Label 10350 7175 0    50   ~ 0
AE5
Text Label 10350 7075 0    50   ~ 0
AE4
Text Label 10350 7275 0    50   ~ 0
AE6
Text Label 10350 6975 0    50   ~ 0
AE3
Text Label 10350 7375 0    50   ~ 0
AE7
Text Label 10350 6675 0    50   ~ 0
AE0
Text Label 10350 7475 0    50   ~ 0
AE8
Wire Wire Line
	8425 7775 8425 8700
Wire Wire Line
	8425 8700 10125 8700
Wire Wire Line
	10125 8700 10125 7775
Wire Wire Line
	8425 7775 9075 7775
Wire Wire Line
	10125 7775 10625 7775
$Comp
L Jumper:Jumper_3_Open JP3
U 1 1 5F5532A3
P 10125 8925
F 0 "JP3" H 9950 8850 50  0000 C CNN
F 1 "Jumper_3_Open" H 9725 9025 50  0000 C CNN
F 2 "" H 10125 8925 50  0001 C CNN
F 3 "~" H 10125 8925 50  0001 C CNN
	1    10125 8925
	-1   0    0    1   
$EndComp
Wire Wire Line
	10125 8775 10125 8700
Connection ~ 10125 8700
Wire Wire Line
	10375 8925 10600 8925
Wire Wire Line
	10600 8925 10600 8850
$Comp
L power:+5V #PWR?
U 1 1 5F553DF2
P 10600 8850
AR Path="/5E84A03F/5F553DF2" Ref="#PWR?"  Part="1" 
AR Path="/5EAB9D7B/5F553DF2" Ref="#PWR?"  Part="1" 
F 0 "#PWR?" H 10600 8700 50  0001 C CNN
F 1 "+5V" H 10615 9023 50  0000 C CNN
F 2 "" H 10600 8850 50  0001 C CNN
F 3 "" H 10600 8850 50  0001 C CNN
	1    10600 8850
	1    0    0    -1  
$EndComp
$Comp
L power:+5V #PWR?
U 1 1 5F554C39
P 6850 7600
AR Path="/5E84A03F/5F554C39" Ref="#PWR?"  Part="1" 
AR Path="/5EAB9D7B/5F554C39" Ref="#PWR?"  Part="1" 
F 0 "#PWR?" H 6850 7450 50  0001 C CNN
F 1 "+5V" H 6865 7773 50  0000 C CNN
F 2 "" H 6850 7600 50  0001 C CNN
F 3 "" H 6850 7600 50  0001 C CNN
	1    6850 7600
	1    0    0    -1  
$EndComp
Wire Wire Line
	6850 7600 6850 7650
Wire Wire Line
	6850 7650 7275 7650
$Comp
L power:GND #PWR?
U 1 1 5F5556B9
P 6850 8075
AR Path="/5E84A03F/5F5556B9" Ref="#PWR?"  Part="1" 
AR Path="/5EAB9D7B/5F5556B9" Ref="#PWR?"  Part="1" 
F 0 "#PWR?" H 6850 7825 50  0001 C CNN
F 1 "GND" H 6850 7925 50  0000 C CNN
F 2 "" H 6850 8075 50  0001 C CNN
F 3 "" H 6850 8075 50  0001 C CNN
	1    6850 8075
	1    0    0    -1  
$EndComp
Wire Wire Line
	6850 8075 6850 8000
Wire Wire Line
	6850 7750 7275 7750
Wire Wire Line
	6850 8000 7275 8000
Connection ~ 6850 8000
Wire Wire Line
	6850 8000 6850 7750
Wire Wire Line
	8725 7925 8725 8075
Wire Wire Line
	8725 7925 9075 7925
$Comp
L power:GND #PWR?
U 1 1 5F55DAAB
P 8725 8075
AR Path="/5E84A03F/5F55DAAB" Ref="#PWR?"  Part="1" 
AR Path="/5EAB9D7B/5F55DAAB" Ref="#PWR?"  Part="1" 
F 0 "#PWR?" H 8725 7825 50  0001 C CNN
F 1 "GND" H 8725 7925 50  0000 C CNN
F 2 "" H 8725 8075 50  0001 C CNN
F 3 "" H 8725 8075 50  0001 C CNN
	1    8725 8075
	1    0    0    -1  
$EndComp
$Comp
L power:GND #PWR?
U 1 1 5F55DD5E
P 10275 8100
AR Path="/5E84A03F/5F55DD5E" Ref="#PWR?"  Part="1" 
AR Path="/5EAB9D7B/5F55DD5E" Ref="#PWR?"  Part="1" 
F 0 "#PWR?" H 10275 7850 50  0001 C CNN
F 1 "GND" H 10275 7950 50  0000 C CNN
F 2 "" H 10275 8100 50  0001 C CNN
F 3 "" H 10275 8100 50  0001 C CNN
	1    10275 8100
	1    0    0    -1  
$EndComp
Wire Wire Line
	10275 8100 10275 7925
Wire Wire Line
	10275 7925 10625 7925
Wire Wire Line
	9875 8925 8300 8925
Wire Wire Line
	8300 8925 8300 7350
Wire Wire Line
	8300 7350 8075 7350
Text Label 15625 7350 2    50   ~ 0
ED0
Text Label 15625 7150 2    50   ~ 0
ED1
Text Label 15625 7250 2    50   ~ 0
ED2
Text Label 15625 7050 2    50   ~ 0
ED3
Text Label 13500 7275 2    50   ~ 0
ED4
Text Label 13500 7375 2    50   ~ 0
ED5
Text Label 13500 7175 2    50   ~ 0
ED6
Text Label 13500 7075 2    50   ~ 0
ED7
Text Label 10150 7375 2    50   ~ 0
ED7
Text Label 10150 7175 2    50   ~ 0
ED5
Text Label 10150 6875 2    50   ~ 0
ED2
Text Label 10150 7075 2    50   ~ 0
ED4
Text Label 10150 6675 2    50   ~ 0
ED0
Text Label 10150 6975 2    50   ~ 0
ED3
Text Label 10150 7275 2    50   ~ 0
ED6
Text Label 10150 6775 2    50   ~ 0
ED1
Text Label 11700 7075 2    50   ~ 0
ED4
Text Label 11700 6775 2    50   ~ 0
ED1
Text Label 11700 7175 2    50   ~ 0
ED5
Text Label 11700 6675 2    50   ~ 0
ED0
Text Label 11700 7275 2    50   ~ 0
ED6
Text Label 11700 7375 2    50   ~ 0
ED7
Text Label 11700 6875 2    50   ~ 0
ED2
Text Label 11700 6975 2    50   ~ 0
ED3
Wire Wire Line
	8400 7150 8400 7575
Wire Wire Line
	8400 7575 8175 7575
Wire Wire Line
	8175 9125 11650 9125
Wire Wire Line
	11650 9125 11650 8075
Wire Wire Line
	8075 7150 8400 7150
Wire Wire Line
	11650 8075 12100 8075
Text Label 7000 7050 0    50   ~ 0
AE14
Text Label 7000 7150 0    50   ~ 0
AE15
Text Label 7000 6950 0    50   ~ 0
AE13
Text Label 5225 7350 2    50   ~ 0
R{slash}~Wbb
Text Label 7000 7250 0    50   ~ 0
R{slash}~Wbb
Text Label 7000 7350 0    50   ~ 0
5B
Text Label 7000 7450 0    50   ~ 0
4B
NoConn ~ 7275 7550
Text Label 7000 7900 0    50   ~ 0
3B
Wire Wire Line
	8650 6850 8650 8025
Wire Wire Line
	8075 6850 8650 6850
Wire Wire Line
	8650 8025 9075 8025
Wire Wire Line
	8575 6950 8575 5925
Wire Wire Line
	8575 5925 10200 5925
Wire Wire Line
	10200 5925 10200 8025
Wire Wire Line
	8075 6950 8575 6950
Wire Wire Line
	10200 8025 10625 8025
Wire Wire Line
	8375 6650 8375 5250
Wire Wire Line
	8375 5250 8800 5250
Text Label 8525 5625 0    50   ~ 0
PH2bb
Wire Wire Line
	8525 5625 8800 5625
Wire Wire Line
	11825 8825 12200 8825
Wire Wire Line
	8475 6750 8475 5825
Wire Wire Line
	8475 5825 8800 5825
Wire Wire Line
	8075 6750 8475 6750
Text Label 8525 5450 0    50   ~ 0
PH2bb
Text Notes 8300 7050 0    50   ~ 0
U18/15
Wire Wire Line
	12100 7825 12800 7825
Wire Wire Line
	8175 7575 8175 9125
$EndSCHEMATC
