EESchema Schematic File Version 4
EELAYER 30 0
EELAYER END
$Descr A4 11693 8268
encoding utf-8
Sheet 1 16
Title ""
Date ""
Rev ""
Comp ""
Comment1 ""
Comment2 ""
Comment3 ""
Comment4 ""
$EndDescr
$Sheet
S 2150 575  775  2650
U 5E83BCE9
F0 "RAM1" 50
F1 "RAM.sch" 50
F2 "AD2" I R 2925 2450 50 
F3 "AA3" I R 2925 950 50 
F4 "AA9" I R 2925 1550 50 
F5 "AD3" I R 2925 2550 50 
F6 "AA13" I R 2925 1950 50 
F7 "PH2b" I L 2150 650 50 
F8 "AD4" I R 2925 2650 50 
F9 "AD5" I R 2925 2750 50 
F10 "AD7" I R 2925 2950 50 
F11 "AD6" I R 2925 2850 50 
F12 "AA8" I R 2925 1450 50 
F13 "AA15" I R 2925 2150 50 
F14 "AD1" I R 2925 2350 50 
F15 "AA14" I R 2925 2050 50 
F16 "AA12" I R 2925 1850 50 
F17 "AA10" I R 2925 1650 50 
F18 "AA11" I R 2925 1750 50 
F19 "AA7" I R 2925 1350 50 
F20 "AD0" I R 2925 2250 50 
F21 "AA6" I R 2925 1250 50 
F22 "AA5" I R 2925 1150 50 
F23 "AA4" I R 2925 1050 50 
F24 "AA1" I R 2925 750 50 
F25 "AA0" I R 2925 650 50 
F26 "AA2" I R 2925 850 50 
F27 "BANK0" I L 2150 850 50 
F28 "BANK1" I L 2150 950 50 
F29 "BANK2" I L 2150 1050 50 
F30 "BANK3" I L 2150 1150 50 
F31 "R{slash}Wb" I L 2150 750 50 
$EndSheet
$Sheet
S 775  575  750  2650
U 5E84A03F
F0 "CPU" 50
F1 "CPU.sch" 50
F2 "AA0" I R 1525 650 50 
F3 "AA1" I R 1525 750 50 
F4 "AA2" I R 1525 850 50 
F5 "AA3" I R 1525 950 50 
F6 "AA4" I R 1525 1050 50 
F7 "AA5" I R 1525 1150 50 
F8 "AA6" I R 1525 1250 50 
F9 "AA7" I R 1525 1350 50 
F10 "AA8" I R 1525 1450 50 
F11 "AA9" I R 1525 1550 50 
F12 "AA10" I R 1525 1650 50 
F13 "AA11" I R 1525 1750 50 
F14 "AA12" I R 1525 1850 50 
F15 "AA13" I R 1525 1950 50 
F16 "AA14" I R 1525 2050 50 
F17 "AA15" I R 1525 2150 50 
F18 "AD0" I R 1525 2250 50 
F19 "AD1" I R 1525 2350 50 
F20 "AD2" I R 1525 2450 50 
F21 "AD3" I R 1525 2550 50 
F22 "AD4" I R 1525 2650 50 
F23 "AD5" I R 1525 2750 50 
F24 "AD6" I R 1525 2850 50 
F25 "AD7" I R 1525 2950 50 
F26 "4MHZ" I R 1525 3050 50 
F27 "2MHZ" I R 1525 3150 50 
F28 "~SO" I L 775 650 50 
F29 "SYNb" I L 775 750 50 
F30 "12A" I L 775 850 50 
F31 "CLK_IN" I L 775 950 50 
F32 "PH2b" I L 775 1150 50 
F33 "PH1b" I L 775 1050 50 
F34 "8C" I L 775 1350 50 
F35 "~NMI" I L 775 1450 50 
F36 "~IRQ" I L 775 1550 50 
F37 "3B" I L 775 1750 50 
F38 "5B" I L 775 1850 50 
F39 "4B" I L 775 1950 50 
F40 "30B" I L 775 2050 50 
F41 "31B" I L 775 2150 50 
F42 "R{slash}Wb" I L 775 1250 50 
F43 "~RST" I L 775 2250 50 
F44 "~RSTb" I L 775 2350 50 
$EndSheet
Wire Wire Line
	1525 650  1800 650 
Wire Wire Line
	1525 750  1800 750 
Wire Wire Line
	1525 850  1800 850 
Wire Wire Line
	1525 950  1800 950 
Wire Wire Line
	1525 1050 1800 1050
Wire Wire Line
	1525 1150 1800 1150
Wire Wire Line
	1525 1250 1800 1250
Wire Wire Line
	1525 1350 1800 1350
Wire Wire Line
	1525 1450 1800 1450
Wire Wire Line
	1525 1550 1800 1550
Wire Wire Line
	1525 1650 1800 1650
Wire Wire Line
	1525 1750 1800 1750
Wire Wire Line
	1525 1850 1800 1850
Wire Wire Line
	1525 1950 1800 1950
Wire Wire Line
	1525 2050 1800 2050
Wire Wire Line
	1525 2150 1800 2150
Wire Wire Line
	1525 2250 1800 2250
Wire Wire Line
	1525 2350 1800 2350
Wire Wire Line
	1525 2450 1800 2450
Wire Wire Line
	1525 2550 1800 2550
Wire Wire Line
	1525 2650 1800 2650
Wire Wire Line
	1525 2750 1800 2750
Wire Wire Line
	1525 2850 1800 2850
Wire Wire Line
	1525 2950 1800 2950
Wire Wire Line
	500  650  775  650 
Wire Wire Line
	500  750  775  750 
Wire Wire Line
	500  850  775  850 
Wire Wire Line
	500  950  775  950 
Wire Wire Line
	500  1050 775  1050
Wire Wire Line
	500  1150 775  1150
Wire Wire Line
	500  1250 775  1250
Wire Wire Line
	500  1350 775  1350
Wire Wire Line
	500  1450 775  1450
Wire Wire Line
	500  1550 775  1550
Wire Wire Line
	500  2250 775  2250
Wire Wire Line
	775  1750 500  1750
Wire Wire Line
	775  1850 500  1850
Wire Wire Line
	775  1950 500  1950
Wire Wire Line
	775  2050 500  2050
Wire Wire Line
	775  2150 500  2150
Text Label 1800 650  2    50   ~ 0
AA0
Text Label 1800 750  2    50   ~ 0
AA1
Text Label 1800 850  2    50   ~ 0
AA2
Text Label 1800 950  2    50   ~ 0
AA3
Text Label 1800 1050 2    50   ~ 0
AA4
Text Label 1800 1150 2    50   ~ 0
AA5
Text Label 1800 1250 2    50   ~ 0
AA6
Text Label 1800 1350 2    50   ~ 0
AA7
Text Label 1800 1450 2    50   ~ 0
AA8
Text Label 1800 1550 2    50   ~ 0
AA9
Text Label 1800 1650 2    50   ~ 0
AA10
Text Label 1800 1750 2    50   ~ 0
AA11
Text Label 1800 1850 2    50   ~ 0
AA12
Text Label 1800 1950 2    50   ~ 0
AA13
Text Label 1800 2050 2    50   ~ 0
AA14
Text Label 1800 2150 2    50   ~ 0
AA15
Text Label 1800 2250 2    50   ~ 0
AD0
Text Label 1800 2350 2    50   ~ 0
AD1
Text Label 1800 2450 2    50   ~ 0
AD2
Text Label 1800 2550 2    50   ~ 0
AD3
Text Label 1800 2650 2    50   ~ 0
AD4
Text Label 1800 2750 2    50   ~ 0
AD5
Text Label 1800 2850 2    50   ~ 0
AD6
Text Label 1800 2950 2    50   ~ 0
AD7
$Sheet
S 675  7125 700  450 
U 5EAB9D7B
F0 "Backplane" 50
F1 "Backplane.sch" 50
$EndSheet
Text Label 3200 650  2    50   ~ 0
AA0
Text Label 3200 750  2    50   ~ 0
AA1
Text Label 3200 950  2    50   ~ 0
AA3
Text Label 3200 850  2    50   ~ 0
AA2
Text Label 3200 1050 2    50   ~ 0
AA4
Text Label 3200 1250 2    50   ~ 0
AA6
Text Label 3200 1150 2    50   ~ 0
AA5
Text Label 3200 1450 2    50   ~ 0
AA8
Text Label 3200 1350 2    50   ~ 0
AA7
Text Label 3200 1650 2    50   ~ 0
AA10
Text Label 3200 1550 2    50   ~ 0
AA9
Text Label 3200 1750 2    50   ~ 0
AA11
Text Label 3200 1850 2    50   ~ 0
AA12
Text Label 3200 1950 2    50   ~ 0
AA13
Text Label 3200 2050 2    50   ~ 0
AA14
Text Label 3200 2150 2    50   ~ 0
AA15
Text Label 3200 2250 2    50   ~ 0
AD0
Text Label 3200 2450 2    50   ~ 0
AD2
Text Label 3200 2350 2    50   ~ 0
AD1
Text Label 3200 2550 2    50   ~ 0
AD3
Text Label 3200 2650 2    50   ~ 0
AD4
Text Label 3200 2850 2    50   ~ 0
AD6
Text Label 3200 2750 2    50   ~ 0
AD5
Text Label 3200 2950 2    50   ~ 0
AD7
Wire Wire Line
	2925 2850 3200 2850
Wire Wire Line
	2925 1150 3200 1150
Wire Wire Line
	2925 2050 3200 2050
Wire Wire Line
	2925 1650 3200 1650
Wire Wire Line
	2925 1850 3200 1850
Wire Wire Line
	2925 1050 3200 1050
Wire Wire Line
	2925 850  3200 850 
Wire Wire Line
	2925 950  3200 950 
Wire Wire Line
	2925 2650 3200 2650
Wire Wire Line
	2925 2450 3200 2450
Wire Wire Line
	2925 2950 3200 2950
Wire Wire Line
	2925 650  3200 650 
Wire Wire Line
	2925 750  3200 750 
Wire Wire Line
	2925 2550 3200 2550
Wire Wire Line
	2925 1950 3200 1950
Wire Wire Line
	2925 1250 3200 1250
Wire Wire Line
	2925 1350 3200 1350
Wire Wire Line
	2925 1450 3200 1450
Wire Wire Line
	2925 1550 3200 1550
Wire Wire Line
	2925 1750 3200 1750
Wire Wire Line
	2925 2750 3200 2750
Wire Wire Line
	2925 2150 3200 2150
Wire Wire Line
	2925 2250 3200 2250
Wire Wire Line
	2925 2350 3200 2350
Wire Wire Line
	1875 750  2150 750 
Wire Wire Line
	1875 1150 2100 1150
Wire Wire Line
	1875 650  2150 650 
Text Label 500  1250 0    50   ~ 0
R~W~b
Text Label 1875 750  0    50   ~ 0
R~W~b
Text Label 500  1150 0    50   ~ 0
PH2b
Text Label 1875 650  0    50   ~ 0
PH2b
$Sheet
S 3525 575  775  2650
U 5EA29723
F0 "RAM2" 50
F1 "RAM.sch" 50
F2 "AD2" I R 4300 2450 50 
F3 "AA3" I R 4300 950 50 
F4 "AA9" I R 4300 1550 50 
F5 "AD3" I R 4300 2550 50 
F6 "AA13" I R 4300 1950 50 
F7 "PH2b" I L 3525 650 50 
F8 "AD4" I R 4300 2650 50 
F9 "AD5" I R 4300 2750 50 
F10 "AD7" I R 4300 2950 50 
F11 "AD6" I R 4300 2850 50 
F12 "AA8" I R 4300 1450 50 
F13 "AA15" I R 4300 2150 50 
F14 "AD1" I R 4300 2350 50 
F15 "AA14" I R 4300 2050 50 
F16 "AA12" I R 4300 1850 50 
F17 "AA10" I R 4300 1650 50 
F18 "AA11" I R 4300 1750 50 
F19 "AA7" I R 4300 1350 50 
F20 "AD0" I R 4300 2250 50 
F21 "AA6" I R 4300 1250 50 
F22 "AA5" I R 4300 1150 50 
F23 "AA4" I R 4300 1050 50 
F24 "AA1" I R 4300 750 50 
F25 "AA0" I R 4300 650 50 
F26 "AA2" I R 4300 850 50 
F27 "BANK0" I L 3525 850 50 
F28 "BANK1" I L 3525 950 50 
F29 "BANK2" I L 3525 1050 50 
F30 "BANK3" I L 3525 1150 50 
F31 "R{slash}Wb" I L 3525 750 50 
$EndSheet
Text Label 4575 650  2    50   ~ 0
AA0
Text Label 4575 750  2    50   ~ 0
AA1
Text Label 4575 950  2    50   ~ 0
AA3
Text Label 4575 850  2    50   ~ 0
AA2
Text Label 4575 1050 2    50   ~ 0
AA4
Text Label 4575 1250 2    50   ~ 0
AA6
Text Label 4575 1150 2    50   ~ 0
AA5
Text Label 4575 1450 2    50   ~ 0
AA8
Text Label 4575 1350 2    50   ~ 0
AA7
Text Label 4575 1650 2    50   ~ 0
AA10
Text Label 4575 1550 2    50   ~ 0
AA9
Text Label 4575 1750 2    50   ~ 0
AA11
Text Label 4575 1850 2    50   ~ 0
AA12
Text Label 4575 1950 2    50   ~ 0
AA13
Text Label 4575 2050 2    50   ~ 0
AA14
Text Label 4575 2150 2    50   ~ 0
AA15
Text Label 4575 2250 2    50   ~ 0
AD0
Text Label 4575 2450 2    50   ~ 0
AD2
Text Label 4575 2350 2    50   ~ 0
AD1
Text Label 4575 2550 2    50   ~ 0
AD3
Text Label 4575 2650 2    50   ~ 0
AD4
Text Label 4575 2850 2    50   ~ 0
AD6
Text Label 4575 2750 2    50   ~ 0
AD5
Text Label 4575 2950 2    50   ~ 0
AD7
Wire Wire Line
	4300 2850 4575 2850
Wire Wire Line
	4300 1150 4575 1150
Wire Wire Line
	4300 2050 4575 2050
Wire Wire Line
	4300 1650 4575 1650
Wire Wire Line
	4300 1850 4575 1850
Wire Wire Line
	4300 1050 4575 1050
Wire Wire Line
	4300 850  4575 850 
Wire Wire Line
	4300 950  4575 950 
Wire Wire Line
	4300 2650 4575 2650
Wire Wire Line
	4300 2450 4575 2450
Wire Wire Line
	4300 2950 4575 2950
Wire Wire Line
	4300 650  4575 650 
Wire Wire Line
	4300 750  4575 750 
Wire Wire Line
	4300 2550 4575 2550
Wire Wire Line
	4300 1950 4575 1950
Wire Wire Line
	4300 1250 4575 1250
Wire Wire Line
	4300 1350 4575 1350
Wire Wire Line
	4300 1450 4575 1450
Wire Wire Line
	4300 1550 4575 1550
Wire Wire Line
	4300 1750 4575 1750
Wire Wire Line
	4300 2750 4575 2750
Wire Wire Line
	4300 2150 4575 2150
Wire Wire Line
	4300 2250 4575 2250
Wire Wire Line
	4300 2350 4575 2350
Wire Wire Line
	3250 750  3525 750 
Wire Wire Line
	3250 1150 3450 1150
Wire Wire Line
	3250 650  3525 650 
Text Label 3250 750  0    50   ~ 0
R~W~b
Text Label 3250 650  0    50   ~ 0
PH2b
Text Label 5950 650  2    50   ~ 0
AA0
Text Label 5950 750  2    50   ~ 0
AA1
Text Label 5950 950  2    50   ~ 0
AA3
Text Label 5950 850  2    50   ~ 0
AA2
Text Label 5950 1050 2    50   ~ 0
AA4
Text Label 5950 1250 2    50   ~ 0
AA6
Text Label 5950 1150 2    50   ~ 0
AA5
Text Label 5950 1450 2    50   ~ 0
AA8
Text Label 5950 1350 2    50   ~ 0
AA7
Text Label 5950 1650 2    50   ~ 0
AA10
Text Label 5950 1550 2    50   ~ 0
AA9
Text Label 5950 1750 2    50   ~ 0
AA11
Text Label 5950 1850 2    50   ~ 0
AA12
Text Label 5950 1950 2    50   ~ 0
AA13
Text Label 5950 2050 2    50   ~ 0
AA14
Text Label 5950 2150 2    50   ~ 0
AA15
Text Label 5950 2250 2    50   ~ 0
AD0
Text Label 5950 2450 2    50   ~ 0
AD2
Text Label 5950 2350 2    50   ~ 0
AD1
Text Label 5950 2550 2    50   ~ 0
AD3
Text Label 5950 2650 2    50   ~ 0
AD4
Text Label 5950 2850 2    50   ~ 0
AD6
Text Label 5950 2750 2    50   ~ 0
AD5
Text Label 5950 2950 2    50   ~ 0
AD7
Wire Wire Line
	5675 2850 5950 2850
Wire Wire Line
	5675 1150 5950 1150
Wire Wire Line
	5675 2050 5950 2050
Wire Wire Line
	5675 1650 5950 1650
Wire Wire Line
	5675 1850 5950 1850
Wire Wire Line
	5675 1050 5950 1050
Wire Wire Line
	5675 850  5950 850 
Wire Wire Line
	5675 950  5950 950 
Wire Wire Line
	5675 2650 5950 2650
Wire Wire Line
	5675 2450 5950 2450
Wire Wire Line
	5675 2950 5950 2950
Wire Wire Line
	5675 650  5950 650 
Wire Wire Line
	5675 750  5950 750 
Wire Wire Line
	5675 2550 5950 2550
Wire Wire Line
	5675 1950 5950 1950
Wire Wire Line
	5675 1250 5950 1250
Wire Wire Line
	5675 1350 5950 1350
Wire Wire Line
	5675 1450 5950 1450
Wire Wire Line
	5675 1550 5950 1550
Wire Wire Line
	5675 1750 5950 1750
Wire Wire Line
	5675 2750 5950 2750
Wire Wire Line
	5675 2150 5950 2150
Wire Wire Line
	5675 2250 5950 2250
Wire Wire Line
	5675 2350 5950 2350
Wire Wire Line
	4625 750  4900 750 
Wire Wire Line
	4625 1150 4850 1150
Wire Wire Line
	4625 650  4900 650 
Text Label 4625 750  0    50   ~ 0
R~W~b
$Sheet
S 6275 575  775  2650
U 5EA297F2
F0 "RAM4" 50
F1 "RAM.sch" 50
F2 "AD2" I R 7050 2450 50 
F3 "AA3" I R 7050 950 50 
F4 "AA9" I R 7050 1550 50 
F5 "AD3" I R 7050 2550 50 
F6 "AA13" I R 7050 1950 50 
F7 "PH2b" I L 6275 650 50 
F8 "AD4" I R 7050 2650 50 
F9 "AD5" I R 7050 2750 50 
F10 "AD7" I R 7050 2950 50 
F11 "AD6" I R 7050 2850 50 
F12 "AA8" I R 7050 1450 50 
F13 "AA15" I R 7050 2150 50 
F14 "AD1" I R 7050 2350 50 
F15 "AA14" I R 7050 2050 50 
F16 "AA12" I R 7050 1850 50 
F17 "AA10" I R 7050 1650 50 
F18 "AA11" I R 7050 1750 50 
F19 "AA7" I R 7050 1350 50 
F20 "AD0" I R 7050 2250 50 
F21 "AA6" I R 7050 1250 50 
F22 "AA5" I R 7050 1150 50 
F23 "AA4" I R 7050 1050 50 
F24 "AA1" I R 7050 750 50 
F25 "AA0" I R 7050 650 50 
F26 "AA2" I R 7050 850 50 
F27 "BANK0" I L 6275 850 50 
F28 "BANK1" I L 6275 950 50 
F29 "BANK2" I L 6275 1050 50 
F30 "BANK3" I L 6275 1150 50 
F31 "R{slash}Wb" I L 6275 750 50 
$EndSheet
Text Label 7325 750  2    50   ~ 0
AA1
Text Label 7325 950  2    50   ~ 0
AA3
Wire Wire Line
	7050 1150 7325 1150
Text Label 4625 650  0    50   ~ 0
PH2b
Text Label 7325 850  2    50   ~ 0
AA2
Text Label 7325 1050 2    50   ~ 0
AA4
Text Label 7325 1250 2    50   ~ 0
AA6
Text Label 7325 1150 2    50   ~ 0
AA5
Text Label 7325 1450 2    50   ~ 0
AA8
Text Label 7325 2250 2    50   ~ 0
AD0
Text Label 7325 1350 2    50   ~ 0
AA7
Text Label 7325 1650 2    50   ~ 0
AA10
Text Label 7325 1550 2    50   ~ 0
AA9
Text Label 7325 1750 2    50   ~ 0
AA11
Text Label 7325 1850 2    50   ~ 0
AA12
Text Label 7325 1950 2    50   ~ 0
AA13
Text Label 7325 2050 2    50   ~ 0
AA14
Text Label 7325 2150 2    50   ~ 0
AA15
Wire Wire Line
	7050 2450 7325 2450
Wire Wire Line
	7050 2950 7325 2950
Text Label 7325 2450 2    50   ~ 0
AD2
Text Label 7325 2350 2    50   ~ 0
AD1
Text Label 7325 2550 2    50   ~ 0
AD3
Text Label 7325 2650 2    50   ~ 0
AD4
Text Label 7325 2850 2    50   ~ 0
AD6
Text Label 7325 2750 2    50   ~ 0
AD5
Text Label 7325 2950 2    50   ~ 0
AD7
Wire Wire Line
	7050 2050 7325 2050
Wire Wire Line
	7050 1650 7325 1650
Wire Wire Line
	7050 1850 7325 1850
Wire Wire Line
	7050 1050 7325 1050
Wire Wire Line
	7050 850  7325 850 
Wire Wire Line
	7050 950  7325 950 
Wire Wire Line
	7050 2650 7325 2650
Text Label 7325 650  2    50   ~ 0
AA0
Wire Wire Line
	7050 650  7325 650 
Wire Wire Line
	7050 750  7325 750 
Wire Wire Line
	7050 2550 7325 2550
Wire Wire Line
	7050 1950 7325 1950
Wire Wire Line
	7050 1250 7325 1250
Wire Wire Line
	7050 1350 7325 1350
Wire Wire Line
	7050 1450 7325 1450
Wire Wire Line
	7050 1550 7325 1550
Wire Wire Line
	7050 1750 7325 1750
Wire Wire Line
	7050 2750 7325 2750
Wire Wire Line
	7050 2150 7325 2150
Wire Wire Line
	7050 2250 7325 2250
Wire Wire Line
	7050 2350 7325 2350
Wire Wire Line
	6000 750  6275 750 
Wire Wire Line
	6000 1150 6225 1150
Wire Wire Line
	6000 650  6275 650 
Text Label 6000 750  0    50   ~ 0
R~W~b
Text Label 6000 650  0    50   ~ 0
PH2b
Wire Wire Line
	7050 2850 7325 2850
$Sheet
S 4900 575  775  2650
U 5EA2979B
F0 "RAM3" 50
F1 "RAM.sch" 50
F2 "AD2" I R 5675 2450 50 
F3 "AA3" I R 5675 950 50 
F4 "AA9" I R 5675 1550 50 
F5 "AD3" I R 5675 2550 50 
F6 "AA13" I R 5675 1950 50 
F7 "PH2b" I L 4900 650 50 
F8 "AD4" I R 5675 2650 50 
F9 "AD5" I R 5675 2750 50 
F10 "AD7" I R 5675 2950 50 
F11 "AD6" I R 5675 2850 50 
F12 "AA8" I R 5675 1450 50 
F13 "AA15" I R 5675 2150 50 
F14 "AD1" I R 5675 2350 50 
F15 "AA14" I R 5675 2050 50 
F16 "AA12" I R 5675 1850 50 
F17 "AA10" I R 5675 1650 50 
F18 "AA11" I R 5675 1750 50 
F19 "AA7" I R 5675 1350 50 
F20 "AD0" I R 5675 2250 50 
F21 "AA6" I R 5675 1250 50 
F22 "AA5" I R 5675 1150 50 
F23 "AA4" I R 5675 1050 50 
F24 "AA1" I R 5675 750 50 
F25 "AA0" I R 5675 650 50 
F26 "AA2" I R 5675 850 50 
F27 "BANK0" I L 4900 850 50 
F28 "BANK1" I L 4900 950 50 
F29 "BANK2" I L 4900 1050 50 
F30 "BANK3" I L 4900 1150 50 
F31 "R{slash}Wb" I L 4900 750 50 
$EndSheet
Text Label 8750 1350 2    50   ~ 0
AA7
Text Label 8750 1650 2    50   ~ 0
AA10
Text Label 8750 1550 2    50   ~ 0
AA9
Text Label 8750 1750 2    50   ~ 0
AA11
Text Label 8750 1850 2    50   ~ 0
AA12
Text Label 8750 750  2    50   ~ 0
AA1
Text Label 8750 1450 2    50   ~ 0
AA8
Text Label 8750 2250 2    50   ~ 0
AD0
Text Label 8750 1950 2    50   ~ 0
AA13
Text Label 8750 2050 2    50   ~ 0
AA14
Text Label 8750 2150 2    50   ~ 0
AA15
Wire Wire Line
	8475 2450 8750 2450
Wire Wire Line
	8475 2950 8750 2950
Text Label 8750 2450 2    50   ~ 0
AD2
Text Label 8750 2350 2    50   ~ 0
AD1
Text Label 8750 2550 2    50   ~ 0
AD3
Text Label 8750 2650 2    50   ~ 0
AD4
Text Label 8750 2850 2    50   ~ 0
AD6
Text Label 8750 2750 2    50   ~ 0
AD5
Text Label 8750 2950 2    50   ~ 0
AD7
Wire Wire Line
	8475 2050 8750 2050
Wire Wire Line
	8475 1650 8750 1650
Wire Wire Line
	8475 1850 8750 1850
Wire Wire Line
	8475 1050 8750 1050
Wire Wire Line
	8475 850  8750 850 
Wire Wire Line
	8475 950  8750 950 
Wire Wire Line
	8475 2650 8750 2650
Text Label 8750 650  2    50   ~ 0
AA0
Wire Wire Line
	8475 650  8750 650 
Wire Wire Line
	8475 750  8750 750 
Wire Wire Line
	8475 2550 8750 2550
Wire Wire Line
	8475 1950 8750 1950
Wire Wire Line
	8475 1250 8750 1250
Wire Wire Line
	8475 1350 8750 1350
Wire Wire Line
	8475 1450 8750 1450
Wire Wire Line
	8475 1550 8750 1550
Wire Wire Line
	8475 1750 8750 1750
Wire Wire Line
	8475 2750 8750 2750
Wire Wire Line
	8475 2150 8750 2150
Wire Wire Line
	8475 2250 8750 2250
Wire Wire Line
	8475 2350 8750 2350
Wire Wire Line
	8475 2850 8750 2850
Text Label 8750 950  2    50   ~ 0
AA3
Wire Wire Line
	8475 1150 8750 1150
Text Label 8750 850  2    50   ~ 0
AA2
Text Label 8750 1050 2    50   ~ 0
AA4
Text Label 8750 1250 2    50   ~ 0
AA6
Text Label 8750 1150 2    50   ~ 0
AA5
Wire Wire Line
	7400 950  7675 950 
Wire Wire Line
	7400 1050 7675 1050
Wire Wire Line
	7400 750  7675 750 
Wire Wire Line
	7400 850  7675 850 
Wire Wire Line
	7400 1150 7675 1150
Wire Wire Line
	7400 650  7675 650 
Text Label 7400 750  0    50   ~ 0
R~W~b
Text Label 7400 650  0    50   ~ 0
PH2b
$Sheet
S 7675 575  800  2650
U 5EA2DD9E
F0 "ROM" 50
F1 "ROM.sch" 50
F2 "R{slash}Wb" I L 7675 750 50 
F3 "PH2b" I L 7675 650 50 
F4 "BANK3" I L 7675 1150 50 
F5 "BANK0" I L 7675 850 50 
F6 "BANK1" I L 7675 950 50 
F7 "BANK2" I L 7675 1050 50 
F8 "AA2" I R 8475 850 50 
F9 "AA0" I R 8475 650 50 
F10 "AA1" I R 8475 750 50 
F11 "AA4" I R 8475 1050 50 
F12 "AA5" I R 8475 1150 50 
F13 "AA6" I R 8475 1250 50 
F14 "AD0" I R 8475 2250 50 
F15 "AA7" I R 8475 1350 50 
F16 "AA11" I R 8475 1750 50 
F17 "AA10" I R 8475 1650 50 
F18 "AA12" I R 8475 1850 50 
F19 "AA14" I R 8475 2050 50 
F20 "AD1" I R 8475 2350 50 
F21 "AA15" I R 8475 2150 50 
F22 "AA8" I R 8475 1450 50 
F23 "AD6" I R 8475 2850 50 
F24 "AD7" I R 8475 2950 50 
F25 "AD5" I R 8475 2750 50 
F26 "AD4" I R 8475 2650 50 
F27 "AA13" I R 8475 1950 50 
F28 "AD3" I R 8475 2550 50 
F29 "AA9" I R 8475 1550 50 
F30 "AA3" I R 8475 950 50 
F31 "AD2" I R 8475 2450 50 
$EndSheet
Wire Wire Line
	9900 1950 10175 1950
Wire Wire Line
	9900 1250 10175 1250
Text Label 10175 1650 2    50   ~ 0
AA10
Text Label 10175 1850 2    50   ~ 0
AA12
Text Label 10175 2850 2    50   ~ 0
AD6
Text Label 8825 650  0    50   ~ 0
PH2b
Wire Wire Line
	9900 2450 10175 2450
Wire Wire Line
	9900 1850 10175 1850
Text Label 10175 1350 2    50   ~ 0
AA7
Wire Wire Line
	9900 750  10175 750 
Wire Wire Line
	9900 2550 10175 2550
Text Label 10175 2350 2    50   ~ 0
AD1
Text Label 10175 1950 2    50   ~ 0
AA13
Text Label 10175 2750 2    50   ~ 0
AD5
Wire Wire Line
	9900 1350 10175 1350
Wire Wire Line
	9900 2650 10175 2650
Wire Wire Line
	9900 650  10175 650 
Wire Wire Line
	9900 1650 10175 1650
Wire Wire Line
	9900 1750 10175 1750
Wire Wire Line
	9900 2750 10175 2750
Wire Wire Line
	9900 2150 10175 2150
Wire Wire Line
	9900 2250 10175 2250
Wire Wire Line
	9900 2350 10175 2350
Wire Wire Line
	9900 2850 10175 2850
Text Label 10175 950  2    50   ~ 0
AA3
Wire Wire Line
	9900 1150 10175 1150
Text Label 10175 850  2    50   ~ 0
AA2
Text Label 10175 1050 2    50   ~ 0
AA4
Text Label 10175 1250 2    50   ~ 0
AA6
Text Label 10175 1150 2    50   ~ 0
AA5
Text Label 8825 750  0    50   ~ 0
R~W~b
Wire Wire Line
	8825 750  9100 750 
Wire Wire Line
	9900 950  10175 950 
Text Label 10175 2950 2    50   ~ 0
AD7
Text Label 10175 1750 2    50   ~ 0
AA11
Text Label 10175 2150 2    50   ~ 0
AA15
Text Label 10175 2650 2    50   ~ 0
AD4
Wire Wire Line
	9900 1450 10175 1450
Wire Wire Line
	9900 1550 10175 1550
Wire Wire Line
	9900 2050 10175 2050
Text Label 10175 2050 2    50   ~ 0
AA14
Wire Wire Line
	8825 650  9100 650 
Text Label 10175 750  2    50   ~ 0
AA1
Wire Wire Line
	9900 2950 10175 2950
Text Label 10175 1450 2    50   ~ 0
AA8
Text Label 10175 2550 2    50   ~ 0
AD3
Wire Wire Line
	9900 850  10175 850 
Wire Wire Line
	9900 1050 10175 1050
Text Label 10175 2250 2    50   ~ 0
AD0
Text Label 10175 650  2    50   ~ 0
AA0
Text Label 10175 2450 2    50   ~ 0
AD2
Text Label 10175 1550 2    50   ~ 0
AA9
$Sheet
S 9100 575  800  2650
U 5EA9FEC9
F0 "RAMROM" 50
F1 "RAMROM.sch" 50
F2 "R{slash}Wb" I L 9100 750 50 
F3 "PH2b" I L 9100 650 50 
F4 "AA2" I R 9900 850 50 
F5 "AA0" I R 9900 650 50 
F6 "AA1" I R 9900 750 50 
F7 "AA4" I R 9900 1050 50 
F8 "AA5" I R 9900 1150 50 
F9 "AA6" I R 9900 1250 50 
F10 "AD0" I R 9900 2250 50 
F11 "AA7" I R 9900 1350 50 
F12 "AA11" I R 9900 1750 50 
F13 "AA10" I R 9900 1650 50 
F14 "AA12" I R 9900 1850 50 
F15 "AA14" I R 9900 2050 50 
F16 "AD1" I R 9900 2350 50 
F17 "AA15" I R 9900 2150 50 
F18 "AA8" I R 9900 1450 50 
F19 "AD6" I R 9900 2850 50 
F20 "AD7" I R 9900 2950 50 
F21 "AD5" I R 9900 2750 50 
F22 "AD4" I R 9900 2650 50 
F23 "AA13" I R 9900 1950 50 
F24 "AD3" I R 9900 2550 50 
F25 "AA9" I R 9900 1550 50 
F26 "AA3" I R 9900 950 50 
F27 "AD2" I R 9900 2450 50 
$EndSheet
Wire Wire Line
	4300 5000 4575 5000
Wire Wire Line
	4300 3800 4575 3800
Text Label 3225 3500 0    50   ~ 0
PH2b
Text Label 4575 5400 2    50   ~ 0
AD3
Text Label 4575 4600 2    50   ~ 0
AA11
Text Label 4575 4400 2    50   ~ 0
AA9
Text Label 4575 4900 2    50   ~ 0
AA14
Text Label 4575 4000 2    50   ~ 0
AA5
Text Label 4575 3700 2    50   ~ 0
AA2
Text Label 4575 5300 2    50   ~ 0
AD2
Text Label 4575 4700 2    50   ~ 0
AA12
Wire Wire Line
	4300 3600 4575 3600
Wire Wire Line
	4300 5400 4575 5400
Text Label 4575 3800 2    50   ~ 0
AA3
Text Label 4575 4300 2    50   ~ 0
AA8
Wire Wire Line
	3225 3500 3500 3500
Wire Wire Line
	4300 4400 4575 4400
Wire Wire Line
	4300 3500 4575 3500
Wire Wire Line
	4300 5800 4575 5800
Text Label 4575 5500 2    50   ~ 0
AD4
Text Label 4575 4100 2    50   ~ 0
AA6
Text Label 3225 3600 0    50   ~ 0
R~W~b
Text Label 4575 3600 2    50   ~ 0
AA1
Text Label 4575 5000 2    50   ~ 0
AA15
Wire Wire Line
	4300 4800 4575 4800
Wire Wire Line
	4300 5500 4575 5500
Wire Wire Line
	4300 4000 4575 4000
Text Label 4575 4200 2    50   ~ 0
AA7
Text Label 4575 5600 2    50   ~ 0
AD5
Text Label 4575 3500 2    50   ~ 0
AA0
Wire Wire Line
	4300 4300 4575 4300
Wire Wire Line
	4300 5700 4575 5700
Wire Wire Line
	4300 4700 4575 4700
Text Label 4575 5200 2    50   ~ 0
AD1
Wire Wire Line
	4300 4500 4575 4500
Wire Wire Line
	4300 5600 4575 5600
Wire Wire Line
	4300 3700 4575 3700
Text Label 4575 4800 2    50   ~ 0
AA13
Wire Wire Line
	4300 4100 4575 4100
Wire Wire Line
	4300 5100 4575 5100
Wire Wire Line
	4300 4600 4575 4600
Wire Wire Line
	4300 5200 4575 5200
Wire Wire Line
	4300 3900 4575 3900
Wire Wire Line
	4300 4900 4575 4900
Text Label 4575 5800 2    50   ~ 0
AD7
Wire Wire Line
	4300 4200 4575 4200
Text Label 4575 5700 2    50   ~ 0
AD6
Text Label 4575 4500 2    50   ~ 0
AA10
Wire Wire Line
	4300 5300 4575 5300
Text Label 4575 3900 2    50   ~ 0
AA4
Text Label 4575 5100 2    50   ~ 0
AD0
Wire Wire Line
	3225 3600 3500 3600
Wire Wire Line
	500  2350 775  2350
Text Label 500  1050 0    50   ~ 0
PH1b
Wire Wire Line
	4900 3900 4625 3900
Wire Wire Line
	4900 4400 4625 4400
Wire Wire Line
	4900 4000 4625 4000
Wire Wire Line
	4900 3500 4625 3500
Wire Wire Line
	4900 4200 4625 4200
Wire Wire Line
	4900 4100 4625 4100
Wire Wire Line
	4900 4700 4625 4700
Wire Wire Line
	4900 4500 4625 4500
Wire Wire Line
	4900 4600 4625 4600
Wire Wire Line
	4900 4300 4625 4300
Text Label 4625 3500 0    50   ~ 0
PH1b
$Sheet
S 4900 3425 775  2500
U 5E890F69
F0 "Serial1" 50
F1 "Serial.sch" 50
F2 "R{slash}Wb" I L 4900 3700 50 
F3 "PH2b" I L 4900 3600 50 
F4 "AA2" I R 5675 3700 50 
F5 "AA0" I R 5675 3500 50 
F6 "AA1" I R 5675 3600 50 
F7 "AA4" I R 5675 3900 50 
F8 "AA5" I R 5675 4000 50 
F9 "AA6" I R 5675 4100 50 
F10 "AD0" I R 5675 5100 50 
F11 "AA7" I R 5675 4200 50 
F12 "AA11" I R 5675 4600 50 
F13 "AA10" I R 5675 4500 50 
F14 "AA12" I R 5675 4700 50 
F15 "AA14" I R 5675 4900 50 
F16 "AD1" I R 5675 5200 50 
F17 "AA15" I R 5675 5000 50 
F18 "AA8" I R 5675 4300 50 
F19 "AD6" I R 5675 5700 50 
F20 "AD7" I R 5675 5800 50 
F21 "AD5" I R 5675 5600 50 
F22 "AD4" I R 5675 5500 50 
F23 "AA13" I R 5675 4800 50 
F24 "AD3" I R 5675 5400 50 
F25 "AA9" I R 5675 4400 50 
F26 "AA3" I R 5675 3800 50 
F27 "AD2" I R 5675 5300 50 
F28 "~RSTb" I L 4900 3900 50 
F29 "IRQ0" I L 4900 4000 50 
F30 "IRQ1" I L 4900 4100 50 
F31 "IRQ2" I L 4900 4200 50 
F32 "IRQ3" I L 4900 4300 50 
F33 "IRQ4" I L 4900 4400 50 
F34 "IRQ5" I L 4900 4500 50 
F35 "IRQ6" I L 4900 4600 50 
F36 "IRQ7" I L 4900 4700 50 
F37 "PH1b" I L 4900 3500 50 
$EndSheet
Wire Wire Line
	4625 3700 4900 3700
Text Label 5950 5100 2    50   ~ 0
AD0
Text Label 5950 3900 2    50   ~ 0
AA4
Wire Wire Line
	5675 5300 5950 5300
Text Label 5950 4500 2    50   ~ 0
AA10
Text Label 5950 5700 2    50   ~ 0
AD6
Wire Wire Line
	5675 4200 5950 4200
Text Label 5950 5800 2    50   ~ 0
AD7
Wire Wire Line
	5675 4900 5950 4900
Wire Wire Line
	5675 3900 5950 3900
Wire Wire Line
	5675 5200 5950 5200
Wire Wire Line
	5675 4600 5950 4600
Wire Wire Line
	5675 5100 5950 5100
Wire Wire Line
	5675 4100 5950 4100
Text Label 5950 4800 2    50   ~ 0
AA13
Wire Wire Line
	5675 3700 5950 3700
Wire Wire Line
	5675 5600 5950 5600
Wire Wire Line
	5675 4500 5950 4500
Text Label 5950 5200 2    50   ~ 0
AD1
Wire Wire Line
	5675 4700 5950 4700
Wire Wire Line
	5675 5700 5950 5700
Wire Wire Line
	5675 4300 5950 4300
Text Label 5950 3500 2    50   ~ 0
AA0
Text Label 5950 5600 2    50   ~ 0
AD5
Text Label 5950 4200 2    50   ~ 0
AA7
Wire Wire Line
	5675 4000 5950 4000
Wire Wire Line
	5675 5500 5950 5500
Wire Wire Line
	5675 4800 5950 4800
Text Label 5950 5000 2    50   ~ 0
AA15
Text Label 5950 3600 2    50   ~ 0
AA1
Text Label 4625 3700 0    50   ~ 0
R~W~b
Text Label 5950 4100 2    50   ~ 0
AA6
Text Label 5950 5500 2    50   ~ 0
AD4
Wire Wire Line
	5675 5800 5950 5800
Wire Wire Line
	5675 3500 5950 3500
Wire Wire Line
	5675 4400 5950 4400
Wire Wire Line
	4625 3600 4900 3600
Text Label 5950 4300 2    50   ~ 0
AA8
Text Label 5950 3800 2    50   ~ 0
AA3
Wire Wire Line
	5675 5400 5950 5400
Wire Wire Line
	5675 3600 5950 3600
Text Label 5950 4700 2    50   ~ 0
AA12
Text Label 5950 5300 2    50   ~ 0
AD2
Text Label 5950 3700 2    50   ~ 0
AA2
Text Label 5950 4000 2    50   ~ 0
AA5
Text Label 5950 4900 2    50   ~ 0
AA14
Text Label 5950 4400 2    50   ~ 0
AA9
Text Label 5950 4600 2    50   ~ 0
AA11
Text Label 5950 5400 2    50   ~ 0
AD3
Text Label 4625 3600 0    50   ~ 0
PH2b
Wire Wire Line
	5675 3800 5950 3800
Wire Wire Line
	5675 5000 5950 5000
Wire Wire Line
	7050 5000 7325 5000
Wire Wire Line
	7050 3800 7325 3800
Text Label 6000 3600 0    50   ~ 0
PH2b
Text Label 7325 5400 2    50   ~ 0
AD3
Text Label 7325 4600 2    50   ~ 0
AA11
Text Label 7325 4400 2    50   ~ 0
AA9
Text Label 7325 4900 2    50   ~ 0
AA14
Text Label 7325 4000 2    50   ~ 0
AA5
Text Label 7325 3700 2    50   ~ 0
AA2
Text Label 7325 5300 2    50   ~ 0
AD2
Text Label 7325 4700 2    50   ~ 0
AA12
Wire Wire Line
	7050 3600 7325 3600
Wire Wire Line
	7050 5400 7325 5400
Text Label 7325 3800 2    50   ~ 0
AA3
Text Label 7325 4300 2    50   ~ 0
AA8
Wire Wire Line
	6000 3600 6275 3600
Wire Wire Line
	7050 4400 7325 4400
Wire Wire Line
	7050 3500 7325 3500
Wire Wire Line
	7050 5800 7325 5800
Text Label 7325 5500 2    50   ~ 0
AD4
Text Label 7325 4100 2    50   ~ 0
AA6
Text Label 6000 3700 0    50   ~ 0
R~W~b
Text Label 7325 3600 2    50   ~ 0
AA1
Text Label 7325 5000 2    50   ~ 0
AA15
Wire Wire Line
	7050 4800 7325 4800
Wire Wire Line
	7050 5500 7325 5500
Wire Wire Line
	7050 4000 7325 4000
Text Label 7325 4200 2    50   ~ 0
AA7
Text Label 7325 5600 2    50   ~ 0
AD5
Text Label 7325 3500 2    50   ~ 0
AA0
Wire Wire Line
	7050 4300 7325 4300
Wire Wire Line
	7050 5700 7325 5700
Wire Wire Line
	7050 4700 7325 4700
Text Label 7325 5200 2    50   ~ 0
AD1
Wire Wire Line
	7050 4500 7325 4500
Wire Wire Line
	7050 5600 7325 5600
Wire Wire Line
	7050 3700 7325 3700
Text Label 7325 4800 2    50   ~ 0
AA13
Wire Wire Line
	7050 4100 7325 4100
Wire Wire Line
	7050 5100 7325 5100
Wire Wire Line
	7050 4600 7325 4600
Wire Wire Line
	7050 5200 7325 5200
Wire Wire Line
	7050 3900 7325 3900
Wire Wire Line
	7050 4900 7325 4900
Text Label 7325 5800 2    50   ~ 0
AD7
Wire Wire Line
	7050 4200 7325 4200
Text Label 7325 5700 2    50   ~ 0
AD6
Text Label 7325 4500 2    50   ~ 0
AA10
Wire Wire Line
	7050 5300 7325 5300
Text Label 7325 3900 2    50   ~ 0
AA4
Text Label 7325 5100 2    50   ~ 0
AD0
Wire Wire Line
	6000 3700 6275 3700
$Sheet
S 6275 3425 775  2500
U 5E9856B7
F0 "Serial2" 50
F1 "Serial.sch" 50
F2 "R{slash}Wb" I L 6275 3700 50 
F3 "PH2b" I L 6275 3600 50 
F4 "AA2" I R 7050 3700 50 
F5 "AA0" I R 7050 3500 50 
F6 "AA1" I R 7050 3600 50 
F7 "AA4" I R 7050 3900 50 
F8 "AA5" I R 7050 4000 50 
F9 "AA6" I R 7050 4100 50 
F10 "AD0" I R 7050 5100 50 
F11 "AA7" I R 7050 4200 50 
F12 "AA11" I R 7050 4600 50 
F13 "AA10" I R 7050 4500 50 
F14 "AA12" I R 7050 4700 50 
F15 "AA14" I R 7050 4900 50 
F16 "AD1" I R 7050 5200 50 
F17 "AA15" I R 7050 5000 50 
F18 "AA8" I R 7050 4300 50 
F19 "AD6" I R 7050 5700 50 
F20 "AD7" I R 7050 5800 50 
F21 "AD5" I R 7050 5600 50 
F22 "AD4" I R 7050 5500 50 
F23 "AA13" I R 7050 4800 50 
F24 "AD3" I R 7050 5400 50 
F25 "AA9" I R 7050 4400 50 
F26 "AA3" I R 7050 3800 50 
F27 "AD2" I R 7050 5300 50 
F28 "~RSTb" I L 6275 3900 50 
F29 "IRQ0" I L 6275 4000 50 
F30 "IRQ1" I L 6275 4100 50 
F31 "IRQ2" I L 6275 4200 50 
F32 "IRQ3" I L 6275 4300 50 
F33 "IRQ4" I L 6275 4400 50 
F34 "IRQ5" I L 6275 4500 50 
F35 "IRQ6" I L 6275 4600 50 
F36 "IRQ7" I L 6275 4700 50 
F37 "PH1b" I L 6275 3500 50 
$EndSheet
Text Label 6000 3500 0    50   ~ 0
PH1b
Wire Wire Line
	6275 4300 6000 4300
Wire Wire Line
	6275 4600 6000 4600
Wire Wire Line
	6275 4500 6000 4500
Wire Wire Line
	6275 4700 6000 4700
Wire Wire Line
	6275 4100 6000 4100
Wire Wire Line
	6275 4200 6000 4200
Wire Wire Line
	6275 3500 6000 3500
Wire Wire Line
	6275 4000 6000 4000
Wire Wire Line
	6275 4400 6000 4400
Wire Wire Line
	6275 3900 6000 3900
Wire Wire Line
	8450 5000 8725 5000
Wire Wire Line
	8450 3800 8725 3800
Text Label 7400 3600 0    50   ~ 0
PH2b
Text Label 8725 5400 2    50   ~ 0
AD3
Text Label 8725 4600 2    50   ~ 0
AA11
Text Label 8725 4400 2    50   ~ 0
AA9
Text Label 8725 4900 2    50   ~ 0
AA14
Text Label 8725 4000 2    50   ~ 0
AA5
Text Label 8725 3700 2    50   ~ 0
AA2
Text Label 8725 5300 2    50   ~ 0
AD2
Text Label 8725 4700 2    50   ~ 0
AA12
Wire Wire Line
	8450 3600 8725 3600
Wire Wire Line
	8450 5400 8725 5400
Text Label 8725 3800 2    50   ~ 0
AA3
Text Label 8725 4300 2    50   ~ 0
AA8
Wire Wire Line
	7400 3600 7675 3600
Wire Wire Line
	8450 4400 8725 4400
Wire Wire Line
	8450 3500 8725 3500
Wire Wire Line
	8450 5800 8725 5800
Text Label 8725 5500 2    50   ~ 0
AD4
Text Label 8725 4100 2    50   ~ 0
AA6
Text Label 7400 3700 0    50   ~ 0
R~W~b
Text Label 8725 3600 2    50   ~ 0
AA1
Text Label 8725 5000 2    50   ~ 0
AA15
Wire Wire Line
	8450 4800 8725 4800
Wire Wire Line
	8450 5500 8725 5500
Wire Wire Line
	8450 4000 8725 4000
Text Label 8725 4200 2    50   ~ 0
AA7
Text Label 8725 5600 2    50   ~ 0
AD5
Text Label 8725 3500 2    50   ~ 0
AA0
Wire Wire Line
	8450 4300 8725 4300
Wire Wire Line
	8450 5700 8725 5700
Wire Wire Line
	8450 4700 8725 4700
Text Label 8725 5200 2    50   ~ 0
AD1
Wire Wire Line
	8450 4500 8725 4500
Wire Wire Line
	8450 5600 8725 5600
Wire Wire Line
	8450 3700 8725 3700
Text Label 8725 4800 2    50   ~ 0
AA13
Wire Wire Line
	8450 4100 8725 4100
Wire Wire Line
	8450 5100 8725 5100
Wire Wire Line
	8450 4600 8725 4600
Wire Wire Line
	8450 5200 8725 5200
Wire Wire Line
	8450 3900 8725 3900
Wire Wire Line
	8450 4900 8725 4900
Text Label 8725 5800 2    50   ~ 0
AD7
Wire Wire Line
	8450 4200 8725 4200
Text Label 8725 5700 2    50   ~ 0
AD6
Text Label 8725 4500 2    50   ~ 0
AA10
Wire Wire Line
	8450 5300 8725 5300
Text Label 8725 3900 2    50   ~ 0
AA4
Text Label 8725 5100 2    50   ~ 0
AD0
Wire Wire Line
	7400 3700 7675 3700
$Sheet
S 7675 3425 775  2500
U 5E985745
F0 "Serial3" 50
F1 "Serial.sch" 50
F2 "R{slash}Wb" I L 7675 3700 50 
F3 "PH2b" I L 7675 3600 50 
F4 "AA2" I R 8450 3700 50 
F5 "AA0" I R 8450 3500 50 
F6 "AA1" I R 8450 3600 50 
F7 "AA4" I R 8450 3900 50 
F8 "AA5" I R 8450 4000 50 
F9 "AA6" I R 8450 4100 50 
F10 "AD0" I R 8450 5100 50 
F11 "AA7" I R 8450 4200 50 
F12 "AA11" I R 8450 4600 50 
F13 "AA10" I R 8450 4500 50 
F14 "AA12" I R 8450 4700 50 
F15 "AA14" I R 8450 4900 50 
F16 "AD1" I R 8450 5200 50 
F17 "AA15" I R 8450 5000 50 
F18 "AA8" I R 8450 4300 50 
F19 "AD6" I R 8450 5700 50 
F20 "AD7" I R 8450 5800 50 
F21 "AD5" I R 8450 5600 50 
F22 "AD4" I R 8450 5500 50 
F23 "AA13" I R 8450 4800 50 
F24 "AD3" I R 8450 5400 50 
F25 "AA9" I R 8450 4400 50 
F26 "AA3" I R 8450 3800 50 
F27 "AD2" I R 8450 5300 50 
F28 "~RSTb" I L 7675 3900 50 
F29 "IRQ0" I L 7675 4000 50 
F30 "IRQ1" I L 7675 4100 50 
F31 "IRQ2" I L 7675 4200 50 
F32 "IRQ3" I L 7675 4300 50 
F33 "IRQ4" I L 7675 4400 50 
F34 "IRQ5" I L 7675 4500 50 
F35 "IRQ6" I L 7675 4600 50 
F36 "IRQ7" I L 7675 4700 50 
F37 "PH1b" I L 7675 3500 50 
$EndSheet
Text Label 10100 4600 2    50   ~ 0
AA11
Text Label 10100 4900 2    50   ~ 0
AA14
Wire Wire Line
	9050 4500 8775 4500
Wire Wire Line
	9825 5500 10100 5500
Wire Wire Line
	9050 4600 8775 4600
Wire Wire Line
	8775 3700 9050 3700
Wire Wire Line
	9825 4000 10100 4000
Text Label 10100 3700 2    50   ~ 0
AA2
Text Label 10100 5500 2    50   ~ 0
AD4
Text Label 10100 5300 2    50   ~ 0
AD2
Text Label 10100 4700 2    50   ~ 0
AA12
Text Label 10100 3800 2    50   ~ 0
AA3
Text Label 10100 5400 2    50   ~ 0
AD3
Text Label 7400 3500 0    50   ~ 0
PH1b
Wire Wire Line
	9825 3600 10100 3600
Wire Wire Line
	9825 5100 10100 5100
Wire Wire Line
	9825 4500 10100 4500
Wire Wire Line
	9825 4200 10100 4200
Wire Wire Line
	9050 4700 8775 4700
Wire Wire Line
	9825 4100 10100 4100
Text Label 10100 4300 2    50   ~ 0
AA8
Text Label 10100 5200 2    50   ~ 0
AD1
Text Label 10100 4100 2    50   ~ 0
AA6
Text Label 8775 3700 0    50   ~ 0
R~W~b
Text Label 10100 3600 2    50   ~ 0
AA1
Text Label 10100 5000 2    50   ~ 0
AA15
Text Label 10100 4200 2    50   ~ 0
AA7
Text Label 10100 5600 2    50   ~ 0
AD5
Text Label 10100 3500 2    50   ~ 0
AA0
Text Label 10100 4800 2    50   ~ 0
AA13
Text Label 10100 5800 2    50   ~ 0
AD7
Text Label 10100 5700 2    50   ~ 0
AD6
Text Label 10100 4500 2    50   ~ 0
AA10
Text Label 10100 3900 2    50   ~ 0
AA4
Text Label 10100 5100 2    50   ~ 0
AD0
$Sheet
S 9050 3425 775  2500
U 5E985791
F0 "Serial4" 50
F1 "Serial.sch" 50
F2 "R{slash}Wb" I L 9050 3700 50 
F3 "PH2b" I L 9050 3600 50 
F4 "AA2" I R 9825 3700 50 
F5 "AA0" I R 9825 3500 50 
F6 "AA1" I R 9825 3600 50 
F7 "AA4" I R 9825 3900 50 
F8 "AA5" I R 9825 4000 50 
F9 "AA6" I R 9825 4100 50 
F10 "AD0" I R 9825 5100 50 
F11 "AA7" I R 9825 4200 50 
F12 "AA11" I R 9825 4600 50 
F13 "AA10" I R 9825 4500 50 
F14 "AA12" I R 9825 4700 50 
F15 "AA14" I R 9825 4900 50 
F16 "AD1" I R 9825 5200 50 
F17 "AA15" I R 9825 5000 50 
F18 "AA8" I R 9825 4300 50 
F19 "AD6" I R 9825 5700 50 
F20 "AD7" I R 9825 5800 50 
F21 "AD5" I R 9825 5600 50 
F22 "AD4" I R 9825 5500 50 
F23 "AA13" I R 9825 4800 50 
F24 "AD3" I R 9825 5400 50 
F25 "AA9" I R 9825 4400 50 
F26 "AA3" I R 9825 3800 50 
F27 "AD2" I R 9825 5300 50 
F28 "~RSTb" I L 9050 3900 50 
F29 "IRQ0" I L 9050 4000 50 
F30 "IRQ1" I L 9050 4100 50 
F31 "IRQ2" I L 9050 4200 50 
F32 "IRQ3" I L 9050 4300 50 
F33 "IRQ4" I L 9050 4400 50 
F34 "IRQ5" I L 9050 4500 50 
F35 "IRQ6" I L 9050 4600 50 
F36 "IRQ7" I L 9050 4700 50 
F37 "PH1b" I L 9050 3500 50 
$EndSheet
Text Label 8775 3500 0    50   ~ 0
PH1b
Text Label 8775 3600 0    50   ~ 0
PH2b
Text Label 10100 4000 2    50   ~ 0
AA5
Wire Wire Line
	9050 4200 8775 4200
Wire Wire Line
	9825 5400 10100 5400
Wire Wire Line
	9825 4800 10100 4800
Wire Wire Line
	9825 5800 10100 5800
Wire Wire Line
	9825 3900 10100 3900
Wire Wire Line
	9825 3700 10100 3700
Wire Wire Line
	9825 5200 10100 5200
Wire Wire Line
	9825 4600 10100 4600
Wire Wire Line
	9050 4300 8775 4300
Wire Wire Line
	9825 4700 10100 4700
Wire Wire Line
	7675 4300 7400 4300
Wire Wire Line
	7675 4600 7400 4600
Wire Wire Line
	7675 4500 7400 4500
Wire Wire Line
	7675 4700 7400 4700
Wire Wire Line
	7675 4100 7400 4100
Wire Wire Line
	7675 4200 7400 4200
Wire Wire Line
	7675 3500 7400 3500
Wire Wire Line
	9825 5000 10100 5000
Wire Wire Line
	9825 4400 10100 4400
Wire Wire Line
	9825 4900 10100 4900
Wire Wire Line
	7675 4000 7400 4000
Text Label 10100 4400 2    50   ~ 0
AA9
Wire Wire Line
	9825 3800 10100 3800
Wire Wire Line
	9050 4100 8775 4100
Wire Wire Line
	9825 5600 10100 5600
Wire Wire Line
	9825 5300 10100 5300
Wire Wire Line
	9050 3500 8775 3500
Wire Wire Line
	9050 4000 8775 4000
Wire Wire Line
	9825 3500 10100 3500
Wire Wire Line
	9825 5700 10100 5700
Wire Wire Line
	9050 4400 8775 4400
Wire Wire Line
	8775 3600 9050 3600
Wire Wire Line
	9050 3900 8775 3900
Wire Wire Line
	7675 4400 7400 4400
Wire Wire Line
	7675 3900 7400 3900
Wire Wire Line
	9825 4300 10100 4300
Wire Wire Line
	1875 3700 2150 3700
Wire Wire Line
	2925 4500 3200 4500
Text Label 3200 4300 2    50   ~ 0
AA8
Text Label 3200 5200 2    50   ~ 0
AD1
Text Label 3200 4100 2    50   ~ 0
AA6
Text Label 1875 3700 0    50   ~ 0
R~W~b
Text Label 3200 3700 2    50   ~ 0
AA2
Text Label 3200 5500 2    50   ~ 0
AD4
Text Label 3200 5300 2    50   ~ 0
AD2
Text Label 3200 3600 2    50   ~ 0
AA1
Text Label 3200 5000 2    50   ~ 0
AA15
Text Label 3200 4200 2    50   ~ 0
AA7
Text Label 3200 5600 2    50   ~ 0
AD5
Text Label 3200 3500 2    50   ~ 0
AA0
Wire Wire Line
	2925 4100 3200 4100
Text Label 3200 4400 2    50   ~ 0
AA9
Wire Wire Line
	2925 3800 3200 3800
Wire Wire Line
	2150 4100 1875 4100
Wire Wire Line
	2925 5600 3200 5600
Wire Wire Line
	2925 5300 3200 5300
Wire Wire Line
	2150 4000 1875 4000
Wire Wire Line
	2925 3500 3200 3500
Wire Wire Line
	2925 5700 3200 5700
Wire Wire Line
	2150 4400 1875 4400
Wire Wire Line
	1875 3600 2150 3600
Wire Wire Line
	2150 3900 1875 3900
Wire Wire Line
	2150 4700 1875 4700
Wire Wire Line
	2925 5100 3200 5100
Wire Wire Line
	2925 4300 3200 4300
Wire Wire Line
	2925 3600 3200 3600
Wire Wire Line
	2925 4200 3200 4200
Text Label 3200 4700 2    50   ~ 0
AA12
Text Label 3200 4600 2    50   ~ 0
AA11
Text Label 3200 4900 2    50   ~ 0
AA14
Wire Wire Line
	2150 4500 1875 4500
Wire Wire Line
	2925 5500 3200 5500
Text Label 1875 3600 0    50   ~ 0
PH2b
Text Label 3200 4000 2    50   ~ 0
AA5
Wire Wire Line
	2150 4200 1875 4200
Wire Wire Line
	2925 5400 3200 5400
Wire Wire Line
	2925 4800 3200 4800
Wire Wire Line
	2925 5800 3200 5800
Wire Wire Line
	2925 3900 3200 3900
Wire Wire Line
	2925 3700 3200 3700
Wire Wire Line
	2925 5200 3200 5200
Wire Wire Line
	2925 4600 3200 4600
Wire Wire Line
	2150 4300 1875 4300
Wire Wire Line
	2925 4700 3200 4700
Text Label 3200 4800 2    50   ~ 0
AA13
Text Label 3200 5800 2    50   ~ 0
AD7
Text Label 3200 5700 2    50   ~ 0
AD6
Text Label 3200 4500 2    50   ~ 0
AA10
Text Label 3200 3900 2    50   ~ 0
AA4
Text Label 3200 5100 2    50   ~ 0
AD0
Text Label 3200 3800 2    50   ~ 0
AA3
Text Label 3200 5400 2    50   ~ 0
AD3
Wire Wire Line
	2150 4600 1875 4600
Wire Wire Line
	2925 4400 3200 4400
Wire Wire Line
	2925 4000 3200 4000
Wire Wire Line
	2925 4900 3200 4900
Wire Wire Line
	2925 5000 3200 5000
$Sheet
S 2150 3425 775  2500
U 5E9AC3F3
F0 "Printer" 50
F1 "Printer.sch" 50
F2 "R{slash}Wb" I L 2150 3700 50 
F3 "PH2b" I L 2150 3600 50 
F4 "AA2" I R 2925 3700 50 
F5 "AA0" I R 2925 3500 50 
F6 "AA1" I R 2925 3600 50 
F7 "AA4" I R 2925 3900 50 
F8 "AA5" I R 2925 4000 50 
F9 "AA6" I R 2925 4100 50 
F10 "AD0" I R 2925 5100 50 
F11 "AA7" I R 2925 4200 50 
F12 "AA11" I R 2925 4600 50 
F13 "AA10" I R 2925 4500 50 
F14 "AA12" I R 2925 4700 50 
F15 "AA14" I R 2925 4900 50 
F16 "AD1" I R 2925 5200 50 
F17 "AA15" I R 2925 5000 50 
F18 "AA8" I R 2925 4300 50 
F19 "AD6" I R 2925 5700 50 
F20 "AD7" I R 2925 5800 50 
F21 "AD5" I R 2925 5600 50 
F22 "AD4" I R 2925 5500 50 
F23 "AA13" I R 2925 4800 50 
F24 "AD3" I R 2925 5400 50 
F25 "AA9" I R 2925 4400 50 
F26 "AA3" I R 2925 3800 50 
F27 "AD2" I R 2925 5300 50 
F28 "~RSTb" I L 2150 3900 50 
F29 "IRQ0" I L 2150 4000 50 
F30 "IRQ1" I L 2150 4100 50 
F31 "IRQ2" I L 2150 4200 50 
F32 "IRQ3" I L 2150 4300 50 
F33 "IRQ4" I L 2150 4400 50 
F34 "IRQ5" I L 2150 4500 50 
F35 "IRQ6" I L 2150 4600 50 
F36 "IRQ7" I L 2150 4700 50 
F37 "PB0" I L 2150 4800 50 
F38 "PB1" I L 2150 4900 50 
F39 "PB2" I L 2150 5000 50 
F40 "PB3" I L 2150 5100 50 
F41 "PB4" I L 2150 5200 50 
F42 "PB5" I L 2150 5300 50 
F43 "PB6" I L 2150 5400 50 
F44 "PB7" I L 2150 5500 50 
F45 "CB1" I L 2150 5600 50 
F46 "CB2" I L 2150 5700 50 
$EndSheet
Wire Wire Line
	2150 5100 1875 5100
Wire Wire Line
	2150 5000 1875 5000
Wire Wire Line
	2150 4900 1875 4900
Wire Wire Line
	2150 4800 1875 4800
Wire Wire Line
	2150 5400 1875 5400
Wire Wire Line
	2150 5200 1875 5200
Wire Wire Line
	2150 5300 1875 5300
Wire Wire Line
	2150 5500 1875 5500
Wire Wire Line
	2150 5600 1875 5600
Wire Wire Line
	2150 5700 1875 5700
NoConn ~ 1875 4800
NoConn ~ 1875 4900
NoConn ~ 1875 5000
NoConn ~ 1875 5100
NoConn ~ 1875 5200
NoConn ~ 1875 5300
NoConn ~ 1875 5400
NoConn ~ 1875 5500
NoConn ~ 1875 5600
NoConn ~ 1875 5700
Text Label 500  2350 0    50   ~ 0
~RSTb
Text Label 8775 3900 0    50   ~ 0
~RSTb
Text Label 7400 3900 0    50   ~ 0
~RSTb
Text Label 6000 3900 0    50   ~ 0
~RSTb
Text Label 4625 3900 0    50   ~ 0
~RSTb
Text Label 1875 3900 0    50   ~ 0
~RSTb
Text Label 1875 4000 0    50   ~ 0
IRQ0
Text Label 1875 4100 0    50   ~ 0
IRQ1
Text Label 1875 4200 0    50   ~ 0
IRQ2
Text Label 1875 4300 0    50   ~ 0
IRQ3
Text Label 1875 4400 0    50   ~ 0
IRQ4
Text Label 1875 4500 0    50   ~ 0
IRQ5
Text Label 1875 4600 0    50   ~ 0
IRQ6
Text Label 1875 4700 0    50   ~ 0
IRQ7
Text Label 4625 4300 0    50   ~ 0
IRQ3
Text Label 4625 4700 0    50   ~ 0
IRQ7
Text Label 4625 4400 0    50   ~ 0
IRQ4
Text Label 4625 4100 0    50   ~ 0
IRQ1
Text Label 4625 4000 0    50   ~ 0
IRQ0
Text Label 4625 4500 0    50   ~ 0
IRQ5
Text Label 4625 4600 0    50   ~ 0
IRQ6
Text Label 4625 4200 0    50   ~ 0
IRQ2
Text Label 6000 4100 0    50   ~ 0
IRQ1
Text Label 6000 4400 0    50   ~ 0
IRQ4
Text Label 6000 4200 0    50   ~ 0
IRQ2
Text Label 6000 4000 0    50   ~ 0
IRQ0
Text Label 6000 4700 0    50   ~ 0
IRQ7
Text Label 6000 4500 0    50   ~ 0
IRQ5
Text Label 6000 4300 0    50   ~ 0
IRQ3
Text Label 6000 4600 0    50   ~ 0
IRQ6
Text Label 7400 4600 0    50   ~ 0
IRQ6
Text Label 7400 4500 0    50   ~ 0
IRQ5
Text Label 7400 4000 0    50   ~ 0
IRQ0
Text Label 7400 4300 0    50   ~ 0
IRQ3
Text Label 7400 4400 0    50   ~ 0
IRQ4
Text Label 7400 4200 0    50   ~ 0
IRQ2
Text Label 7400 4100 0    50   ~ 0
IRQ1
Text Label 7400 4700 0    50   ~ 0
IRQ7
Text Label 8775 4600 0    50   ~ 0
IRQ6
Text Label 8775 4200 0    50   ~ 0
IRQ2
Text Label 8775 4100 0    50   ~ 0
IRQ1
Text Label 8775 4700 0    50   ~ 0
IRQ7
Text Label 8775 4500 0    50   ~ 0
IRQ5
Text Label 8775 4300 0    50   ~ 0
IRQ3
Text Label 8775 4000 0    50   ~ 0
IRQ0
Text Label 8775 4400 0    50   ~ 0
IRQ4
Text Label 7400 850  0    50   ~ 0
BANK0
Text Label 7400 950  0    50   ~ 0
BANK1
Text Label 7400 1050 0    50   ~ 0
BANK2
Text Label 7400 1150 0    50   ~ 0
BANK3
Wire Wire Line
	3225 3800 3500 3800
Wire Wire Line
	3225 3900 3500 3900
Wire Wire Line
	3225 3700 3500 3700
Wire Wire Line
	3225 4000 3500 4000
Text Label 3225 3800 0    50   ~ 0
BANK1
Text Label 3225 4000 0    50   ~ 0
BANK3
Text Label 3225 3900 0    50   ~ 0
BANK2
Text Label 3225 3700 0    50   ~ 0
BANK0
Wire Wire Line
	3225 4300 3500 4300
Wire Wire Line
	3225 4200 3500 4200
Wire Wire Line
	3225 4100 3500 4100
Wire Wire Line
	3225 4400 3500 4400
Text Label 1875 1150 0    50   ~ 0
USR1
Text Label 3250 1150 0    50   ~ 0
USR2
Text Label 4625 1150 0    50   ~ 0
USR3
Text Label 6000 1150 0    50   ~ 0
USR4
Text Label 3225 4300 0    50   ~ 0
USR3
Text Label 3225 4200 0    50   ~ 0
USR2
Text Label 3225 4100 0    50   ~ 0
USR1
Text Label 3225 4400 0    50   ~ 0
USR4
Wire Wire Line
	2100 850  2100 950 
Wire Wire Line
	2100 850  2150 850 
Connection ~ 2100 1150
Wire Wire Line
	2100 1150 2150 1150
Connection ~ 2100 1050
Wire Wire Line
	2100 1050 2150 1050
Wire Wire Line
	2100 1050 2100 1150
Connection ~ 2100 950 
Wire Wire Line
	2100 950  2150 950 
Wire Wire Line
	2100 950  2100 1050
Wire Wire Line
	3450 850  3525 850 
Connection ~ 3450 1150
Wire Wire Line
	3450 1150 3525 1150
Connection ~ 3450 1050
Wire Wire Line
	3450 1050 3525 1050
Wire Wire Line
	3450 1050 3450 1150
Connection ~ 3450 950 
Wire Wire Line
	3450 950  3525 950 
Wire Wire Line
	3450 950  3450 1050
Wire Wire Line
	3450 850  3450 950 
Wire Wire Line
	4850 1150 4850 1050
Connection ~ 4850 1150
Wire Wire Line
	4850 1150 4900 1150
Connection ~ 4850 1050
Wire Wire Line
	4850 1050 4900 1050
Wire Wire Line
	4850 1050 4850 950 
Connection ~ 4850 950 
Wire Wire Line
	4850 950  4900 950 
Wire Wire Line
	4850 950  4850 850 
Wire Wire Line
	4850 850  4900 850 
Wire Wire Line
	6225 1150 6225 1050
Connection ~ 6225 1150
Wire Wire Line
	6225 1150 6275 1150
Connection ~ 6225 1050
Wire Wire Line
	6225 1050 6275 1050
Wire Wire Line
	6225 1050 6225 950 
Connection ~ 6225 950 
Wire Wire Line
	6225 950  6275 950 
Wire Wire Line
	6225 950  6225 850 
Wire Wire Line
	6225 850  6275 850 
Text Label 3225 5100 0    50   ~ 0
IRQ6
Text Label 3225 4800 0    50   ~ 0
IRQ3
Wire Wire Line
	3500 4800 3225 4800
Text Label 3225 5200 0    50   ~ 0
IRQ7
Text Label 3225 4500 0    50   ~ 0
IRQ0
Text Label 3225 4900 0    50   ~ 0
IRQ4
Text Label 3225 5000 0    50   ~ 0
IRQ5
Wire Wire Line
	3500 4700 3225 4700
Wire Wire Line
	3500 4600 3225 4600
Wire Wire Line
	3500 4500 3225 4500
Wire Wire Line
	3500 5100 3225 5100
Wire Wire Line
	3500 4900 3225 4900
Wire Wire Line
	3500 5000 3225 5000
Wire Wire Line
	3500 5200 3225 5200
Text Label 3225 4700 0    50   ~ 0
IRQ2
Text Label 3225 4600 0    50   ~ 0
IRQ1
Wire Wire Line
	775  4000 500  4000
Wire Wire Line
	775  4500 500  4500
Wire Wire Line
	775  4100 500  4100
Wire Wire Line
	775  3600 500  3600
Wire Wire Line
	775  4300 500  4300
Wire Wire Line
	775  4200 500  4200
Wire Wire Line
	775  4800 500  4800
Wire Wire Line
	775  4600 500  4600
Wire Wire Line
	775  4700 500  4700
Wire Wire Line
	775  4400 500  4400
Text Label 500  3600 0    50   ~ 0
PH1b
Wire Wire Line
	500  3800 775  3800
Text Label 1825 5200 2    50   ~ 0
AD0
Text Label 1825 4000 2    50   ~ 0
AA4
Wire Wire Line
	1550 5400 1825 5400
Text Label 1825 4600 2    50   ~ 0
AA10
Text Label 1825 5800 2    50   ~ 0
AD6
Wire Wire Line
	1550 4300 1825 4300
Text Label 1825 5900 2    50   ~ 0
AD7
Wire Wire Line
	1550 5000 1825 5000
Wire Wire Line
	1550 4000 1825 4000
Wire Wire Line
	1550 5300 1825 5300
Wire Wire Line
	1550 4700 1825 4700
Wire Wire Line
	1550 5200 1825 5200
Wire Wire Line
	1550 4200 1825 4200
Text Label 1825 4900 2    50   ~ 0
AA13
Wire Wire Line
	1550 3800 1825 3800
Wire Wire Line
	1550 5700 1825 5700
Wire Wire Line
	1550 4600 1825 4600
Text Label 1825 5300 2    50   ~ 0
AD1
Wire Wire Line
	1550 4800 1825 4800
Wire Wire Line
	1550 5800 1825 5800
Wire Wire Line
	1550 4400 1825 4400
Text Label 1825 3600 2    50   ~ 0
AA0
Text Label 1825 5700 2    50   ~ 0
AD5
Text Label 1825 4300 2    50   ~ 0
AA7
Wire Wire Line
	1550 4100 1825 4100
Wire Wire Line
	1550 5600 1825 5600
Wire Wire Line
	1550 4900 1825 4900
Text Label 1825 5100 2    50   ~ 0
AA15
Text Label 1825 3700 2    50   ~ 0
AA1
Text Label 500  3800 0    50   ~ 0
R~W~b
Text Label 1825 4200 2    50   ~ 0
AA6
Text Label 1825 5600 2    50   ~ 0
AD4
Wire Wire Line
	1550 5900 1825 5900
Wire Wire Line
	1550 3600 1825 3600
Wire Wire Line
	1550 4500 1825 4500
Wire Wire Line
	500  3700 775  3700
Text Label 1825 4400 2    50   ~ 0
AA8
Text Label 1825 3900 2    50   ~ 0
AA3
Wire Wire Line
	1550 5500 1825 5500
Wire Wire Line
	1550 3700 1825 3700
Text Label 1825 4800 2    50   ~ 0
AA12
Text Label 1825 5400 2    50   ~ 0
AD2
Text Label 1825 3800 2    50   ~ 0
AA2
Text Label 1825 4100 2    50   ~ 0
AA5
Text Label 1825 5000 2    50   ~ 0
AA14
Text Label 1825 4500 2    50   ~ 0
AA9
Text Label 1825 4700 2    50   ~ 0
AA11
Text Label 1825 5500 2    50   ~ 0
AD3
Text Label 500  3700 0    50   ~ 0
PH2b
Wire Wire Line
	1550 3900 1825 3900
Wire Wire Line
	1550 5100 1825 5100
Text Label 500  4000 0    50   ~ 0
~RSTb
Text Label 500  4400 0    50   ~ 0
IRQ3
Text Label 500  4800 0    50   ~ 0
IRQ7
Text Label 500  4500 0    50   ~ 0
IRQ4
Text Label 500  4200 0    50   ~ 0
IRQ1
Text Label 500  4100 0    50   ~ 0
IRQ0
Text Label 500  4600 0    50   ~ 0
IRQ5
Text Label 500  4700 0    50   ~ 0
IRQ6
Text Label 500  4300 0    50   ~ 0
IRQ2
$Sheet
S 775  3525 775  2500
U 5E9B2B8D
F0 "Floppy" 50
F1 "Floppy.sch" 50
F2 "R{slash}Wb" I L 775 3800 50 
F3 "PH2b" I L 775 3700 50 
F4 "AA2" I R 1550 3800 50 
F5 "AA0" I R 1550 3600 50 
F6 "AA1" I R 1550 3700 50 
F7 "AA4" I R 1550 4000 50 
F8 "AA5" I R 1550 4100 50 
F9 "AA6" I R 1550 4200 50 
F10 "AD0" I R 1550 5200 50 
F11 "AA7" I R 1550 4300 50 
F12 "AA11" I R 1550 4700 50 
F13 "AA10" I R 1550 4600 50 
F14 "AA12" I R 1550 4800 50 
F15 "AA14" I R 1550 5000 50 
F16 "AD1" I R 1550 5300 50 
F17 "AA15" I R 1550 5100 50 
F18 "AA8" I R 1550 4400 50 
F19 "AD6" I R 1550 5800 50 
F20 "AD7" I R 1550 5900 50 
F21 "AD5" I R 1550 5700 50 
F22 "AD4" I R 1550 5600 50 
F23 "AA13" I R 1550 4900 50 
F24 "AD3" I R 1550 5500 50 
F25 "AA9" I R 1550 4500 50 
F26 "AA3" I R 1550 3900 50 
F27 "AD2" I R 1550 5400 50 
F28 "~RSTb" I L 775 4000 50 
F29 "IRQ0" I L 775 4100 50 
F30 "IRQ1" I L 775 4200 50 
F31 "IRQ2" I L 775 4300 50 
F32 "IRQ3" I L 775 4400 50 
F33 "IRQ4" I L 775 4500 50 
F34 "IRQ5" I L 775 4600 50 
F35 "IRQ6" I L 775 4700 50 
F36 "IRQ7" I L 775 4800 50 
F37 "PH1b" I L 775 3600 50 
F38 "2MHZ" I L 775 5000 50 
F39 "4MHZ" I L 775 4900 50 
F40 "~NMI" I L 775 5100 50 
F41 "~IRQ" I L 775 5200 50 
F42 "2B" I L 775 5500 50 
F43 "USR7" I L 775 5400 50 
$EndSheet
Wire Wire Line
	1525 3150 1800 3150
Text Label 1800 3150 2    50   ~ 0
2MHZ
Wire Wire Line
	1525 3050 1800 3050
Text Label 1800 3050 2    50   ~ 0
4MHZ
Text Label 500  4900 0    50   ~ 0
4MHZ
Wire Wire Line
	775  4900 500  4900
Text Label 500  5000 0    50   ~ 0
2MHZ
Wire Wire Line
	775  5000 500  5000
$Sheet
S 3500 3425 800  2650
U 5EB2C18C
F0 "MUX" 50
F1 "MUX.sch" 50
F2 "R{slash}Wb" I L 3500 3600 50 
F3 "PH2b" I L 3500 3500 50 
F4 "AA2" I R 4300 3700 50 
F5 "AA0" I R 4300 3500 50 
F6 "AA1" I R 4300 3600 50 
F7 "AA4" I R 4300 3900 50 
F8 "AA5" I R 4300 4000 50 
F9 "AA6" I R 4300 4100 50 
F10 "AD0" I R 4300 5100 50 
F11 "AA7" I R 4300 4200 50 
F12 "AA11" I R 4300 4600 50 
F13 "AA10" I R 4300 4500 50 
F14 "AA12" I R 4300 4700 50 
F15 "AA14" I R 4300 4900 50 
F16 "AD1" I R 4300 5200 50 
F17 "AA15" I R 4300 5000 50 
F18 "AA8" I R 4300 4300 50 
F19 "AD6" I R 4300 5700 50 
F20 "AD7" I R 4300 5800 50 
F21 "AD5" I R 4300 5600 50 
F22 "AD4" I R 4300 5500 50 
F23 "AA13" I R 4300 4800 50 
F24 "AD3" I R 4300 5400 50 
F25 "AA9" I R 4300 4400 50 
F26 "AA3" I R 4300 3800 50 
F27 "AD2" I R 4300 5300 50 
F28 "SYNb" I L 3500 5300 50 
F29 "~NMI" I L 3500 5400 50 
F30 "~IRQ" I L 3500 5550 50 
F31 "IRQ0" I L 3500 4500 50 
F32 "IRQ1" I L 3500 4600 50 
F33 "IRQ2" I L 3500 4700 50 
F34 "IRQ3" I L 3500 4800 50 
F35 "IRQ4" I L 3500 4900 50 
F36 "IRQ5" I L 3500 5000 50 
F37 "IRQ6" I L 3500 5100 50 
F38 "IRQ7" I L 3500 5200 50 
F39 "~BANK0" I L 3500 3700 50 
F40 "~BANK1" I L 3500 3800 50 
F41 "~BANK2" I L 3500 3900 50 
F42 "~BANK3" I L 3500 4000 50 
F43 "USR1" I L 3500 4100 50 
F44 "USR2" I L 3500 4200 50 
F45 "USR3" I L 3500 4300 50 
F46 "USR4" I L 3500 4400 50 
F47 "2B" I L 3500 5950 50 
F48 "USR7" I L 3500 6025 50 
F49 "~RST" I L 3500 5650 50 
F50 "~RSTb" I L 3500 5850 50 
$EndSheet
Text Label 500  1550 0    50   ~ 0
~IRQ
Text Label 525  5200 0    50   ~ 0
~IRQ
Wire Wire Line
	525  5200 775  5200
Text Label 3275 5550 0    50   ~ 0
~IRQ
Wire Wire Line
	3275 5550 3500 5550
Text Label 500  2250 0    50   ~ 0
~RST
Text Label 3275 5650 0    50   ~ 0
~RST
Wire Wire Line
	3275 5650 3500 5650
Wire Wire Line
	775  5400 625  5400
Wire Wire Line
	625  5400 625  6200
Wire Wire Line
	625  6200 3375 6200
Wire Wire Line
	3375 6200 3375 6025
Wire Wire Line
	3375 6025 3500 6025
Wire Wire Line
	775  5500 700  5500
Wire Wire Line
	700  5500 700  6150
Wire Wire Line
	700  6150 3300 6150
Wire Wire Line
	3300 6150 3300 5950
Wire Wire Line
	3300 5950 3500 5950
Wire Wire Line
	3500 5850 3275 5850
Text Label 3275 5850 0    50   ~ 0
~RSTb
Wire Wire Line
	775  5100 500  5100
Text Label 500  1450 0    50   ~ 0
~NMI
Text Label 500  5100 0    50   ~ 0
~NMI
$EndSCHEMATC
