EESchema Schematic File Version 4
EELAYER 30 0
EELAYER END
$Descr A3 16535 11693
encoding utf-8
Sheet 9 16
Title "es65 RAM/ROM Board"
Date "2020-03-31"
Rev "v0.1"
Comp "Offner Robert"
Comment1 "v0.1: Initial"
Comment2 ""
Comment3 ""
Comment4 ""
$EndDescr
$Comp
L Device:C_Small C?
U 1 1 5EB2C5CD
P 7575 875
AR Path="/5EA2DD9E/5EB2C5CD" Ref="C?"  Part="1" 
AR Path="/5EA9FEC9/5EB2C5CD" Ref="C?"  Part="1" 
F 0 "C?" H 7667 921 50  0000 L CNN
F 1 "C_Small" H 7667 830 50  0000 L CNN
F 2 "" H 7575 875 50  0001 C CNN
F 3 "~" H 7575 875 50  0001 C CNN
	1    7575 875 
	1    0    0    -1  
$EndComp
$Comp
L power:GND #PWR?
U 1 1 5E841B12
P 7575 975
AR Path="/5EA2DD9E/5E841B12" Ref="#PWR?"  Part="1" 
AR Path="/5EA9FEC9/5E841B12" Ref="#PWR?"  Part="1" 
F 0 "#PWR?" H 7575 725 50  0001 C CNN
F 1 "GND" H 7575 825 50  0000 C CNN
F 2 "" H 7575 975 50  0001 C CNN
F 3 "" H 7575 975 50  0001 C CNN
	1    7575 975 
	1    0    0    -1  
$EndComp
Wire Wire Line
	7575 775  7575 750 
Wire Wire Line
	7575 750  7450 750 
Wire Wire Line
	7450 750  7450 1075
Wire Wire Line
	7450 750  7450 700 
Connection ~ 7450 750 
$Comp
L power:+5V #PWR?
U 1 1 5EB2C5CF
P 7450 700
AR Path="/5EA2DD9E/5EB2C5CF" Ref="#PWR?"  Part="1" 
AR Path="/5EA9FEC9/5EB2C5CF" Ref="#PWR?"  Part="1" 
F 0 "#PWR?" H 7450 550 50  0001 C CNN
F 1 "+5V" H 7465 873 50  0000 C CNN
F 2 "" H 7450 700 50  0001 C CNN
F 3 "" H 7450 700 50  0001 C CNN
	1    7450 700 
	1    0    0    -1  
$EndComp
$Comp
L power:GND #PWR?
U 1 1 5E84282A
P 7450 2975
AR Path="/5EA2DD9E/5E84282A" Ref="#PWR?"  Part="1" 
AR Path="/5EA9FEC9/5E84282A" Ref="#PWR?"  Part="1" 
F 0 "#PWR?" H 7450 2725 50  0001 C CNN
F 1 "GND" H 7450 2825 50  0000 C CNN
F 2 "" H 7450 2975 50  0001 C CNN
F 3 "" H 7450 2975 50  0001 C CNN
	1    7450 2975
	1    0    0    -1  
$EndComp
Wire Wire Line
	7850 1275 8050 1275
Wire Wire Line
	7850 1375 8050 1375
Wire Wire Line
	7850 1475 8050 1475
Wire Wire Line
	7850 1575 8050 1575
Wire Wire Line
	7850 1675 8050 1675
Wire Wire Line
	7850 1775 8050 1775
Wire Wire Line
	7850 1875 8050 1875
Wire Wire Line
	7850 1975 8050 1975
Wire Wire Line
	6850 1875 7050 1875
Wire Wire Line
	6850 1375 7050 1375
Wire Wire Line
	6850 1675 7050 1675
Wire Wire Line
	6850 1975 7050 1975
Wire Wire Line
	6850 1575 7050 1575
Wire Wire Line
	6850 1775 7050 1775
Wire Wire Line
	6850 1475 7050 1475
Wire Wire Line
	6850 1275 7050 1275
Wire Wire Line
	6850 2075 7050 2075
Wire Wire Line
	6850 2175 7050 2175
Wire Wire Line
	6850 2275 7050 2275
Wire Wire Line
	6850 2525 7050 2525
Wire Wire Line
	6850 2625 7050 2625
Text Label 8050 1275 2    50   ~ 0
D0
Text Label 8050 1375 2    50   ~ 0
D1
Text Label 8050 1475 2    50   ~ 0
D2
Text Label 8050 1575 2    50   ~ 0
D3
Text Label 8050 1675 2    50   ~ 0
D4
Text Label 8050 1775 2    50   ~ 0
D5
Text Label 8050 1875 2    50   ~ 0
D6
Text Label 8050 1975 2    50   ~ 0
D7
Text Label 6850 1275 0    50   ~ 0
A0
Text Label 6850 1375 0    50   ~ 0
A1
Text Label 6850 1475 0    50   ~ 0
A2
Text Label 6850 1575 0    50   ~ 0
A3
Text Label 6850 1675 0    50   ~ 0
A4
Text Label 6850 1775 0    50   ~ 0
A5
Text Label 6850 1875 0    50   ~ 0
A6
Text Label 6850 1975 0    50   ~ 0
A7
Text Label 6850 2075 0    50   ~ 0
A8
Text Label 6850 2175 0    50   ~ 0
A9
Text Label 6850 2275 0    50   ~ 0
A10
$Comp
L 74xx:74HC245 U3
U 1 1 5EB2C5D1
P 5800 1525
AR Path="/5EA2DD9E/5EB2C5D1" Ref="U3"  Part="1" 
AR Path="/5EA9FEC9/5EB2C5D1" Ref="U?"  Part="1" 
F 0 "U?" H 5400 2250 50  0000 C CNN
F 1 "74HC245" H 5525 2175 50  0000 C CNN
F 2 "" H 5800 1525 50  0001 C CNN
F 3 "http://www.ti.com/lit/gpn/sn74HC245" H 5800 1525 50  0001 C CNN
	1    5800 1525
	1    0    0    -1  
$EndComp
$Comp
L power:GND #PWR?
U 1 1 5EB2C5D8
P 5800 2325
AR Path="/5EA2DD9E/5EB2C5D8" Ref="#PWR?"  Part="1" 
AR Path="/5EA9FEC9/5EB2C5D8" Ref="#PWR?"  Part="1" 
F 0 "#PWR?" H 5800 2075 50  0001 C CNN
F 1 "GND" H 5800 2175 50  0000 C CNN
F 2 "" H 5800 2325 50  0001 C CNN
F 3 "" H 5800 2325 50  0001 C CNN
	1    5800 2325
	1    0    0    -1  
$EndComp
$Comp
L power:+5V #PWR?
U 1 1 5EB2C5D9
P 5800 725
AR Path="/5EA2DD9E/5EB2C5D9" Ref="#PWR?"  Part="1" 
AR Path="/5EA9FEC9/5EB2C5D9" Ref="#PWR?"  Part="1" 
F 0 "#PWR?" H 5800 575 50  0001 C CNN
F 1 "+5V" H 5815 898 50  0000 C CNN
F 2 "" H 5800 725 50  0001 C CNN
F 3 "" H 5800 725 50  0001 C CNN
	1    5800 725 
	1    0    0    -1  
$EndComp
Text Label 6500 1725 2    50   ~ 0
D7
Text Label 6500 1525 2    50   ~ 0
D5
Text Label 6500 1625 2    50   ~ 0
D6
Wire Wire Line
	6300 1625 6500 1625
Text Label 6500 1425 2    50   ~ 0
D4
Text Label 6500 1325 2    50   ~ 0
D3
Text Label 6500 1225 2    50   ~ 0
D2
Text Label 6500 1125 2    50   ~ 0
D1
Wire Wire Line
	6300 1125 6500 1125
Wire Wire Line
	6300 1425 6500 1425
Wire Wire Line
	6300 1725 6500 1725
Wire Wire Line
	6300 1325 6500 1325
Text Label 6500 1025 2    50   ~ 0
D0
Wire Wire Line
	6300 1525 6500 1525
Wire Wire Line
	6300 1225 6500 1225
Wire Wire Line
	6300 1025 6500 1025
$Comp
L es65-rescue:6331-my_ics U14
U 1 1 5E83C654
P 12575 1575
AR Path="/5EA2DD9E/5E83C654" Ref="U14"  Part="1" 
AR Path="/5EA9FEC9/5E83C654" Ref="U?"  Part="1" 
F 0 "U?" H 12275 2100 50  0000 C CNN
F 1 "6331" H 12325 2025 50  0000 C CNN
F 2 "" H 12275 1675 50  0001 C CNN
F 3 "" H 12275 1675 50  0001 C CNN
	1    12575 1575
	1    0    0    -1  
$EndComp
$Comp
L 74xx:74HC245 U2
U 1 1 5EB2C5C7
P 5800 3525
AR Path="/5EA2DD9E/5EB2C5C7" Ref="U2"  Part="1" 
AR Path="/5EA9FEC9/5EB2C5C7" Ref="U?"  Part="1" 
F 0 "U?" H 5400 4250 50  0000 C CNN
F 1 "74HC245" H 5525 4175 50  0000 C CNN
F 2 "" H 5800 3525 50  0001 C CNN
F 3 "http://www.ti.com/lit/gpn/sn74HC245" H 5800 3525 50  0001 C CNN
	1    5800 3525
	1    0    0    -1  
$EndComp
$Comp
L power:GND #PWR?
U 1 1 5E83EF23
P 5800 4325
AR Path="/5EA2DD9E/5E83EF23" Ref="#PWR?"  Part="1" 
AR Path="/5EA9FEC9/5E83EF23" Ref="#PWR?"  Part="1" 
F 0 "#PWR?" H 5800 4075 50  0001 C CNN
F 1 "GND" H 5800 4175 50  0000 C CNN
F 2 "" H 5800 4325 50  0001 C CNN
F 3 "" H 5800 4325 50  0001 C CNN
	1    5800 4325
	1    0    0    -1  
$EndComp
$Comp
L power:+5V #PWR?
U 1 1 5E83EF30
P 5800 2725
AR Path="/5EA2DD9E/5E83EF30" Ref="#PWR?"  Part="1" 
AR Path="/5EA9FEC9/5E83EF30" Ref="#PWR?"  Part="1" 
F 0 "#PWR?" H 5800 2575 50  0001 C CNN
F 1 "+5V" H 5815 2898 50  0000 C CNN
F 2 "" H 5800 2725 50  0001 C CNN
F 3 "" H 5800 2725 50  0001 C CNN
	1    5800 2725
	1    0    0    -1  
$EndComp
Wire Wire Line
	6300 3625 6500 3625
Wire Wire Line
	6300 3125 6500 3125
Wire Wire Line
	6300 3425 6500 3425
Wire Wire Line
	6300 3725 6500 3725
Wire Wire Line
	6300 3325 6500 3325
Wire Wire Line
	6300 3525 6500 3525
Wire Wire Line
	6300 3225 6500 3225
Wire Wire Line
	6300 3025 6500 3025
Wire Wire Line
	6300 5125 6500 5125
Wire Wire Line
	6300 5525 6500 5525
Wire Wire Line
	6300 5425 6500 5425
$Comp
L 74xx:74HC245 U1
U 1 1 5E840E6E
P 5800 5525
AR Path="/5EA2DD9E/5E840E6E" Ref="U1"  Part="1" 
AR Path="/5EA9FEC9/5E840E6E" Ref="U?"  Part="1" 
F 0 "U?" H 5400 6250 50  0000 C CNN
F 1 "74HC245" H 5525 6175 50  0000 C CNN
F 2 "" H 5800 5525 50  0001 C CNN
F 3 "http://www.ti.com/lit/gpn/sn74HC245" H 5800 5525 50  0001 C CNN
	1    5800 5525
	1    0    0    -1  
$EndComp
Wire Wire Line
	6300 5625 6500 5625
Wire Wire Line
	6300 5725 6500 5725
Wire Wire Line
	6300 5225 6500 5225
Wire Wire Line
	6300 5025 6500 5025
Wire Wire Line
	6300 5325 6500 5325
$Comp
L power:+5V #PWR?
U 1 1 5E840E80
P 5800 4725
AR Path="/5EA2DD9E/5E840E80" Ref="#PWR?"  Part="1" 
AR Path="/5EA9FEC9/5E840E80" Ref="#PWR?"  Part="1" 
F 0 "#PWR?" H 5800 4575 50  0001 C CNN
F 1 "+5V" H 5815 4898 50  0000 C CNN
F 2 "" H 5800 4725 50  0001 C CNN
F 3 "" H 5800 4725 50  0001 C CNN
	1    5800 4725
	1    0    0    -1  
$EndComp
$Comp
L power:GND #PWR?
U 1 1 5EB2C5CC
P 5800 6325
AR Path="/5EA2DD9E/5EB2C5CC" Ref="#PWR?"  Part="1" 
AR Path="/5EA9FEC9/5EB2C5CC" Ref="#PWR?"  Part="1" 
F 0 "#PWR?" H 5800 6075 50  0001 C CNN
F 1 "GND" H 5800 6175 50  0000 C CNN
F 2 "" H 5800 6325 50  0001 C CNN
F 3 "" H 5800 6325 50  0001 C CNN
	1    5800 6325
	1    0    0    -1  
$EndComp
Text Label 6500 3625 2    50   ~ 0
A14
Text Label 6500 3225 2    50   ~ 0
A10
Text Label 6500 5125 2    50   ~ 0
A1
Text Label 6500 5425 2    50   ~ 0
A4
Text Label 6500 5225 2    50   ~ 0
A2
Text Label 6500 5725 2    50   ~ 0
A7
Text Label 6500 3325 2    50   ~ 0
A11
Text Label 6500 3025 2    50   ~ 0
A8
Text Label 6500 5625 2    50   ~ 0
A6
Text Label 6500 3425 2    50   ~ 0
A12
Text Label 6500 3125 2    50   ~ 0
A9
Text Label 6500 3525 2    50   ~ 0
A13
Text Label 6500 5325 2    50   ~ 0
A3
Text Label 6500 5525 2    50   ~ 0
A5
Text Label 6500 5025 2    50   ~ 0
A0
Text Label 6500 3725 2    50   ~ 0
A15
Text Label 6850 2625 0    50   ~ 0
~OE
Text Label 6850 2525 0    50   ~ 0
~CE1
Text Label 8100 2525 0    50   ~ 0
~CE2
Text Label 9350 2525 0    50   ~ 0
~CE3
Text Label 10600 2525 0    50   ~ 0
~CE4
Text Label 6825 5200 0    50   ~ 0
~CE5
Text Label 8075 5200 0    50   ~ 0
~CE6
Text Label 9325 5200 0    50   ~ 0
~CE7
Text Label 10575 5200 0    50   ~ 0
~CE8
Text Label 6800 7875 0    50   ~ 0
~CE9
Text Label 8050 7875 0    50   ~ 0
~CE10
Text Label 9300 7875 0    50   ~ 0
~CE11
$Comp
L power:+5V #PWR?
U 1 1 5E845ED6
P 12575 1075
AR Path="/5EA2DD9E/5E845ED6" Ref="#PWR?"  Part="1" 
AR Path="/5EA9FEC9/5E845ED6" Ref="#PWR?"  Part="1" 
F 0 "#PWR?" H 12575 925 50  0001 C CNN
F 1 "+5V" H 12590 1248 50  0000 C CNN
F 2 "" H 12575 1075 50  0001 C CNN
F 3 "" H 12575 1075 50  0001 C CNN
	1    12575 1075
	1    0    0    -1  
$EndComp
$Comp
L power:GND #PWR?
U 1 1 5EB2C5D3
P 12575 2175
AR Path="/5EA2DD9E/5EB2C5D3" Ref="#PWR?"  Part="1" 
AR Path="/5EA9FEC9/5EB2C5D3" Ref="#PWR?"  Part="1" 
F 0 "#PWR?" H 12575 1925 50  0001 C CNN
F 1 "GND" H 12575 2025 50  0000 C CNN
F 2 "" H 12575 2175 50  0001 C CNN
F 3 "" H 12575 2175 50  0001 C CNN
	1    12575 2175
	1    0    0    -1  
$EndComp
Wire Wire Line
	8825 775  8825 750 
Wire Wire Line
	8825 750  8700 750 
$Comp
L Device:C_Small C?
U 1 1 5E847B6A
P 8825 875
AR Path="/5EA2DD9E/5E847B6A" Ref="C?"  Part="1" 
AR Path="/5EA9FEC9/5E847B6A" Ref="C?"  Part="1" 
F 0 "C?" H 8917 921 50  0000 L CNN
F 1 "C_Small" H 8917 830 50  0000 L CNN
F 2 "" H 8825 875 50  0001 C CNN
F 3 "~" H 8825 875 50  0001 C CNN
	1    8825 875 
	1    0    0    -1  
$EndComp
Connection ~ 8700 750 
$Comp
L power:GND #PWR?
U 1 1 5E847B78
P 8825 975
AR Path="/5EA2DD9E/5E847B78" Ref="#PWR?"  Part="1" 
AR Path="/5EA9FEC9/5E847B78" Ref="#PWR?"  Part="1" 
F 0 "#PWR?" H 8825 725 50  0001 C CNN
F 1 "GND" H 8825 825 50  0000 C CNN
F 2 "" H 8825 975 50  0001 C CNN
F 3 "" H 8825 975 50  0001 C CNN
	1    8825 975 
	1    0    0    -1  
$EndComp
Wire Wire Line
	8700 750  8700 1075
Wire Wire Line
	8700 750  8700 700 
$Comp
L power:+5V #PWR?
U 1 1 5E847B87
P 8700 700
AR Path="/5EA2DD9E/5E847B87" Ref="#PWR?"  Part="1" 
AR Path="/5EA9FEC9/5E847B87" Ref="#PWR?"  Part="1" 
F 0 "#PWR?" H 8700 550 50  0001 C CNN
F 1 "+5V" H 8715 873 50  0000 C CNN
F 2 "" H 8700 700 50  0001 C CNN
F 3 "" H 8700 700 50  0001 C CNN
	1    8700 700 
	1    0    0    -1  
$EndComp
$Comp
L power:GND #PWR?
U 1 1 5EB2C5D7
P 8700 2975
AR Path="/5EA2DD9E/5EB2C5D7" Ref="#PWR?"  Part="1" 
AR Path="/5EA9FEC9/5EB2C5D7" Ref="#PWR?"  Part="1" 
F 0 "#PWR?" H 8700 2725 50  0001 C CNN
F 1 "GND" H 8700 2825 50  0000 C CNN
F 2 "" H 8700 2975 50  0001 C CNN
F 3 "" H 8700 2975 50  0001 C CNN
	1    8700 2975
	1    0    0    -1  
$EndComp
Wire Wire Line
	9100 1275 9300 1275
Wire Wire Line
	9100 1375 9300 1375
Wire Wire Line
	9100 1475 9300 1475
Wire Wire Line
	9100 1575 9300 1575
Wire Wire Line
	9100 1675 9300 1675
Wire Wire Line
	9100 1775 9300 1775
Wire Wire Line
	9100 1875 9300 1875
Wire Wire Line
	9100 1975 9300 1975
Wire Wire Line
	8100 1875 8300 1875
Wire Wire Line
	8100 1375 8300 1375
Wire Wire Line
	8100 1675 8300 1675
Wire Wire Line
	8100 1975 8300 1975
Wire Wire Line
	8100 1575 8300 1575
Wire Wire Line
	8100 1775 8300 1775
Wire Wire Line
	8100 1475 8300 1475
Wire Wire Line
	8100 1275 8300 1275
Wire Wire Line
	8100 2075 8300 2075
Wire Wire Line
	8100 2175 8300 2175
Wire Wire Line
	8100 2275 8300 2275
Wire Wire Line
	8100 2525 8300 2525
Wire Wire Line
	8100 2625 8300 2625
Text Label 9300 1275 2    50   ~ 0
D0
Text Label 9300 1375 2    50   ~ 0
D1
Text Label 9300 1475 2    50   ~ 0
D2
Text Label 9300 1575 2    50   ~ 0
D3
Text Label 9300 1675 2    50   ~ 0
D4
Text Label 9300 1775 2    50   ~ 0
D5
Text Label 9300 1875 2    50   ~ 0
D6
Text Label 9300 1975 2    50   ~ 0
D7
Text Label 8100 1275 0    50   ~ 0
A0
Text Label 8100 1375 0    50   ~ 0
A1
Text Label 8100 1475 0    50   ~ 0
A2
Text Label 8100 1575 0    50   ~ 0
A3
Text Label 8100 1675 0    50   ~ 0
A4
Text Label 8100 1775 0    50   ~ 0
A5
Text Label 8100 1875 0    50   ~ 0
A6
Text Label 8100 1975 0    50   ~ 0
A7
Text Label 8100 2075 0    50   ~ 0
A8
Text Label 8100 2175 0    50   ~ 0
A9
Text Label 8100 2275 0    50   ~ 0
A10
Text Label 8100 2625 0    50   ~ 0
~OE
Text Label 10600 2175 0    50   ~ 0
A9
Text Label 10600 2275 0    50   ~ 0
A10
Wire Wire Line
	10075 775  10075 750 
Wire Wire Line
	10075 750  9950 750 
$Comp
L Device:C_Small C?
U 1 1 5EB2C5DA
P 10075 875
AR Path="/5EA2DD9E/5EB2C5DA" Ref="C?"  Part="1" 
AR Path="/5EA9FEC9/5EB2C5DA" Ref="C?"  Part="1" 
F 0 "C?" H 10167 921 50  0000 L CNN
F 1 "C_Small" H 10167 830 50  0000 L CNN
F 2 "" H 10075 875 50  0001 C CNN
F 3 "~" H 10075 875 50  0001 C CNN
	1    10075 875 
	1    0    0    -1  
$EndComp
Connection ~ 9950 750 
$Comp
L power:GND #PWR?
U 1 1 5EB2C5DB
P 10075 975
AR Path="/5EA2DD9E/5EB2C5DB" Ref="#PWR?"  Part="1" 
AR Path="/5EA9FEC9/5EB2C5DB" Ref="#PWR?"  Part="1" 
F 0 "#PWR?" H 10075 725 50  0001 C CNN
F 1 "GND" H 10075 825 50  0000 C CNN
F 2 "" H 10075 975 50  0001 C CNN
F 3 "" H 10075 975 50  0001 C CNN
	1    10075 975 
	1    0    0    -1  
$EndComp
Wire Wire Line
	9950 750  9950 1075
Wire Wire Line
	9950 750  9950 700 
$Comp
L power:+5V #PWR?
U 1 1 5EB2C5DC
P 9950 700
AR Path="/5EA2DD9E/5EB2C5DC" Ref="#PWR?"  Part="1" 
AR Path="/5EA9FEC9/5EB2C5DC" Ref="#PWR?"  Part="1" 
F 0 "#PWR?" H 9950 550 50  0001 C CNN
F 1 "+5V" H 9965 873 50  0000 C CNN
F 2 "" H 9950 700 50  0001 C CNN
F 3 "" H 9950 700 50  0001 C CNN
	1    9950 700 
	1    0    0    -1  
$EndComp
$Comp
L power:GND #PWR?
U 1 1 5EB2C5DD
P 9950 2975
AR Path="/5EA2DD9E/5EB2C5DD" Ref="#PWR?"  Part="1" 
AR Path="/5EA9FEC9/5EB2C5DD" Ref="#PWR?"  Part="1" 
F 0 "#PWR?" H 9950 2725 50  0001 C CNN
F 1 "GND" H 9950 2825 50  0000 C CNN
F 2 "" H 9950 2975 50  0001 C CNN
F 3 "" H 9950 2975 50  0001 C CNN
	1    9950 2975
	1    0    0    -1  
$EndComp
Wire Wire Line
	10350 1275 10550 1275
Wire Wire Line
	10350 1375 10550 1375
Wire Wire Line
	10350 1475 10550 1475
Wire Wire Line
	10350 1575 10550 1575
Wire Wire Line
	10350 1675 10550 1675
Wire Wire Line
	10350 1775 10550 1775
Wire Wire Line
	10350 1875 10550 1875
Wire Wire Line
	10350 1975 10550 1975
Wire Wire Line
	9350 1875 9550 1875
Wire Wire Line
	9350 1375 9550 1375
Wire Wire Line
	9350 1675 9550 1675
Wire Wire Line
	9350 1975 9550 1975
Wire Wire Line
	9350 1575 9550 1575
Wire Wire Line
	9350 1775 9550 1775
Wire Wire Line
	9350 1475 9550 1475
Wire Wire Line
	9350 1275 9550 1275
Wire Wire Line
	9350 2075 9550 2075
Wire Wire Line
	9350 2175 9550 2175
Wire Wire Line
	9350 2275 9550 2275
Wire Wire Line
	9350 2525 9550 2525
Wire Wire Line
	9350 2625 9550 2625
Text Label 10550 1275 2    50   ~ 0
D0
Text Label 10550 1375 2    50   ~ 0
D1
Text Label 10550 1475 2    50   ~ 0
D2
Text Label 10550 1575 2    50   ~ 0
D3
Text Label 10550 1675 2    50   ~ 0
D4
Text Label 10550 1775 2    50   ~ 0
D5
Text Label 10550 1875 2    50   ~ 0
D6
Text Label 10550 1975 2    50   ~ 0
D7
Text Label 9350 1275 0    50   ~ 0
A0
Text Label 9350 1375 0    50   ~ 0
A1
Text Label 9350 1475 0    50   ~ 0
A2
Text Label 9350 1575 0    50   ~ 0
A3
Text Label 9350 1675 0    50   ~ 0
A4
Text Label 9350 1775 0    50   ~ 0
A5
Text Label 9350 1875 0    50   ~ 0
A6
Text Label 9350 1975 0    50   ~ 0
A7
Text Label 9350 2075 0    50   ~ 0
A8
Text Label 9350 2175 0    50   ~ 0
A9
Text Label 9350 2275 0    50   ~ 0
A10
Wire Wire Line
	11325 750  11200 750 
Text Label 10600 1775 0    50   ~ 0
A5
Text Label 10600 2625 0    50   ~ 0
~OE
Wire Wire Line
	11200 750  11200 1075
Wire Wire Line
	11600 1375 11800 1375
Wire Wire Line
	11600 1975 11800 1975
Wire Wire Line
	10600 1475 10800 1475
Wire Wire Line
	10600 1975 10800 1975
Wire Wire Line
	10600 1875 10800 1875
Wire Wire Line
	10600 1675 10800 1675
Wire Wire Line
	10600 2625 10800 2625
Wire Wire Line
	10600 2075 10800 2075
Wire Wire Line
	11600 1675 11800 1675
Text Label 11800 1675 2    50   ~ 0
D4
Text Label 10600 1275 0    50   ~ 0
A0
Text Label 10600 2075 0    50   ~ 0
A8
Wire Wire Line
	11600 1475 11800 1475
Wire Wire Line
	10600 1375 10800 1375
Text Label 10600 1875 0    50   ~ 0
A6
Wire Wire Line
	11600 1775 11800 1775
Wire Wire Line
	11325 775  11325 750 
Wire Wire Line
	10600 2525 10800 2525
Wire Wire Line
	11600 1275 11800 1275
Text Label 11800 1275 2    50   ~ 0
D0
Text Label 10600 1475 0    50   ~ 0
A2
Wire Wire Line
	10600 2275 10800 2275
Wire Wire Line
	11600 1875 11800 1875
$Comp
L power:GND #PWR?
U 1 1 5EB2C5DE
P 11200 2975
AR Path="/5EA2DD9E/5EB2C5DE" Ref="#PWR?"  Part="1" 
AR Path="/5EA9FEC9/5EB2C5DE" Ref="#PWR?"  Part="1" 
F 0 "#PWR?" H 11200 2725 50  0001 C CNN
F 1 "GND" H 11200 2825 50  0000 C CNN
F 2 "" H 11200 2975 50  0001 C CNN
F 3 "" H 11200 2975 50  0001 C CNN
	1    11200 2975
	1    0    0    -1  
$EndComp
$Comp
L power:GND #PWR?
U 1 1 5EB2C5DF
P 11325 975
AR Path="/5EA2DD9E/5EB2C5DF" Ref="#PWR?"  Part="1" 
AR Path="/5EA9FEC9/5EB2C5DF" Ref="#PWR?"  Part="1" 
F 0 "#PWR?" H 11325 725 50  0001 C CNN
F 1 "GND" H 11325 825 50  0000 C CNN
F 2 "" H 11325 975 50  0001 C CNN
F 3 "" H 11325 975 50  0001 C CNN
	1    11325 975 
	1    0    0    -1  
$EndComp
Wire Wire Line
	11600 1575 11800 1575
Text Label 10600 1575 0    50   ~ 0
A3
Text Label 11800 1375 2    50   ~ 0
D1
$Comp
L power:+5V #PWR?
U 1 1 5EB2C5E0
P 11200 700
AR Path="/5EA2DD9E/5EB2C5E0" Ref="#PWR?"  Part="1" 
AR Path="/5EA9FEC9/5EB2C5E0" Ref="#PWR?"  Part="1" 
F 0 "#PWR?" H 11200 550 50  0001 C CNN
F 1 "+5V" H 11215 873 50  0000 C CNN
F 2 "" H 11200 700 50  0001 C CNN
F 3 "" H 11200 700 50  0001 C CNN
	1    11200 700 
	1    0    0    -1  
$EndComp
Text Label 11800 1975 2    50   ~ 0
D7
Wire Wire Line
	10600 1575 10800 1575
Text Label 11800 1775 2    50   ~ 0
D5
Text Label 11800 1475 2    50   ~ 0
D2
Text Label 11800 1875 2    50   ~ 0
D6
Wire Wire Line
	10600 2175 10800 2175
Text Label 9350 2625 0    50   ~ 0
~OE
Text Label 10600 1375 0    50   ~ 0
A1
Wire Wire Line
	10600 1775 10800 1775
Wire Wire Line
	11200 750  11200 700 
Text Label 10600 1675 0    50   ~ 0
A4
Wire Wire Line
	10600 1275 10800 1275
$Comp
L Device:C_Small C?
U 1 1 5EB2C5E1
P 11325 875
AR Path="/5EA2DD9E/5EB2C5E1" Ref="C?"  Part="1" 
AR Path="/5EA9FEC9/5EB2C5E1" Ref="C?"  Part="1" 
F 0 "C?" H 11417 921 50  0000 L CNN
F 1 "C_Small" H 11417 830 50  0000 L CNN
F 2 "" H 11325 875 50  0001 C CNN
F 3 "~" H 11325 875 50  0001 C CNN
	1    11325 875 
	1    0    0    -1  
$EndComp
Text Label 11800 1575 2    50   ~ 0
D3
Text Label 10600 1975 0    50   ~ 0
A7
Connection ~ 11200 750 
Text Label 8075 4850 0    50   ~ 0
A9
Text Label 8075 4950 0    50   ~ 0
A10
Wire Wire Line
	7550 3450 7550 3425
Wire Wire Line
	7550 3425 7425 3425
$Comp
L Device:C_Small C?
U 1 1 5E86F293
P 7550 3550
AR Path="/5EA2DD9E/5E86F293" Ref="C?"  Part="1" 
AR Path="/5EA9FEC9/5E86F293" Ref="C?"  Part="1" 
F 0 "C?" H 7642 3596 50  0000 L CNN
F 1 "C_Small" H 7642 3505 50  0000 L CNN
F 2 "" H 7550 3550 50  0001 C CNN
F 3 "~" H 7550 3550 50  0001 C CNN
	1    7550 3550
	1    0    0    -1  
$EndComp
Connection ~ 7425 3425
$Comp
L power:GND #PWR?
U 1 1 5EB2C5E3
P 7550 3650
AR Path="/5EA2DD9E/5EB2C5E3" Ref="#PWR?"  Part="1" 
AR Path="/5EA9FEC9/5EB2C5E3" Ref="#PWR?"  Part="1" 
F 0 "#PWR?" H 7550 3400 50  0001 C CNN
F 1 "GND" H 7550 3500 50  0000 C CNN
F 2 "" H 7550 3650 50  0001 C CNN
F 3 "" H 7550 3650 50  0001 C CNN
	1    7550 3650
	1    0    0    -1  
$EndComp
Wire Wire Line
	7425 3425 7425 3750
Wire Wire Line
	7425 3425 7425 3375
$Comp
L power:+5V #PWR?
U 1 1 5E86F2B0
P 7425 3375
AR Path="/5EA2DD9E/5E86F2B0" Ref="#PWR?"  Part="1" 
AR Path="/5EA9FEC9/5E86F2B0" Ref="#PWR?"  Part="1" 
F 0 "#PWR?" H 7425 3225 50  0001 C CNN
F 1 "+5V" H 7440 3548 50  0000 C CNN
F 2 "" H 7425 3375 50  0001 C CNN
F 3 "" H 7425 3375 50  0001 C CNN
	1    7425 3375
	1    0    0    -1  
$EndComp
$Comp
L power:GND #PWR?
U 1 1 5EB2C5E5
P 7425 5650
AR Path="/5EA2DD9E/5EB2C5E5" Ref="#PWR?"  Part="1" 
AR Path="/5EA9FEC9/5EB2C5E5" Ref="#PWR?"  Part="1" 
F 0 "#PWR?" H 7425 5400 50  0001 C CNN
F 1 "GND" H 7425 5500 50  0000 C CNN
F 2 "" H 7425 5650 50  0001 C CNN
F 3 "" H 7425 5650 50  0001 C CNN
	1    7425 5650
	1    0    0    -1  
$EndComp
Wire Wire Line
	7825 3950 8025 3950
Wire Wire Line
	7825 4050 8025 4050
Wire Wire Line
	7825 4150 8025 4150
Wire Wire Line
	7825 4250 8025 4250
Wire Wire Line
	7825 4350 8025 4350
Wire Wire Line
	7825 4450 8025 4450
Wire Wire Line
	7825 4550 8025 4550
Wire Wire Line
	7825 4650 8025 4650
Wire Wire Line
	6825 4550 7025 4550
Wire Wire Line
	6825 4050 7025 4050
Wire Wire Line
	6825 4350 7025 4350
Wire Wire Line
	6825 4650 7025 4650
Wire Wire Line
	6825 4250 7025 4250
Wire Wire Line
	6825 4450 7025 4450
Wire Wire Line
	6825 4150 7025 4150
Wire Wire Line
	6825 3950 7025 3950
Wire Wire Line
	6825 4750 7025 4750
Wire Wire Line
	6825 4850 7025 4850
Wire Wire Line
	6825 4950 7025 4950
Wire Wire Line
	6825 5100 7025 5100
Wire Wire Line
	6825 5200 7025 5200
Wire Wire Line
	6825 5300 7025 5300
Text Label 8025 3950 2    50   ~ 0
D0
Text Label 8025 4050 2    50   ~ 0
D1
Text Label 8025 4150 2    50   ~ 0
D2
Text Label 8025 4250 2    50   ~ 0
D3
Text Label 8025 4350 2    50   ~ 0
D4
Text Label 8025 4450 2    50   ~ 0
D5
Text Label 8025 4550 2    50   ~ 0
D6
Text Label 8025 4650 2    50   ~ 0
D7
Text Label 6825 3950 0    50   ~ 0
A0
Text Label 6825 4050 0    50   ~ 0
A1
Text Label 6825 4150 0    50   ~ 0
A2
Text Label 6825 4250 0    50   ~ 0
A3
Text Label 6825 4350 0    50   ~ 0
A4
Text Label 6825 4450 0    50   ~ 0
A5
Text Label 6825 4550 0    50   ~ 0
A6
Text Label 6825 4650 0    50   ~ 0
A7
Text Label 6825 4750 0    50   ~ 0
A8
Text Label 6825 4850 0    50   ~ 0
A9
Text Label 6825 4950 0    50   ~ 0
A10
Connection ~ 9925 3425
Wire Wire Line
	8800 3425 8675 3425
Text Label 8075 4450 0    50   ~ 0
A5
Text Label 8075 5300 0    50   ~ 0
~OE
Wire Wire Line
	8675 3425 8675 3750
Wire Wire Line
	9075 4050 9275 4050
Wire Wire Line
	9075 4650 9275 4650
Wire Wire Line
	11175 3425 11175 3375
Wire Wire Line
	8075 4150 8275 4150
Wire Wire Line
	8075 4650 8275 4650
Wire Wire Line
	8075 4550 8275 4550
Wire Wire Line
	10575 5300 10775 5300
Wire Wire Line
	10575 4150 10775 4150
Text Label 10525 4150 2    50   ~ 0
D2
Wire Wire Line
	9925 3425 9925 3375
Wire Wire Line
	8075 4350 8275 4350
Wire Wire Line
	10575 4650 10775 4650
Wire Wire Line
	9325 4150 9525 4150
Wire Wire Line
	11575 4650 11775 4650
Text Label 9325 5100 0    50   ~ 0
~WE
Wire Wire Line
	9325 4750 9525 4750
Wire Wire Line
	8075 5300 8275 5300
Wire Wire Line
	8075 4750 8275 4750
Wire Wire Line
	8075 5100 8275 5100
Wire Wire Line
	9325 4050 9525 4050
Wire Wire Line
	9075 4350 9275 4350
Text Label 9275 4350 2    50   ~ 0
D4
Text Label 8075 3950 0    50   ~ 0
A0
Wire Wire Line
	9325 3950 9525 3950
Wire Wire Line
	9325 5100 9525 5100
Wire Wire Line
	9325 4850 9525 4850
Text Label 8075 5100 0    50   ~ 0
~WE
Text Label 10575 4550 0    50   ~ 0
A6
Wire Wire Line
	11575 4450 11775 4450
Wire Wire Line
	9325 4450 9525 4450
Wire Wire Line
	10325 3950 10525 3950
Text Label 10575 4650 0    50   ~ 0
A7
Text Label 8075 4750 0    50   ~ 0
A8
Wire Wire Line
	10325 4450 10525 4450
Text Label 11775 4250 2    50   ~ 0
D3
Wire Wire Line
	9075 4150 9275 4150
Wire Wire Line
	8075 4050 8275 4050
Text Label 10575 5100 0    50   ~ 0
~WE
Wire Wire Line
	10575 4050 10775 4050
Text Label 8075 4550 0    50   ~ 0
A6
Wire Wire Line
	10325 4550 10525 4550
Text Label 10575 4750 0    50   ~ 0
A8
$Comp
L Device:C_Small C?
U 1 1 5EB2C5E6
P 11300 3550
AR Path="/5EA2DD9E/5EB2C5E6" Ref="C?"  Part="1" 
AR Path="/5EA9FEC9/5EB2C5E6" Ref="C?"  Part="1" 
F 0 "C?" H 11392 3596 50  0000 L CNN
F 1 "C_Small" H 11392 3505 50  0000 L CNN
F 2 "" H 11300 3550 50  0001 C CNN
F 3 "~" H 11300 3550 50  0001 C CNN
	1    11300 3550
	1    0    0    -1  
$EndComp
Wire Wire Line
	9075 4450 9275 4450
Wire Wire Line
	8800 3450 8800 3425
Wire Wire Line
	8075 5200 8275 5200
Text Label 10525 4050 2    50   ~ 0
D1
Text Label 10575 4050 0    50   ~ 0
A1
Wire Wire Line
	10575 4450 10775 4450
$Comp
L power:+5V #PWR?
U 1 1 5EB2C5E7
P 9925 3375
AR Path="/5EA2DD9E/5EB2C5E7" Ref="#PWR?"  Part="1" 
AR Path="/5EA9FEC9/5EB2C5E7" Ref="#PWR?"  Part="1" 
F 0 "#PWR?" H 9925 3225 50  0001 C CNN
F 1 "+5V" H 9940 3548 50  0000 C CNN
F 2 "" H 9925 3375 50  0001 C CNN
F 3 "" H 9925 3375 50  0001 C CNN
	1    9925 3375
	1    0    0    -1  
$EndComp
Wire Wire Line
	9075 3950 9275 3950
Text Label 11775 4350 2    50   ~ 0
D4
Wire Wire Line
	10325 4150 10525 4150
Text Label 9275 3950 2    50   ~ 0
D0
Text Label 8075 4150 0    50   ~ 0
A2
Wire Wire Line
	11300 3450 11300 3425
Wire Wire Line
	9325 4350 9525 4350
Wire Wire Line
	8075 4950 8275 4950
Text Label 10525 4450 2    50   ~ 0
D5
Text Label 10575 4450 0    50   ~ 0
A5
Text Label 9325 3950 0    50   ~ 0
A0
Wire Wire Line
	9325 4250 9525 4250
$Comp
L Device:C_Small C?
U 1 1 5EB2C5E8
P 10050 3550
AR Path="/5EA2DD9E/5EB2C5E8" Ref="C?"  Part="1" 
AR Path="/5EA9FEC9/5EB2C5E8" Ref="C?"  Part="1" 
F 0 "C?" H 10142 3596 50  0000 L CNN
F 1 "C_Small" H 10142 3505 50  0000 L CNN
F 2 "" H 10050 3550 50  0001 C CNN
F 3 "~" H 10050 3550 50  0001 C CNN
	1    10050 3550
	1    0    0    -1  
$EndComp
Wire Wire Line
	10050 3450 10050 3425
Wire Wire Line
	9075 4550 9275 4550
Text Label 9325 4750 0    50   ~ 0
A8
$Comp
L power:GND #PWR?
U 1 1 5EB2C5E9
P 8675 5650
AR Path="/5EA2DD9E/5EB2C5E9" Ref="#PWR?"  Part="1" 
AR Path="/5EA9FEC9/5EB2C5E9" Ref="#PWR?"  Part="1" 
F 0 "#PWR?" H 8675 5400 50  0001 C CNN
F 1 "GND" H 8675 5500 50  0000 C CNN
F 2 "" H 8675 5650 50  0001 C CNN
F 3 "" H 8675 5650 50  0001 C CNN
	1    8675 5650
	1    0    0    -1  
$EndComp
$Comp
L power:GND #PWR?
U 1 1 5EB2C5EA
P 8800 3650
AR Path="/5EA2DD9E/5EB2C5EA" Ref="#PWR?"  Part="1" 
AR Path="/5EA9FEC9/5EB2C5EA" Ref="#PWR?"  Part="1" 
F 0 "#PWR?" H 8800 3400 50  0001 C CNN
F 1 "GND" H 8800 3500 50  0000 C CNN
F 2 "" H 8800 3650 50  0001 C CNN
F 3 "" H 8800 3650 50  0001 C CNN
	1    8800 3650
	1    0    0    -1  
$EndComp
Wire Wire Line
	10325 4350 10525 4350
Text Label 9325 4250 0    50   ~ 0
A3
Wire Wire Line
	9325 4550 9525 4550
Wire Wire Line
	10575 5100 10775 5100
Connection ~ 11175 3425
Text Label 9325 4650 0    50   ~ 0
A7
Wire Wire Line
	10325 4050 10525 4050
Wire Wire Line
	9075 4250 9275 4250
Wire Wire Line
	11575 4050 11775 4050
Text Label 11775 4550 2    50   ~ 0
D6
Wire Wire Line
	10575 4850 10775 4850
Text Label 8075 4250 0    50   ~ 0
A3
Text Label 9275 4050 2    50   ~ 0
D1
Text Label 10525 4550 2    50   ~ 0
D6
Wire Wire Line
	10575 4950 10775 4950
Wire Wire Line
	10325 4250 10525 4250
$Comp
L power:GND #PWR?
U 1 1 5EB2C5EB
P 9925 5650
AR Path="/5EA2DD9E/5EB2C5EB" Ref="#PWR?"  Part="1" 
AR Path="/5EA9FEC9/5EB2C5EB" Ref="#PWR?"  Part="1" 
F 0 "#PWR?" H 9925 5400 50  0001 C CNN
F 1 "GND" H 9925 5500 50  0000 C CNN
F 2 "" H 9925 5650 50  0001 C CNN
F 3 "" H 9925 5650 50  0001 C CNN
	1    9925 5650
	1    0    0    -1  
$EndComp
$Comp
L power:+5V #PWR?
U 1 1 5EB2C5EC
P 8675 3375
AR Path="/5EA2DD9E/5EB2C5EC" Ref="#PWR?"  Part="1" 
AR Path="/5EA9FEC9/5EB2C5EC" Ref="#PWR?"  Part="1" 
F 0 "#PWR?" H 8675 3225 50  0001 C CNN
F 1 "+5V" H 8690 3548 50  0000 C CNN
F 2 "" H 8675 3375 50  0001 C CNN
F 3 "" H 8675 3375 50  0001 C CNN
	1    8675 3375
	1    0    0    -1  
$EndComp
Text Label 9325 4950 0    50   ~ 0
A10
Text Label 9325 4050 0    50   ~ 0
A1
Wire Wire Line
	10575 4350 10775 4350
Text Label 10525 3950 2    50   ~ 0
D0
Text Label 9325 4350 0    50   ~ 0
A4
Wire Wire Line
	11575 3950 11775 3950
Text Label 9325 5300 0    50   ~ 0
~OE
Text Label 11775 3950 2    50   ~ 0
D0
Text Label 10575 4150 0    50   ~ 0
A2
Text Label 9275 4650 2    50   ~ 0
D7
Text Label 10575 4350 0    50   ~ 0
A4
Wire Wire Line
	10575 3950 10775 3950
Text Label 9325 4550 0    50   ~ 0
A6
$Comp
L power:GND #PWR?
U 1 1 5EB2C5ED
P 10050 3650
AR Path="/5EA2DD9E/5EB2C5ED" Ref="#PWR?"  Part="1" 
AR Path="/5EA9FEC9/5EB2C5ED" Ref="#PWR?"  Part="1" 
F 0 "#PWR?" H 10050 3400 50  0001 C CNN
F 1 "GND" H 10050 3500 50  0000 C CNN
F 2 "" H 10050 3650 50  0001 C CNN
F 3 "" H 10050 3650 50  0001 C CNN
	1    10050 3650
	1    0    0    -1  
$EndComp
Wire Wire Line
	8075 4250 8275 4250
Wire Wire Line
	9325 4650 9525 4650
Text Label 10575 5300 0    50   ~ 0
~OE
Wire Wire Line
	11175 3425 11175 3750
Text Label 9275 4450 2    50   ~ 0
D5
Wire Wire Line
	11575 4250 11775 4250
Text Label 9275 4150 2    50   ~ 0
D2
Wire Wire Line
	10575 5200 10775 5200
Text Label 9275 4550 2    50   ~ 0
D6
$Comp
L power:GND #PWR?
U 1 1 5EB2C5EE
P 11175 5650
AR Path="/5EA2DD9E/5EB2C5EE" Ref="#PWR?"  Part="1" 
AR Path="/5EA9FEC9/5EB2C5EE" Ref="#PWR?"  Part="1" 
F 0 "#PWR?" H 11175 5400 50  0001 C CNN
F 1 "GND" H 11175 5500 50  0000 C CNN
F 2 "" H 11175 5650 50  0001 C CNN
F 3 "" H 11175 5650 50  0001 C CNN
	1    11175 5650
	1    0    0    -1  
$EndComp
Wire Wire Line
	8075 4850 8275 4850
Text Label 9325 4450 0    50   ~ 0
A5
Wire Wire Line
	11575 4350 11775 4350
Text Label 10575 4950 0    50   ~ 0
A10
Text Label 6825 5300 0    50   ~ 0
~OE
Wire Wire Line
	9325 4950 9525 4950
Text Label 8075 4050 0    50   ~ 0
A1
Wire Wire Line
	9325 5300 9525 5300
Wire Wire Line
	11300 3425 11175 3425
Text Label 10575 4850 0    50   ~ 0
A9
Wire Wire Line
	8075 4450 8275 4450
Wire Wire Line
	8675 3425 8675 3375
Text Label 8075 4350 0    50   ~ 0
A4
Text Label 10575 3950 0    50   ~ 0
A0
Wire Wire Line
	11575 4150 11775 4150
Wire Wire Line
	10575 4750 10775 4750
Text Label 10525 4250 2    50   ~ 0
D3
Text Label 6825 5100 0    50   ~ 0
~WE
$Comp
L power:GND #PWR?
U 1 1 5E86F455
P 11300 3650
AR Path="/5EA2DD9E/5E86F455" Ref="#PWR?"  Part="1" 
AR Path="/5EA9FEC9/5E86F455" Ref="#PWR?"  Part="1" 
F 0 "#PWR?" H 11300 3400 50  0001 C CNN
F 1 "GND" H 11300 3500 50  0000 C CNN
F 2 "" H 11300 3650 50  0001 C CNN
F 3 "" H 11300 3650 50  0001 C CNN
	1    11300 3650
	1    0    0    -1  
$EndComp
$Comp
L power:+5V #PWR?
U 1 1 5E86F462
P 11175 3375
AR Path="/5EA2DD9E/5E86F462" Ref="#PWR?"  Part="1" 
AR Path="/5EA9FEC9/5E86F462" Ref="#PWR?"  Part="1" 
F 0 "#PWR?" H 11175 3225 50  0001 C CNN
F 1 "+5V" H 11190 3548 50  0000 C CNN
F 2 "" H 11175 3375 50  0001 C CNN
F 3 "" H 11175 3375 50  0001 C CNN
	1    11175 3375
	1    0    0    -1  
$EndComp
Text Label 11775 4050 2    50   ~ 0
D1
Text Label 10575 4250 0    50   ~ 0
A3
Text Label 11775 4650 2    50   ~ 0
D7
Text Label 10525 4650 2    50   ~ 0
D7
Text Label 9325 4850 0    50   ~ 0
A9
Text Label 10525 4350 2    50   ~ 0
D4
Wire Wire Line
	10050 3425 9925 3425
Wire Wire Line
	8075 3950 8275 3950
$Comp
L Device:C_Small C?
U 1 1 5E86F478
P 8800 3550
AR Path="/5EA2DD9E/5E86F478" Ref="C?"  Part="1" 
AR Path="/5EA9FEC9/5E86F478" Ref="C?"  Part="1" 
F 0 "C?" H 8892 3596 50  0000 L CNN
F 1 "C_Small" H 8892 3505 50  0000 L CNN
F 2 "" H 8800 3550 50  0001 C CNN
F 3 "~" H 8800 3550 50  0001 C CNN
	1    8800 3550
	1    0    0    -1  
$EndComp
Text Label 11775 4450 2    50   ~ 0
D5
Text Label 11775 4150 2    50   ~ 0
D2
Text Label 9325 4150 0    50   ~ 0
A2
Text Label 9275 4250 2    50   ~ 0
D3
Text Label 8075 4650 0    50   ~ 0
A7
Wire Wire Line
	10325 4650 10525 4650
Wire Wire Line
	10575 4550 10775 4550
Wire Wire Line
	10575 4250 10775 4250
Wire Wire Line
	9925 3425 9925 3750
Wire Wire Line
	9325 5200 9525 5200
Wire Wire Line
	11575 4550 11775 4550
Connection ~ 8675 3425
Text Label 8050 7525 0    50   ~ 0
A9
Text Label 8050 7625 0    50   ~ 0
A10
Wire Wire Line
	7525 6125 7525 6100
Wire Wire Line
	7525 6100 7400 6100
$Comp
L Device:C_Small C?
U 1 1 5EB2C5F2
P 7525 6225
AR Path="/5EA2DD9E/5EB2C5F2" Ref="C?"  Part="1" 
AR Path="/5EA9FEC9/5EB2C5F2" Ref="C?"  Part="1" 
F 0 "C?" H 7617 6271 50  0000 L CNN
F 1 "C_Small" H 7617 6180 50  0000 L CNN
F 2 "" H 7525 6225 50  0001 C CNN
F 3 "~" H 7525 6225 50  0001 C CNN
	1    7525 6225
	1    0    0    -1  
$EndComp
Connection ~ 7400 6100
$Comp
L power:GND #PWR?
U 1 1 5EB2C5F3
P 7525 6325
AR Path="/5EA2DD9E/5EB2C5F3" Ref="#PWR?"  Part="1" 
AR Path="/5EA9FEC9/5EB2C5F3" Ref="#PWR?"  Part="1" 
F 0 "#PWR?" H 7525 6075 50  0001 C CNN
F 1 "GND" H 7525 6175 50  0000 C CNN
F 2 "" H 7525 6325 50  0001 C CNN
F 3 "" H 7525 6325 50  0001 C CNN
	1    7525 6325
	1    0    0    -1  
$EndComp
Wire Wire Line
	7400 6100 7400 6425
Wire Wire Line
	7400 6100 7400 6050
$Comp
L power:+5V #PWR?
U 1 1 5EB2C5F4
P 7400 6050
AR Path="/5EA2DD9E/5EB2C5F4" Ref="#PWR?"  Part="1" 
AR Path="/5EA9FEC9/5EB2C5F4" Ref="#PWR?"  Part="1" 
F 0 "#PWR?" H 7400 5900 50  0001 C CNN
F 1 "+5V" H 7415 6223 50  0000 C CNN
F 2 "" H 7400 6050 50  0001 C CNN
F 3 "" H 7400 6050 50  0001 C CNN
	1    7400 6050
	1    0    0    -1  
$EndComp
$Comp
L power:GND #PWR?
U 1 1 5E876C61
P 7400 8325
AR Path="/5EA2DD9E/5E876C61" Ref="#PWR?"  Part="1" 
AR Path="/5EA9FEC9/5E876C61" Ref="#PWR?"  Part="1" 
F 0 "#PWR?" H 7400 8075 50  0001 C CNN
F 1 "GND" H 7400 8175 50  0000 C CNN
F 2 "" H 7400 8325 50  0001 C CNN
F 3 "" H 7400 8325 50  0001 C CNN
	1    7400 8325
	1    0    0    -1  
$EndComp
Wire Wire Line
	7800 6625 8000 6625
Wire Wire Line
	7800 6725 8000 6725
Wire Wire Line
	7800 6825 8000 6825
Wire Wire Line
	7800 6925 8000 6925
Wire Wire Line
	7800 7025 8000 7025
Wire Wire Line
	7800 7125 8000 7125
Wire Wire Line
	7800 7225 8000 7225
Wire Wire Line
	7800 7325 8000 7325
Wire Wire Line
	6800 7225 7000 7225
Wire Wire Line
	6800 6725 7000 6725
Wire Wire Line
	6800 7025 7000 7025
Wire Wire Line
	6800 7325 7000 7325
Wire Wire Line
	6800 6925 7000 6925
Wire Wire Line
	6800 7125 7000 7125
Wire Wire Line
	6800 6825 7000 6825
Wire Wire Line
	6800 6625 7000 6625
Wire Wire Line
	6800 7425 7000 7425
Wire Wire Line
	6800 7525 7000 7525
Wire Wire Line
	6800 7625 7000 7625
Wire Wire Line
	6800 7775 7000 7775
Wire Wire Line
	6800 7875 7000 7875
Wire Wire Line
	6800 7975 7000 7975
Text Label 8000 6625 2    50   ~ 0
D0
Text Label 8000 6725 2    50   ~ 0
D1
Text Label 8000 6825 2    50   ~ 0
D2
Text Label 8000 6925 2    50   ~ 0
D3
Text Label 8000 7025 2    50   ~ 0
D4
Text Label 8000 7125 2    50   ~ 0
D5
Text Label 8000 7225 2    50   ~ 0
D6
Text Label 8000 7325 2    50   ~ 0
D7
Text Label 6800 6625 0    50   ~ 0
A0
Text Label 6800 6725 0    50   ~ 0
A1
Text Label 6800 6825 0    50   ~ 0
A2
Text Label 6800 6925 0    50   ~ 0
A3
Text Label 6800 7025 0    50   ~ 0
A4
Text Label 6800 7125 0    50   ~ 0
A5
Text Label 6800 7225 0    50   ~ 0
A6
Text Label 6800 7325 0    50   ~ 0
A7
Text Label 6800 7425 0    50   ~ 0
A8
Text Label 6800 7525 0    50   ~ 0
A9
Text Label 6800 7625 0    50   ~ 0
A10
Connection ~ 9900 6100
Wire Wire Line
	8775 6100 8650 6100
Text Label 8050 7125 0    50   ~ 0
A5
Text Label 8050 7975 0    50   ~ 0
~OE
Wire Wire Line
	8650 6100 8650 6425
Wire Wire Line
	9050 6725 9250 6725
Wire Wire Line
	9050 7325 9250 7325
Wire Wire Line
	8050 6825 8250 6825
Wire Wire Line
	8050 7325 8250 7325
Wire Wire Line
	8050 7225 8250 7225
Text Label 10500 6825 2    50   ~ 0
D2
Wire Wire Line
	9900 6100 9900 6050
Wire Wire Line
	8050 7025 8250 7025
Wire Wire Line
	9300 6825 9500 6825
Text Label 9300 7775 0    50   ~ 0
~WE
Wire Wire Line
	9300 7425 9500 7425
Wire Wire Line
	8050 7975 8250 7975
Wire Wire Line
	8050 7425 8250 7425
Wire Wire Line
	8050 7775 8250 7775
Wire Wire Line
	9300 6725 9500 6725
Wire Wire Line
	9050 7025 9250 7025
Text Label 9250 7025 2    50   ~ 0
D4
Text Label 8050 6625 0    50   ~ 0
A0
Wire Wire Line
	9300 6625 9500 6625
Wire Wire Line
	9300 7775 9500 7775
Wire Wire Line
	9300 7525 9500 7525
Text Label 8050 7775 0    50   ~ 0
~WE
Wire Wire Line
	9300 7125 9500 7125
Wire Wire Line
	10300 6625 10500 6625
Text Label 8050 7425 0    50   ~ 0
A8
Wire Wire Line
	10300 7125 10500 7125
Wire Wire Line
	9050 6825 9250 6825
Wire Wire Line
	8050 6725 8250 6725
Text Label 8050 7225 0    50   ~ 0
A6
Wire Wire Line
	10300 7225 10500 7225
Wire Wire Line
	9050 7125 9250 7125
Wire Wire Line
	8775 6125 8775 6100
Wire Wire Line
	8050 7875 8250 7875
Text Label 10500 6725 2    50   ~ 0
D1
$Comp
L power:+5V #PWR?
U 1 1 5EB2C5F6
P 9900 6050
AR Path="/5EA2DD9E/5EB2C5F6" Ref="#PWR?"  Part="1" 
AR Path="/5EA9FEC9/5EB2C5F6" Ref="#PWR?"  Part="1" 
F 0 "#PWR?" H 9900 5900 50  0001 C CNN
F 1 "+5V" H 9915 6223 50  0000 C CNN
F 2 "" H 9900 6050 50  0001 C CNN
F 3 "" H 9900 6050 50  0001 C CNN
	1    9900 6050
	1    0    0    -1  
$EndComp
Wire Wire Line
	9050 6625 9250 6625
Wire Wire Line
	10300 6825 10500 6825
Text Label 9250 6625 2    50   ~ 0
D0
Text Label 8050 6825 0    50   ~ 0
A2
Wire Wire Line
	9300 7025 9500 7025
Wire Wire Line
	8050 7625 8250 7625
Text Label 10500 7125 2    50   ~ 0
D5
Text Label 9300 6625 0    50   ~ 0
A0
Wire Wire Line
	9300 6925 9500 6925
$Comp
L Device:C_Small C?
U 1 1 5EB2C5F7
P 10025 6225
AR Path="/5EA2DD9E/5EB2C5F7" Ref="C?"  Part="1" 
AR Path="/5EA9FEC9/5EB2C5F7" Ref="C?"  Part="1" 
F 0 "C?" H 10117 6271 50  0000 L CNN
F 1 "C_Small" H 10117 6180 50  0000 L CNN
F 2 "" H 10025 6225 50  0001 C CNN
F 3 "~" H 10025 6225 50  0001 C CNN
	1    10025 6225
	1    0    0    -1  
$EndComp
Wire Wire Line
	10025 6125 10025 6100
Wire Wire Line
	9050 7225 9250 7225
Text Label 9300 7425 0    50   ~ 0
A8
$Comp
L power:GND #PWR?
U 1 1 5E876E0C
P 8650 8325
AR Path="/5EA2DD9E/5E876E0C" Ref="#PWR?"  Part="1" 
AR Path="/5EA9FEC9/5E876E0C" Ref="#PWR?"  Part="1" 
F 0 "#PWR?" H 8650 8075 50  0001 C CNN
F 1 "GND" H 8650 8175 50  0000 C CNN
F 2 "" H 8650 8325 50  0001 C CNN
F 3 "" H 8650 8325 50  0001 C CNN
	1    8650 8325
	1    0    0    -1  
$EndComp
$Comp
L power:GND #PWR?
U 1 1 5EB2C5F9
P 8775 6325
AR Path="/5EA2DD9E/5EB2C5F9" Ref="#PWR?"  Part="1" 
AR Path="/5EA9FEC9/5EB2C5F9" Ref="#PWR?"  Part="1" 
F 0 "#PWR?" H 8775 6075 50  0001 C CNN
F 1 "GND" H 8775 6175 50  0000 C CNN
F 2 "" H 8775 6325 50  0001 C CNN
F 3 "" H 8775 6325 50  0001 C CNN
	1    8775 6325
	1    0    0    -1  
$EndComp
Wire Wire Line
	10300 7025 10500 7025
Text Label 9300 6925 0    50   ~ 0
A3
Wire Wire Line
	9300 7225 9500 7225
Text Label 9300 7325 0    50   ~ 0
A7
Wire Wire Line
	10300 6725 10500 6725
Wire Wire Line
	9050 6925 9250 6925
Text Label 8050 6925 0    50   ~ 0
A3
Text Label 9250 6725 2    50   ~ 0
D1
Text Label 10500 7225 2    50   ~ 0
D6
Wire Wire Line
	10300 6925 10500 6925
$Comp
L power:GND #PWR?
U 1 1 5E876E75
P 9900 8325
AR Path="/5EA2DD9E/5E876E75" Ref="#PWR?"  Part="1" 
AR Path="/5EA9FEC9/5E876E75" Ref="#PWR?"  Part="1" 
F 0 "#PWR?" H 9900 8075 50  0001 C CNN
F 1 "GND" H 9900 8175 50  0000 C CNN
F 2 "" H 9900 8325 50  0001 C CNN
F 3 "" H 9900 8325 50  0001 C CNN
	1    9900 8325
	1    0    0    -1  
$EndComp
$Comp
L power:+5V #PWR?
U 1 1 5E876E82
P 8650 6050
AR Path="/5EA2DD9E/5E876E82" Ref="#PWR?"  Part="1" 
AR Path="/5EA9FEC9/5E876E82" Ref="#PWR?"  Part="1" 
F 0 "#PWR?" H 8650 5900 50  0001 C CNN
F 1 "+5V" H 8665 6223 50  0000 C CNN
F 2 "" H 8650 6050 50  0001 C CNN
F 3 "" H 8650 6050 50  0001 C CNN
	1    8650 6050
	1    0    0    -1  
$EndComp
Text Label 9300 7625 0    50   ~ 0
A10
Text Label 9300 6725 0    50   ~ 0
A1
Text Label 10500 6625 2    50   ~ 0
D0
Text Label 9300 7025 0    50   ~ 0
A4
Text Label 9300 7975 0    50   ~ 0
~OE
Text Label 9250 7325 2    50   ~ 0
D7
Text Label 9300 7225 0    50   ~ 0
A6
$Comp
L power:GND #PWR?
U 1 1 5E876F0F
P 10025 6325
AR Path="/5EA2DD9E/5E876F0F" Ref="#PWR?"  Part="1" 
AR Path="/5EA9FEC9/5E876F0F" Ref="#PWR?"  Part="1" 
F 0 "#PWR?" H 10025 6075 50  0001 C CNN
F 1 "GND" H 10025 6175 50  0000 C CNN
F 2 "" H 10025 6325 50  0001 C CNN
F 3 "" H 10025 6325 50  0001 C CNN
	1    10025 6325
	1    0    0    -1  
$EndComp
Wire Wire Line
	8050 6925 8250 6925
Wire Wire Line
	9300 7325 9500 7325
Text Label 9250 7125 2    50   ~ 0
D5
Text Label 9250 6825 2    50   ~ 0
D2
Text Label 9250 7225 2    50   ~ 0
D6
Wire Wire Line
	8050 7525 8250 7525
Text Label 9300 7125 0    50   ~ 0
A5
Text Label 6800 7975 0    50   ~ 0
~OE
Wire Wire Line
	9300 7625 9500 7625
Text Label 8050 6725 0    50   ~ 0
A1
Wire Wire Line
	9300 7975 9500 7975
Wire Wire Line
	8050 7125 8250 7125
Wire Wire Line
	8650 6100 8650 6050
Text Label 8050 7025 0    50   ~ 0
A4
Text Label 10500 6925 2    50   ~ 0
D3
Text Label 6800 7775 0    50   ~ 0
~WE
Text Label 10500 7325 2    50   ~ 0
D7
Text Label 9300 7525 0    50   ~ 0
A9
Text Label 10500 7025 2    50   ~ 0
D4
Wire Wire Line
	10025 6100 9900 6100
Wire Wire Line
	8050 6625 8250 6625
$Comp
L Device:C_Small C?
U 1 1 5E877029
P 8775 6225
AR Path="/5EA2DD9E/5E877029" Ref="C?"  Part="1" 
AR Path="/5EA9FEC9/5E877029" Ref="C?"  Part="1" 
F 0 "C?" H 8867 6271 50  0000 L CNN
F 1 "C_Small" H 8867 6180 50  0000 L CNN
F 2 "" H 8775 6225 50  0001 C CNN
F 3 "~" H 8775 6225 50  0001 C CNN
	1    8775 6225
	1    0    0    -1  
$EndComp
Text Label 9300 6825 0    50   ~ 0
A2
Text Label 9250 6925 2    50   ~ 0
D3
Text Label 8050 7325 0    50   ~ 0
A7
Wire Wire Line
	10300 7325 10500 7325
Wire Wire Line
	9900 6100 9900 6425
Wire Wire Line
	9300 7875 9500 7875
Connection ~ 8650 6100
Text Label 13125 1275 2    50   ~ 0
~CE1
Text Label 13125 1375 2    50   ~ 0
~CE2
Text Label 13125 1475 2    50   ~ 0
~CE3
Text Label 13125 1575 2    50   ~ 0
~CE4
Text Label 13100 3950 2    50   ~ 0
~CE5
Text Label 13100 4050 2    50   ~ 0
~CE6
Text Label 13100 4150 2    50   ~ 0
~CE7
Text Label 13100 4250 2    50   ~ 0
~CE8
Text Label 13125 6150 2    50   ~ 0
~CE9
Text Label 13125 6250 2    50   ~ 0
~CE10
Text Label 13125 6350 2    50   ~ 0
~CE11
Wire Wire Line
	12925 1375 13125 1375
Wire Wire Line
	12925 1275 13125 1275
Wire Wire Line
	12925 1575 13125 1575
Wire Wire Line
	12925 1475 13125 1475
NoConn ~ 12925 1675
NoConn ~ 12925 1775
NoConn ~ 12925 1875
Wire Wire Line
	12175 1575 11975 1575
Wire Wire Line
	12175 1475 11975 1475
Wire Wire Line
	12175 1675 11975 1675
Wire Wire Line
	12175 1275 11975 1275
Wire Wire Line
	12175 1375 11975 1375
$Comp
L power:+5V #PWR?
U 1 1 5EB2C5FF
P 12550 3750
AR Path="/5EA2DD9E/5EB2C5FF" Ref="#PWR?"  Part="1" 
AR Path="/5EA9FEC9/5EB2C5FF" Ref="#PWR?"  Part="1" 
F 0 "#PWR?" H 12550 3600 50  0001 C CNN
F 1 "+5V" H 12565 3923 50  0000 C CNN
F 2 "" H 12550 3750 50  0001 C CNN
F 3 "" H 12550 3750 50  0001 C CNN
	1    12550 3750
	1    0    0    -1  
$EndComp
NoConn ~ 12900 4550
NoConn ~ 12900 4450
NoConn ~ 12900 4350
Wire Wire Line
	12900 4250 13100 4250
Wire Wire Line
	12150 4150 11950 4150
Wire Wire Line
	12150 3950 11950 3950
Wire Wire Line
	12150 4250 11950 4250
$Comp
L es65-rescue:6331-my_ics U13
U 1 1 5E8B5025
P 12550 4250
AR Path="/5EA2DD9E/5E8B5025" Ref="U13"  Part="1" 
AR Path="/5EA9FEC9/5E8B5025" Ref="U?"  Part="1" 
F 0 "U?" H 12250 4775 50  0000 C CNN
F 1 "6331" H 12300 4700 50  0000 C CNN
F 2 "" H 12250 4350 50  0001 C CNN
F 3 "" H 12250 4350 50  0001 C CNN
	1    12550 4250
	1    0    0    -1  
$EndComp
$Comp
L power:GND #PWR?
U 1 1 5E8B5032
P 12550 4850
AR Path="/5EA2DD9E/5E8B5032" Ref="#PWR?"  Part="1" 
AR Path="/5EA9FEC9/5E8B5032" Ref="#PWR?"  Part="1" 
F 0 "#PWR?" H 12550 4600 50  0001 C CNN
F 1 "GND" H 12550 4700 50  0000 C CNN
F 2 "" H 12550 4850 50  0001 C CNN
F 3 "" H 12550 4850 50  0001 C CNN
	1    12550 4850
	1    0    0    -1  
$EndComp
Wire Wire Line
	12150 4050 11950 4050
Wire Wire Line
	12150 4350 11950 4350
Wire Wire Line
	12900 3950 13100 3950
Wire Wire Line
	12900 4150 13100 4150
Wire Wire Line
	12900 4050 13100 4050
$Comp
L power:+5V #PWR?
U 1 1 5E8B9F5C
P 12575 5950
AR Path="/5EA2DD9E/5E8B9F5C" Ref="#PWR?"  Part="1" 
AR Path="/5EA9FEC9/5E8B9F5C" Ref="#PWR?"  Part="1" 
F 0 "#PWR?" H 12575 5800 50  0001 C CNN
F 1 "+5V" H 12590 6123 50  0000 C CNN
F 2 "" H 12575 5950 50  0001 C CNN
F 3 "" H 12575 5950 50  0001 C CNN
	1    12575 5950
	1    0    0    -1  
$EndComp
NoConn ~ 12925 6750
NoConn ~ 12925 6650
NoConn ~ 12925 6550
Wire Wire Line
	12175 6350 11975 6350
Wire Wire Line
	12175 6150 11975 6150
Wire Wire Line
	12175 6450 11975 6450
$Comp
L es65-rescue:6331-my_ics U12
U 1 1 5E8B9FB6
P 12575 6450
AR Path="/5EA2DD9E/5E8B9FB6" Ref="U12"  Part="1" 
AR Path="/5EA9FEC9/5E8B9FB6" Ref="U?"  Part="1" 
F 0 "U?" H 12275 6975 50  0000 C CNN
F 1 "6331" H 12325 6900 50  0000 C CNN
F 2 "" H 12275 6550 50  0001 C CNN
F 3 "" H 12275 6550 50  0001 C CNN
	1    12575 6450
	1    0    0    -1  
$EndComp
$Comp
L power:GND #PWR?
U 1 1 5E8B9FC3
P 12575 7050
AR Path="/5EA2DD9E/5E8B9FC3" Ref="#PWR?"  Part="1" 
AR Path="/5EA9FEC9/5E8B9FC3" Ref="#PWR?"  Part="1" 
F 0 "#PWR?" H 12575 6800 50  0001 C CNN
F 1 "GND" H 12575 6900 50  0000 C CNN
F 2 "" H 12575 7050 50  0001 C CNN
F 3 "" H 12575 7050 50  0001 C CNN
	1    12575 7050
	1    0    0    -1  
$EndComp
Wire Wire Line
	12175 6250 11975 6250
Wire Wire Line
	12175 6550 11975 6550
Wire Wire Line
	12925 6150 13125 6150
Wire Wire Line
	12925 6350 13125 6350
Wire Wire Line
	12925 6250 13125 6250
$Comp
L power:+5V #PWR?
U 1 1 5EB2C607
P 5600 9675
AR Path="/5EA2DD9E/5EB2C607" Ref="#PWR?"  Part="1" 
AR Path="/5EA9FEC9/5EB2C607" Ref="#PWR?"  Part="1" 
F 0 "#PWR?" H 5600 9525 50  0001 C CNN
F 1 "+5V" H 5615 9848 50  0000 C CNN
F 2 "" H 5600 9675 50  0001 C CNN
F 3 "" H 5600 9675 50  0001 C CNN
	1    5600 9675
	1    0    0    -1  
$EndComp
Text Label 4775 11100 1    50   ~ 0
~CE1
Wire Wire Line
	5075 10900 5075 11100
Text Label 4875 11100 1    50   ~ 0
~CE2
Text Label 5075 11100 1    50   ~ 0
~CE4
Text Label 4975 11100 1    50   ~ 0
~CE3
Wire Wire Line
	4775 10900 4775 11100
Wire Wire Line
	4975 10900 4975 11100
Wire Wire Line
	4875 10900 4875 11100
$Comp
L power:+5V #PWR?
U 1 1 5EB2C608
P 5625 10525
AR Path="/5EA2DD9E/5EB2C608" Ref="#PWR?"  Part="1" 
AR Path="/5EA9FEC9/5EB2C608" Ref="#PWR?"  Part="1" 
F 0 "#PWR?" H 5625 10375 50  0001 C CNN
F 1 "+5V" H 5640 10698 50  0000 C CNN
F 2 "" H 5625 10525 50  0001 C CNN
F 3 "" H 5625 10525 50  0001 C CNN
	1    5625 10525
	1    0    0    -1  
$EndComp
$Comp
L Device:R_Network05 RN?
U 1 1 5EB2C609
P 5825 10725
AR Path="/5EA2DD9E/5EB2C609" Ref="RN?"  Part="1" 
AR Path="/5EA9FEC9/5EB2C609" Ref="RN?"  Part="1" 
F 0 "RN?" H 6113 10771 50  0000 L CNN
F 1 "470E" H 6113 10680 50  0000 L CNN
F 2 "Resistor_THT:R_Array_SIP6" V 6200 10725 50  0001 C CNN
F 3 "http://www.vishay.com/docs/31509/csc.pdf" H 5825 10725 50  0001 C CNN
	1    5825 10725
	1    0    0    -1  
$EndComp
Wire Wire Line
	5825 10925 5825 11125
Wire Wire Line
	5725 10925 5725 11125
Text Label 5825 11125 1    50   ~ 0
~CE7
Text Label 5725 11125 1    50   ~ 0
~CE6
Text Label 5625 11125 1    50   ~ 0
~CE5
Text Label 5925 11125 1    50   ~ 0
~CE8
Wire Wire Line
	5625 10925 5625 11125
Wire Wire Line
	5925 10925 5925 11125
$Comp
L Device:R_Network05 RN?
U 1 1 5E8D1E34
P 4975 9850
AR Path="/5EA2DD9E/5E8D1E34" Ref="RN?"  Part="1" 
AR Path="/5EA9FEC9/5E8D1E34" Ref="RN?"  Part="1" 
F 0 "RN?" H 5263 9896 50  0000 L CNN
F 1 "470E" H 5263 9805 50  0000 L CNN
F 2 "Resistor_THT:R_Array_SIP6" V 5350 9850 50  0001 C CNN
F 3 "http://www.vishay.com/docs/31509/csc.pdf" H 4975 9850 50  0001 C CNN
	1    4975 9850
	1    0    0    -1  
$EndComp
$Comp
L power:+5V #PWR?
U 1 1 5E8D1E41
P 4775 9650
AR Path="/5EA2DD9E/5E8D1E41" Ref="#PWR?"  Part="1" 
AR Path="/5EA9FEC9/5E8D1E41" Ref="#PWR?"  Part="1" 
F 0 "#PWR?" H 4775 9500 50  0001 C CNN
F 1 "+5V" H 4790 9823 50  0000 C CNN
F 2 "" H 4775 9650 50  0001 C CNN
F 3 "" H 4775 9650 50  0001 C CNN
	1    4775 9650
	1    0    0    -1  
$EndComp
Wire Wire Line
	4775 10050 4775 10250
Wire Wire Line
	4975 10050 4975 10250
Text Label 4975 10250 1    50   ~ 0
~CE11
Wire Wire Line
	4875 10050 4875 10250
Text Label 4875 10250 1    50   ~ 0
~CE10
Text Label 4775 10250 1    50   ~ 0
~CE9
$Comp
L Device:R_Network05 RN?
U 1 1 5E8D6D78
P 4975 10700
AR Path="/5EA2DD9E/5E8D6D78" Ref="RN?"  Part="1" 
AR Path="/5EA9FEC9/5E8D6D78" Ref="RN?"  Part="1" 
F 0 "RN?" H 5263 10746 50  0000 L CNN
F 1 "470E" H 5263 10655 50  0000 L CNN
F 2 "Resistor_THT:R_Array_SIP6" V 5350 10700 50  0001 C CNN
F 3 "http://www.vishay.com/docs/31509/csc.pdf" H 4975 10700 50  0001 C CNN
	1    4975 10700
	1    0    0    -1  
$EndComp
$Comp
L power:+5V #PWR?
U 1 1 5EB2C60D
P 4775 10500
AR Path="/5EA2DD9E/5EB2C60D" Ref="#PWR?"  Part="1" 
AR Path="/5EA9FEC9/5EB2C60D" Ref="#PWR?"  Part="1" 
F 0 "#PWR?" H 4775 10350 50  0001 C CNN
F 1 "+5V" H 4790 10673 50  0000 C CNN
F 2 "" H 4775 10500 50  0001 C CNN
F 3 "" H 4775 10500 50  0001 C CNN
	1    4775 10500
	1    0    0    -1  
$EndComp
$Comp
L 74xx:74LS20 U5
U 3 1 5EB2C613
P 2175 10525
AR Path="/5EA2DD9E/5EB2C613" Ref="U5"  Part="3" 
AR Path="/5EA9FEC9/5EB2C613" Ref="U?"  Part="3" 
F 0 "U?" H 2405 10571 50  0000 L CNN
F 1 "74LS20" H 2405 10480 50  0000 L CNN
F 2 "" H 2175 10525 50  0001 C CNN
F 3 "http://www.ti.com/lit/gpn/sn74LS20" H 2175 10525 50  0001 C CNN
	3    2175 10525
	1    0    0    -1  
$EndComp
Wire Wire Line
	1050 1950 1350 1950
Wire Wire Line
	1050 3450 1350 3450
Wire Wire Line
	1050 2150 1350 2150
Wire Wire Line
	1050 2450 1350 2450
NoConn ~ 1925 2150
Wire Wire Line
	1050 3850 1350 3850
NoConn ~ 1050 1050
NoConn ~ 1050 3950
Wire Wire Line
	1050 2350 1350 2350
Wire Wire Line
	1925 2750 2225 2750
NoConn ~ 2825 3050
Text Label 1350 3750 2    50   ~ 0
AD6
Text Label 1350 3850 2    50   ~ 0
AD7
Text Label 1350 3650 2    50   ~ 0
AD5
Text Label 1350 3550 2    50   ~ 0
AD4
Text Label 1350 3450 2    50   ~ 0
AD3
Text Label 1350 3350 2    50   ~ 0
AD2
Text Label 1350 3250 2    50   ~ 0
AD1
Text Label 1350 3150 2    50   ~ 0
AD0
Text Label 1350 2650 2    50   ~ 0
AA15
Text Label 1350 2150 2    50   ~ 0
AA10
Text Label 1350 2350 2    50   ~ 0
AA12
Text Label 1350 2250 2    50   ~ 0
AA11
Text Label 1350 2550 2    50   ~ 0
AA14
Text Label 1350 2450 2    50   ~ 0
AA13
Text Label 1350 1950 2    50   ~ 0
AA8
Text Label 1350 1550 2    50   ~ 0
AA4
Text Label 1350 2050 2    50   ~ 0
AA9
Text Label 1350 1650 2    50   ~ 0
AA5
Text Label 1350 1850 2    50   ~ 0
AA7
Text Label 1350 1750 2    50   ~ 0
AA6
Text Label 2225 2750 2    50   ~ 0
PH2b
Text Label 1350 1250 2    50   ~ 0
AA1
Text Label 1350 1350 2    50   ~ 0
AA2
Text Label 1350 1450 2    50   ~ 0
AA3
Text Label 1350 1150 2    50   ~ 0
AA0
NoConn ~ 2825 2950
NoConn ~ 2825 2850
NoConn ~ 2825 2750
NoConn ~ 1925 3050
NoConn ~ 1050 2750
Wire Wire Line
	1050 2050 1350 2050
Wire Wire Line
	1050 1450 1350 1450
Wire Wire Line
	1050 950  1350 950 
Wire Wire Line
	1050 3150 1350 3150
NoConn ~ 1925 1850
Wire Wire Line
	1100 4050 1100 4100
Wire Wire Line
	1050 1250 1350 1250
NoConn ~ 1925 1750
Wire Wire Line
	2225 950  2225 825 
NoConn ~ 1050 2850
NoConn ~ 1925 1050
Wire Wire Line
	1050 4050 1100 4050
Wire Wire Line
	1350 950  1350 825 
Wire Wire Line
	1050 3250 1350 3250
NoConn ~ 1925 3250
Wire Wire Line
	1050 1550 1350 1550
NoConn ~ 1925 1650
Wire Wire Line
	1050 1350 1350 1350
Wire Wire Line
	1050 1150 1350 1150
NoConn ~ 1925 2350
NoConn ~ 1925 2250
Wire Wire Line
	1925 4050 1975 4050
NoConn ~ 1925 2450
Wire Wire Line
	1975 4050 1975 4100
NoConn ~ 1925 3150
Wire Wire Line
	1050 2550 1350 2550
NoConn ~ 1925 1550
Wire Wire Line
	1050 3550 1350 3550
Wire Wire Line
	1925 950  2225 950 
Wire Wire Line
	1050 3350 1350 3350
NoConn ~ 1925 3450
NoConn ~ 1925 3550
Wire Wire Line
	1050 1850 1350 1850
NoConn ~ 1925 2550
NoConn ~ 1925 1450
Wire Wire Line
	1050 2650 1350 2650
Wire Wire Line
	1050 2250 1350 2250
NoConn ~ 1925 2050
Wire Wire Line
	1050 1650 1350 1650
Wire Wire Line
	1050 1750 1350 1750
Wire Wire Line
	1050 3650 1350 3650
Wire Wire Line
	1050 3750 1350 3750
NoConn ~ 2825 2150
NoConn ~ 2825 1850
NoConn ~ 1925 1950
NoConn ~ 2825 1950
NoConn ~ 2825 2250
NoConn ~ 2825 2350
NoConn ~ 2825 2450
NoConn ~ 2825 2650
NoConn ~ 2825 1250
NoConn ~ 2825 1350
NoConn ~ 2825 950 
NoConn ~ 2825 2050
NoConn ~ 2825 1650
NoConn ~ 2825 1750
NoConn ~ 2825 4050
NoConn ~ 2825 2550
NoConn ~ 2825 3550
NoConn ~ 2825 1450
NoConn ~ 2825 1550
NoConn ~ 2825 3950
$Comp
L power:GND #PWR?
U 1 1 5E8A957E
P 1975 4100
AR Path="/5E84A03F/5E8A957E" Ref="#PWR?"  Part="1" 
AR Path="/5EAB9D7B/5E8A957E" Ref="#PWR?"  Part="1" 
AR Path="/5E83BCE9/5E8A957E" Ref="#PWR?"  Part="1" 
AR Path="/5EA2DD9E/5E8A957E" Ref="#PWR?"  Part="1" 
AR Path="/5EA9FEC9/5E8A957E" Ref="#PWR?"  Part="1" 
F 0 "#PWR?" H 1975 3850 50  0001 C CNN
F 1 "GND" H 1975 3950 50  0000 C CNN
F 2 "" H 1975 4100 50  0001 C CNN
F 3 "" H 1975 4100 50  0001 C CNN
	1    1975 4100
	1    0    0    -1  
$EndComp
$Comp
L power:+5V #PWR?
U 1 1 5E8BF385
P 2225 825
AR Path="/5E84A03F/5E8BF385" Ref="#PWR?"  Part="1" 
AR Path="/5EAB9D7B/5E8BF385" Ref="#PWR?"  Part="1" 
AR Path="/5E83BCE9/5E8BF385" Ref="#PWR?"  Part="1" 
AR Path="/5EA2DD9E/5E8BF385" Ref="#PWR?"  Part="1" 
AR Path="/5EA9FEC9/5E8BF385" Ref="#PWR?"  Part="1" 
F 0 "#PWR?" H 2225 675 50  0001 C CNN
F 1 "+5V" H 2240 998 50  0000 C CNN
F 2 "" H 2225 825 50  0001 C CNN
F 3 "" H 2225 825 50  0001 C CNN
	1    2225 825 
	1    0    0    -1  
$EndComp
$Comp
L power:+5V #PWR?
U 1 1 5EB2C618
P 1350 825
AR Path="/5E84A03F/5EB2C618" Ref="#PWR?"  Part="1" 
AR Path="/5EAB9D7B/5EB2C618" Ref="#PWR?"  Part="1" 
AR Path="/5E83BCE9/5EB2C618" Ref="#PWR?"  Part="1" 
AR Path="/5EA2DD9E/5EB2C618" Ref="#PWR?"  Part="1" 
AR Path="/5EA9FEC9/5EB2C618" Ref="#PWR?"  Part="1" 
F 0 "#PWR?" H 1350 675 50  0001 C CNN
F 1 "+5V" H 1365 998 50  0000 C CNN
F 2 "" H 1350 825 50  0001 C CNN
F 3 "" H 1350 825 50  0001 C CNN
	1    1350 825 
	1    0    0    -1  
$EndComp
$Comp
L power:GND #PWR?
U 1 1 5E9AC892
P 1100 4100
AR Path="/5E84A03F/5E9AC892" Ref="#PWR?"  Part="1" 
AR Path="/5EAB9D7B/5E9AC892" Ref="#PWR?"  Part="1" 
AR Path="/5E83BCE9/5E9AC892" Ref="#PWR?"  Part="1" 
AR Path="/5EA2DD9E/5E9AC892" Ref="#PWR?"  Part="1" 
AR Path="/5EA9FEC9/5E9AC892" Ref="#PWR?"  Part="1" 
F 0 "#PWR?" H 1100 3850 50  0001 C CNN
F 1 "GND" H 1100 3950 50  0000 C CNN
F 2 "" H 1100 4100 50  0001 C CNN
F 3 "" H 1100 4100 50  0001 C CNN
	1    1100 4100
	1    0    0    -1  
$EndComp
$Comp
L es65-rescue:CONN_DIN41612_32x3-my_conn P?
U 1 1 5E8910DE
P 850 2500
AR Path="/5E84A03F/5E8910DE" Ref="P?"  Part="1" 
AR Path="/5EAB9D7B/5E8910DE" Ref="P?"  Part="1" 
AR Path="/5E83BCE9/5E8910DE" Ref="P?"  Part="1" 
AR Path="/5EA2DD9E/5E8910DE" Ref="P?"  Part="1" 
AR Path="/5EA9FEC9/5E8910DE" Ref="P?"  Part="1" 
AR Path="/5E8910DE" Ref="P?"  Part="1" 
F 0 "P?" H 767 725 50  0000 C CNN
F 1 "CONN_DIN41612_32x3" H 767 816 50  0000 C CNN
F 2 "" H 850 2500 50  0000 C CNN
F 3 "" H 850 2500 50  0000 C CNN
	1    850  2500
	-1   0    0    1   
$EndComp
$Comp
L es65-rescue:CONN_DIN41612_32x3-my_conn P?
U 3 1 5EB2C60F
P 1725 2500
AR Path="/5E84A03F/5EB2C60F" Ref="P?"  Part="3" 
AR Path="/5EAB9D7B/5EB2C60F" Ref="P?"  Part="2" 
AR Path="/5E83BCE9/5EB2C60F" Ref="P?"  Part="3" 
AR Path="/5EA2DD9E/5EB2C60F" Ref="P?"  Part="3" 
AR Path="/5EA9FEC9/5EB2C60F" Ref="P?"  Part="3" 
AR Path="/5EB2C60F" Ref="P?"  Part="3" 
F 0 "P?" H 1642 725 50  0000 C CNN
F 1 "CONN_DIN41612_32x3" H 1642 816 50  0000 C CNN
F 2 "" H 1725 2500 50  0000 C CNN
F 3 "" H 1725 2500 50  0000 C CNN
	3    1725 2500
	-1   0    0    1   
$EndComp
$Comp
L es65-rescue:CONN_DIN41612_32x3-my_conn P?
U 2 1 5EB2C610
P 2625 2500
AR Path="/5E84A03F/5EB2C610" Ref="P?"  Part="2" 
AR Path="/5EAB9D7B/5EB2C610" Ref="P?"  Part="3" 
AR Path="/5E83BCE9/5EB2C610" Ref="P?"  Part="2" 
AR Path="/5EA2DD9E/5EB2C610" Ref="P?"  Part="2" 
AR Path="/5EA9FEC9/5EB2C610" Ref="P?"  Part="2" 
AR Path="/5EB2C610" Ref="P?"  Part="2" 
F 0 "P?" H 2542 725 50  0000 C CNN
F 1 "CONN_DIN41612_32x3" H 2542 816 50  0000 C CNN
F 2 "" H 2625 2500 50  0000 C CNN
F 3 "" H 2625 2500 50  0000 C CNN
	2    2625 2500
	-1   0    0    1   
$EndComp
NoConn ~ 2825 1050
NoConn ~ 2825 1150
NoConn ~ 2825 3650
NoConn ~ 2825 3750
NoConn ~ 2825 3850
Text Label 5050 1725 0    50   ~ 0
AD7
Text Label 5050 1425 0    50   ~ 0
AD4
Text Label 5050 1225 0    50   ~ 0
AD2
Text Label 5050 1125 0    50   ~ 0
AD1
Text Label 5050 1025 0    50   ~ 0
AD0
Text Label 5050 1625 0    50   ~ 0
AD6
Text Label 5050 1325 0    50   ~ 0
AD3
Text Label 5050 1525 0    50   ~ 0
AD5
Wire Wire Line
	5050 1025 5300 1025
Wire Wire Line
	5050 1125 5300 1125
Wire Wire Line
	5050 1225 5300 1225
Wire Wire Line
	5050 1325 5300 1325
Wire Wire Line
	5050 1425 5300 1425
Wire Wire Line
	5050 1525 5300 1525
Wire Wire Line
	5050 1625 5300 1625
Wire Wire Line
	5050 1725 5300 1725
Wire Wire Line
	4950 2025 5300 2025
Wire Wire Line
	5050 3225 5300 3225
Wire Wire Line
	5050 3725 5300 3725
Wire Wire Line
	5050 3425 5300 3425
Wire Wire Line
	5050 3125 5300 3125
Wire Wire Line
	5050 3625 5300 3625
Wire Wire Line
	5050 3325 5300 3325
Wire Wire Line
	5050 3025 5300 3025
Wire Wire Line
	5050 3525 5300 3525
Wire Wire Line
	5050 5725 5300 5725
Wire Wire Line
	5050 5325 5300 5325
Wire Wire Line
	5050 5025 5300 5025
Wire Wire Line
	5050 5525 5300 5525
Wire Wire Line
	5050 5225 5300 5225
Wire Wire Line
	5050 5425 5300 5425
Wire Wire Line
	5050 5125 5300 5125
Wire Wire Line
	5050 5625 5300 5625
Text Label 5050 5025 0    50   ~ 0
AA0
Text Label 5050 5725 0    50   ~ 0
AA7
Text Label 5050 3225 0    50   ~ 0
AA10
Text Label 5050 5225 0    50   ~ 0
AA2
Text Label 5050 3325 0    50   ~ 0
AA11
Text Label 5050 5625 0    50   ~ 0
AA6
Text Label 5050 3425 0    50   ~ 0
AA12
Text Label 5050 5525 0    50   ~ 0
AA5
Text Label 5050 5425 0    50   ~ 0
AA4
Text Label 5050 3125 0    50   ~ 0
AA9
Text Label 5050 5325 0    50   ~ 0
AA3
Text Label 5050 3025 0    50   ~ 0
AA8
Text Label 5050 3725 0    50   ~ 0
AA15
Text Label 5050 5125 0    50   ~ 0
AA1
Text Label 5050 3525 0    50   ~ 0
AA13
Text Label 5050 3625 0    50   ~ 0
AA14
$Comp
L power:GND #PWR?
U 1 1 5EFA4211
P 5275 4075
AR Path="/5EA2DD9E/5EFA4211" Ref="#PWR?"  Part="1" 
AR Path="/5EA9FEC9/5EFA4211" Ref="#PWR?"  Part="1" 
F 0 "#PWR?" H 5275 3825 50  0001 C CNN
F 1 "GND" H 5275 3925 50  0000 C CNN
F 2 "" H 5275 4075 50  0001 C CNN
F 3 "" H 5275 4075 50  0001 C CNN
	1    5275 4075
	1    0    0    -1  
$EndComp
Wire Wire Line
	5275 4075 5275 4025
Wire Wire Line
	5275 4025 5300 4025
$Comp
L power:GND #PWR?
U 1 1 5EFA4C21
P 5275 6075
AR Path="/5EA2DD9E/5EFA4C21" Ref="#PWR?"  Part="1" 
AR Path="/5EA9FEC9/5EFA4C21" Ref="#PWR?"  Part="1" 
F 0 "#PWR?" H 5275 5825 50  0001 C CNN
F 1 "GND" H 5275 5925 50  0000 C CNN
F 2 "" H 5275 6075 50  0001 C CNN
F 3 "" H 5275 6075 50  0001 C CNN
	1    5275 6075
	1    0    0    -1  
$EndComp
Wire Wire Line
	5275 6075 5275 6025
Wire Wire Line
	5275 6025 5300 6025
$Comp
L power:+5V #PWR?
U 1 1 5EFA8D1E
P 4900 3825
AR Path="/5EA2DD9E/5EFA8D1E" Ref="#PWR?"  Part="1" 
AR Path="/5EA9FEC9/5EFA8D1E" Ref="#PWR?"  Part="1" 
F 0 "#PWR?" H 4900 3675 50  0001 C CNN
F 1 "+5V" H 4915 3998 50  0000 C CNN
F 2 "" H 4900 3825 50  0001 C CNN
F 3 "" H 4900 3825 50  0001 C CNN
	1    4900 3825
	1    0    0    -1  
$EndComp
Wire Wire Line
	4900 3825 4900 3925
Wire Wire Line
	4900 3925 5300 3925
$Comp
L power:+5V #PWR?
U 1 1 5EB2C61D
P 4925 5800
AR Path="/5EA2DD9E/5EB2C61D" Ref="#PWR?"  Part="1" 
AR Path="/5EA9FEC9/5EB2C61D" Ref="#PWR?"  Part="1" 
F 0 "#PWR?" H 4925 5650 50  0001 C CNN
F 1 "+5V" H 4940 5973 50  0000 C CNN
F 2 "" H 4925 5800 50  0001 C CNN
F 3 "" H 4925 5800 50  0001 C CNN
	1    4925 5800
	1    0    0    -1  
$EndComp
Wire Wire Line
	4925 5800 4925 5925
Wire Wire Line
	4925 5925 5300 5925
$Comp
L 74xx:74LS30 U9
U 1 1 5EB2C61E
P 14425 5450
AR Path="/5EA2DD9E/5EB2C61E" Ref="U9"  Part="1" 
AR Path="/5EA9FEC9/5EB2C61E" Ref="U?"  Part="1" 
F 0 "U?" H 14425 5975 50  0000 C CNN
F 1 "74LS30" H 14425 5884 50  0000 C CNN
F 2 "" H 14425 5450 50  0001 C CNN
F 3 "http://www.ti.com/lit/gpn/sn74LS30" H 14425 5450 50  0001 C CNN
	1    14425 5450
	1    0    0    -1  
$EndComp
$Comp
L 74xx:74LS30 U9
U 2 1 5EFB4799
P 725 10525
AR Path="/5EA2DD9E/5EFB4799" Ref="U9"  Part="2" 
AR Path="/5EA9FEC9/5EFB4799" Ref="U?"  Part="2" 
F 0 "U?" H 955 10571 50  0000 L CNN
F 1 "74LS30" H 955 10480 50  0000 L CNN
F 2 "" H 725 10525 50  0001 C CNN
F 3 "http://www.ti.com/lit/gpn/sn74LS30" H 725 10525 50  0001 C CNN
	2    725  10525
	1    0    0    -1  
$EndComp
Connection ~ 725  9700
Wire Wire Line
	725  9700 725  9650
Wire Wire Line
	850  9700 725  9700
Wire Wire Line
	725  9700 725  10025
Wire Wire Line
	850  9725 850  9700
$Comp
L power:GND #PWR?
U 1 1 5EB2C620
P 850 9925
AR Path="/5EA2DD9E/5EB2C620" Ref="#PWR?"  Part="1" 
AR Path="/5EA9FEC9/5EB2C620" Ref="#PWR?"  Part="1" 
F 0 "#PWR?" H 850 9675 50  0001 C CNN
F 1 "GND" H 850 9775 50  0000 C CNN
F 2 "" H 850 9925 50  0001 C CNN
F 3 "" H 850 9925 50  0001 C CNN
	1    850  9925
	1    0    0    -1  
$EndComp
$Comp
L power:+5V #PWR?
U 1 1 5EB2C621
P 725 9650
AR Path="/5EA2DD9E/5EB2C621" Ref="#PWR?"  Part="1" 
AR Path="/5EA9FEC9/5EB2C621" Ref="#PWR?"  Part="1" 
F 0 "#PWR?" H 725 9500 50  0001 C CNN
F 1 "+5V" H 740 9823 50  0000 C CNN
F 2 "" H 725 9650 50  0001 C CNN
F 3 "" H 725 9650 50  0001 C CNN
	1    725  9650
	1    0    0    -1  
$EndComp
$Comp
L Device:C_Small C?
U 1 1 5EFB685D
P 850 9825
AR Path="/5EA2DD9E/5EFB685D" Ref="C?"  Part="1" 
AR Path="/5EA9FEC9/5EFB685D" Ref="C?"  Part="1" 
F 0 "C?" H 942 9871 50  0000 L CNN
F 1 "C_Small" H 942 9780 50  0000 L CNN
F 2 "" H 850 9825 50  0001 C CNN
F 3 "~" H 850 9825 50  0001 C CNN
	1    850  9825
	1    0    0    -1  
$EndComp
$Comp
L power:GND #PWR?
U 1 1 5EFB83E5
P 725 11025
AR Path="/5EA2DD9E/5EFB83E5" Ref="#PWR?"  Part="1" 
AR Path="/5EA9FEC9/5EFB83E5" Ref="#PWR?"  Part="1" 
F 0 "#PWR?" H 725 10775 50  0001 C CNN
F 1 "GND" H 725 10875 50  0000 C CNN
F 2 "" H 725 11025 50  0001 C CNN
F 3 "" H 725 11025 50  0001 C CNN
	1    725  11025
	1    0    0    -1  
$EndComp
Wire Wire Line
	12925 1975 13200 1975
Wire Wire Line
	13200 1975 13200 5650
Wire Wire Line
	13200 5650 14125 5650
Wire Wire Line
	12900 4650 13300 4650
Wire Wire Line
	13300 4650 13300 5550
Wire Wire Line
	13300 5550 14125 5550
Wire Wire Line
	14125 5350 13375 5350
Wire Wire Line
	13375 6850 12925 6850
Wire Wire Line
	13375 5350 13375 6850
Wire Wire Line
	14125 5850 13725 5850
Wire Wire Line
	13725 5850 13725 5750
Wire Wire Line
	13725 5250 14125 5250
Wire Wire Line
	13725 5250 13725 5000
Connection ~ 13725 5250
$Comp
L power:+5V #PWR?
U 1 1 5EB2C624
P 13725 5000
AR Path="/5EA2DD9E/5EB2C624" Ref="#PWR?"  Part="1" 
AR Path="/5EA9FEC9/5EB2C624" Ref="#PWR?"  Part="1" 
F 0 "#PWR?" H 13725 4850 50  0001 C CNN
F 1 "+5V" H 13740 5173 50  0000 C CNN
F 2 "" H 13725 5000 50  0001 C CNN
F 3 "" H 13725 5000 50  0001 C CNN
	1    13725 5000
	1    0    0    -1  
$EndComp
Wire Wire Line
	14125 5750 13725 5750
Connection ~ 13725 5750
Wire Wire Line
	13725 5750 13725 5250
$Comp
L 74xx:74LS00 U4
U 2 1 5EB2C626
P 15100 5450
AR Path="/5EA2DD9E/5EB2C626" Ref="U4"  Part="2" 
AR Path="/5EA9FEC9/5EB2C626" Ref="U?"  Part="2" 
F 0 "U?" H 15100 5775 50  0000 C CNN
F 1 "74LS00" H 15100 5684 50  0000 C CNN
F 2 "" H 15100 5450 50  0001 C CNN
F 3 "http://www.ti.com/lit/gpn/sn74ls00" H 15100 5450 50  0001 C CNN
	2    15100 5450
	1    0    0    -1  
$EndComp
$Comp
L 74xx:74LS00 U4
U 5 1 5EFE8846
P 1450 10525
AR Path="/5EA2DD9E/5EFE8846" Ref="U4"  Part="5" 
AR Path="/5EA9FEC9/5EFE8846" Ref="U?"  Part="5" 
F 0 "U?" H 1680 10571 50  0000 L CNN
F 1 "74LS00" H 1680 10480 50  0000 L CNN
F 2 "" H 1450 10525 50  0001 C CNN
F 3 "http://www.ti.com/lit/gpn/sn74ls00" H 1450 10525 50  0001 C CNN
	5    1450 10525
	1    0    0    -1  
$EndComp
$Comp
L power:GND #PWR?
U 1 1 5EB2C62A
P 1575 9925
AR Path="/5EA2DD9E/5EB2C62A" Ref="#PWR?"  Part="1" 
AR Path="/5EA9FEC9/5EB2C62A" Ref="#PWR?"  Part="1" 
F 0 "#PWR?" H 1575 9675 50  0001 C CNN
F 1 "GND" H 1575 9775 50  0000 C CNN
F 2 "" H 1575 9925 50  0001 C CNN
F 3 "" H 1575 9925 50  0001 C CNN
	1    1575 9925
	1    0    0    -1  
$EndComp
Wire Wire Line
	1575 9725 1575 9700
Wire Wire Line
	1575 9700 1450 9700
Wire Wire Line
	1450 9700 1450 9650
Wire Wire Line
	1450 9700 1450 10025
$Comp
L power:+5V #PWR?
U 1 1 5EFEECE3
P 1450 9650
AR Path="/5EA2DD9E/5EFEECE3" Ref="#PWR?"  Part="1" 
AR Path="/5EA9FEC9/5EFEECE3" Ref="#PWR?"  Part="1" 
F 0 "#PWR?" H 1450 9500 50  0001 C CNN
F 1 "+5V" H 1465 9823 50  0000 C CNN
F 2 "" H 1450 9650 50  0001 C CNN
F 3 "" H 1450 9650 50  0001 C CNN
	1    1450 9650
	1    0    0    -1  
$EndComp
Connection ~ 1450 9700
$Comp
L power:GND #PWR?
U 1 1 5EFEECF1
P 1450 11025
AR Path="/5EA2DD9E/5EFEECF1" Ref="#PWR?"  Part="1" 
AR Path="/5EA9FEC9/5EFEECF1" Ref="#PWR?"  Part="1" 
F 0 "#PWR?" H 1450 10775 50  0001 C CNN
F 1 "GND" H 1450 10875 50  0000 C CNN
F 2 "" H 1450 11025 50  0001 C CNN
F 3 "" H 1450 11025 50  0001 C CNN
	1    1450 11025
	1    0    0    -1  
$EndComp
$Comp
L Device:C_Small C?
U 1 1 5EB2C62D
P 1575 9825
AR Path="/5EA2DD9E/5EB2C62D" Ref="C?"  Part="1" 
AR Path="/5EA9FEC9/5EB2C62D" Ref="C?"  Part="1" 
F 0 "C?" H 1667 9871 50  0000 L CNN
F 1 "C_Small" H 1667 9780 50  0000 L CNN
F 2 "" H 1575 9825 50  0001 C CNN
F 3 "~" H 1575 9825 50  0001 C CNN
	1    1575 9825
	1    0    0    -1  
$EndComp
Wire Wire Line
	14800 5350 14775 5350
Wire Wire Line
	14775 5350 14775 5450
Wire Wire Line
	14775 5550 14800 5550
Connection ~ 14775 5450
Wire Wire Line
	14775 5450 14775 5550
Wire Wire Line
	15400 5450 15750 5450
Text Label 15750 5450 2    50   ~ 0
~CE~_DATA
Text Label 4950 2025 0    50   ~ 0
~CE~_DATA
Wire Wire Line
	2300 9700 2175 9700
Wire Wire Line
	2300 9725 2300 9700
$Comp
L power:GND #PWR?
U 1 1 5EB2C62E
P 2175 11025
AR Path="/5EA2DD9E/5EB2C62E" Ref="#PWR?"  Part="1" 
AR Path="/5EA9FEC9/5EB2C62E" Ref="#PWR?"  Part="1" 
F 0 "#PWR?" H 2175 10775 50  0001 C CNN
F 1 "GND" H 2175 10875 50  0000 C CNN
F 2 "" H 2175 11025 50  0001 C CNN
F 3 "" H 2175 11025 50  0001 C CNN
	1    2175 11025
	1    0    0    -1  
$EndComp
$Comp
L power:GND #PWR?
U 1 1 5F01AE2B
P 2300 9925
AR Path="/5EA2DD9E/5F01AE2B" Ref="#PWR?"  Part="1" 
AR Path="/5EA9FEC9/5F01AE2B" Ref="#PWR?"  Part="1" 
F 0 "#PWR?" H 2300 9675 50  0001 C CNN
F 1 "GND" H 2300 9775 50  0000 C CNN
F 2 "" H 2300 9925 50  0001 C CNN
F 3 "" H 2300 9925 50  0001 C CNN
	1    2300 9925
	1    0    0    -1  
$EndComp
Wire Wire Line
	2175 9700 2175 9650
Wire Wire Line
	2175 9700 2175 10025
Connection ~ 2175 9700
$Comp
L Device:C_Small C?
U 1 1 5F01AE3C
P 2300 9825
AR Path="/5EA2DD9E/5F01AE3C" Ref="C?"  Part="1" 
AR Path="/5EA9FEC9/5F01AE3C" Ref="C?"  Part="1" 
F 0 "C?" H 2392 9871 50  0000 L CNN
F 1 "C_Small" H 2392 9780 50  0000 L CNN
F 2 "" H 2300 9825 50  0001 C CNN
F 3 "~" H 2300 9825 50  0001 C CNN
	1    2300 9825
	1    0    0    -1  
$EndComp
$Comp
L power:+5V #PWR?
U 1 1 5F01AE49
P 2175 9650
AR Path="/5EA2DD9E/5F01AE49" Ref="#PWR?"  Part="1" 
AR Path="/5EA9FEC9/5F01AE49" Ref="#PWR?"  Part="1" 
F 0 "#PWR?" H 2175 9500 50  0001 C CNN
F 1 "+5V" H 2190 9823 50  0000 C CNN
F 2 "" H 2175 9650 50  0001 C CNN
F 3 "" H 2175 9650 50  0001 C CNN
	1    2175 9650
	1    0    0    -1  
$EndComp
Wire Wire Line
	12175 1775 12125 1775
$Comp
L Device:R_Network07 RN?
U 1 1 5EB2C606
P 5900 9875
AR Path="/5EA2DD9E/5EB2C606" Ref="RN?"  Part="1" 
AR Path="/5EA9FEC9/5EB2C606" Ref="RN?"  Part="1" 
F 0 "RN?" H 6288 9921 50  0000 L CNN
F 1 "1k" H 6288 9830 50  0000 L CNN
F 2 "Resistor_THT:R_Array_SIP8" V 6375 9875 50  0001 C CNN
F 3 "http://www.vishay.com/docs/31509/csc.pdf" H 5900 9875 50  0001 C CNN
	1    5900 9875
	1    0    0    -1  
$EndComp
Text Label 6000 10350 1    50   ~ 0
PLUP5
Wire Wire Line
	6000 10350 6000 10075
Text Label 13025 6850 0    50   ~ 0
PLUP1
Text Label 6100 10350 1    50   ~ 0
PLUP1
Wire Wire Line
	6100 10075 6100 10350
Text Label 13775 5450 0    50   ~ 0
PLUP2
Text Label 6200 10350 1    50   ~ 0
PLUP2
Wire Wire Line
	6200 10350 6200 10075
Text Label 12925 4650 0    50   ~ 0
PLUP3
Text Label 6025 11175 1    50   ~ 0
PLUP3
Text Label 12950 1975 0    50   ~ 0
PLUP4
Text Label 5175 11150 1    50   ~ 0
PLUP4
Wire Wire Line
	6025 10925 6025 11175
Wire Wire Line
	5175 10900 5175 11150
NoConn ~ 5175 10050
Wire Wire Line
	14725 5450 14775 5450
Wire Wire Line
	13775 5150 14125 5150
Text Label 4950 1925 0    50   ~ 0
~R~Wb
Wire Wire Line
	4950 1925 5300 1925
Text Notes 14975 5475 0    50   ~ 0
NAND\n
Text Notes 14300 5475 0    50   ~ 0
NAND\n
Text Label 1500 5350 0    50   ~ 0
~R~Wb
Wire Wire Line
	650  6325 900  6325
Wire Wire Line
	1500 5900 1725 5900
Text Label 1725 5900 2    50   ~ 0
~R~Wb
Wire Wire Line
	1500 5350 1650 5350
Text Label 1700 6950 2    50   ~ 0
~OE
Wire Wire Line
	1700 6950 1500 6950
Text Label 1700 6425 2    50   ~ 0
~WE
Wire Wire Line
	1700 6425 1500 6425
Text Label 625  6850 0    50   ~ 0
PH2b
Wire Wire Line
	1500 5250 1650 5250
Wire Wire Line
	1500 5150 1650 5150
Text Label 625  7050 0    50   ~ 0
R{slash}Wb
Text Label 1500 5150 0    50   ~ 0
A7
Text Notes 1075 6450 0    50   ~ 0
NAND\n
Text Notes 1075 5275 0    50   ~ 0
NAND\n
Text Notes 1850 5300 0    50   ~ 0
NAND\n
Wire Wire Line
	625  6850 900  6850
Wire Wire Line
	625  6525 900  6525
Text Notes 1075 5925 0    50   ~ 0
NAND\n
Text Label 625  6525 0    50   ~ 0
PH2b
Wire Wire Line
	1350 5450 1650 5450
Text Label 1350 5450 0    50   ~ 0
PH2b
Text Notes 1075 6975 0    50   ~ 0
NAND\n
Text Label 650  6325 0    50   ~ 0
~R~Wb
Wire Wire Line
	675  5800 850  5800
Text Label 675  5800 0    50   ~ 0
R{slash}Wb
Wire Wire Line
	625  7050 900  7050
Connection ~ 850  5800
Wire Wire Line
	575  5100 850  5100
Connection ~ 850  5100
Wire Wire Line
	850  5100 850  5200
Wire Wire Line
	900  5200 850  5200
Wire Wire Line
	850  5300 850  5400
Connection ~ 850  5200
Connection ~ 850  5300
$Comp
L 74xx:74LS20 U5
U 1 1 5EB2C611
P 1200 5250
AR Path="/5EA2DD9E/5EB2C611" Ref="U5"  Part="1" 
AR Path="/5EA9FEC9/5EB2C611" Ref="U?"  Part="1" 
F 0 "U?" H 1200 5625 50  0000 C CNN
F 1 "74LS20" H 1200 5534 50  0000 C CNN
F 2 "" H 1200 5250 50  0001 C CNN
F 3 "http://www.ti.com/lit/gpn/sn74LS20" H 1200 5250 50  0001 C CNN
	1    1200 5250
	1    0    0    -1  
$EndComp
Wire Wire Line
	850  5200 850  5300
Wire Wire Line
	900  5300 850  5300
Wire Wire Line
	900  5100 850  5100
Wire Wire Line
	850  5400 900  5400
Wire Wire Line
	850  6000 900  6000
Wire Wire Line
	850  5800 850  6000
Wire Wire Line
	900  5800 850  5800
$Comp
L 74xx:74LS00 U4
U 4 1 5EFE73AD
P 1200 6425
AR Path="/5EA2DD9E/5EFE73AD" Ref="U4"  Part="4" 
AR Path="/5EA9FEC9/5EFE73AD" Ref="U?"  Part="4" 
F 0 "U?" H 1200 6750 50  0000 C CNN
F 1 "74LS00" H 1200 6659 50  0000 C CNN
F 2 "" H 1200 6425 50  0001 C CNN
F 3 "http://www.ti.com/lit/gpn/sn74ls00" H 1200 6425 50  0001 C CNN
	4    1200 6425
	1    0    0    -1  
$EndComp
$Comp
L 74xx:74LS00 U4
U 3 1 5EB2C627
P 1200 6950
AR Path="/5EA2DD9E/5EB2C627" Ref="U4"  Part="3" 
AR Path="/5EA9FEC9/5EB2C627" Ref="U?"  Part="3" 
F 0 "U?" H 1200 7275 50  0000 C CNN
F 1 "74LS00" H 1200 7184 50  0000 C CNN
F 2 "" H 1200 6950 50  0001 C CNN
F 3 "http://www.ti.com/lit/gpn/sn74ls00" H 1200 6950 50  0001 C CNN
	3    1200 6950
	1    0    0    -1  
$EndComp
$Comp
L 74xx:74LS00 U4
U 1 1 5EFE4280
P 1200 5900
AR Path="/5EA2DD9E/5EFE4280" Ref="U4"  Part="1" 
AR Path="/5EA9FEC9/5EFE4280" Ref="U?"  Part="1" 
F 0 "U?" H 1200 6225 50  0000 C CNN
F 1 "74LS00" H 1200 6134 50  0000 C CNN
F 2 "" H 1200 5900 50  0001 C CNN
F 3 "http://www.ti.com/lit/gpn/sn74ls00" H 1200 5900 50  0001 C CNN
	1    1200 5900
	1    0    0    -1  
$EndComp
$Comp
L 74xx:74LS20 U5
U 2 1 5EB2C612
P 1950 5300
AR Path="/5EA2DD9E/5EB2C612" Ref="U5"  Part="2" 
AR Path="/5EA9FEC9/5EB2C612" Ref="U?"  Part="2" 
F 0 "U?" H 1950 5675 50  0000 C CNN
F 1 "74LS20" H 1950 5584 50  0000 C CNN
F 2 "" H 1950 5300 50  0001 C CNN
F 3 "http://www.ti.com/lit/gpn/sn74LS20" H 1950 5300 50  0001 C CNN
	2    1950 5300
	1    0    0    -1  
$EndComp
Text HLabel 4075 3275 0    50   Input ~ 0
R{slash}Wb
Wire Wire Line
	4075 3275 4375 3275
Wire Wire Line
	4075 3175 4375 3175
Text Label 4375 3175 2    50   ~ 0
PH2b
Text HLabel 4075 3175 0    50   Input ~ 0
PH2b
Text Label 4350 2875 2    50   ~ 0
AD6
Text HLabel 4050 875  0    50   Input ~ 0
AA2
Text Label 4350 1975 2    50   ~ 0
AA13
Text Label 4350 2575 2    50   ~ 0
AD3
Text Label 4350 675  2    50   ~ 0
AA0
Text Label 4350 2075 2    50   ~ 0
AA14
Text Label 4350 2675 2    50   ~ 0
AD4
Text Label 4350 1375 2    50   ~ 0
AA7
Text Label 4350 975  2    50   ~ 0
AA3
Text Label 4350 875  2    50   ~ 0
AA2
Text Label 4350 775  2    50   ~ 0
AA1
Text Label 4350 1075 2    50   ~ 0
AA4
Wire Wire Line
	4050 1375 4350 1375
Wire Wire Line
	4050 1575 4350 1575
Wire Wire Line
	4050 2075 4350 2075
Wire Wire Line
	4050 1875 4350 1875
Wire Wire Line
	4050 2175 4350 2175
Text Label 4350 1475 2    50   ~ 0
AA8
Text Label 4350 2775 2    50   ~ 0
AD5
Text Label 4350 2175 2    50   ~ 0
AA15
Wire Wire Line
	4050 775  4350 775 
Wire Wire Line
	4050 675  4350 675 
Wire Wire Line
	4050 1675 4350 1675
Wire Wire Line
	4050 1775 4350 1775
Text Label 4350 1875 2    50   ~ 0
AA12
Wire Wire Line
	4050 1975 4350 1975
Wire Wire Line
	4050 1075 4350 1075
Wire Wire Line
	4050 1475 4350 1475
Text HLabel 4050 675  0    50   Input ~ 0
AA0
Text Label 4350 2275 2    50   ~ 0
AD0
Text Label 4350 1775 2    50   ~ 0
AA11
Text Label 4350 2375 2    50   ~ 0
AD1
Wire Wire Line
	4050 1175 4350 1175
Wire Wire Line
	4050 975  4350 975 
Text Label 4350 1675 2    50   ~ 0
AA10
Wire Wire Line
	4050 2875 4350 2875
Wire Wire Line
	4050 2975 4350 2975
Text HLabel 4050 775  0    50   Input ~ 0
AA1
Wire Wire Line
	4050 2275 4350 2275
Text Label 4350 1175 2    50   ~ 0
AA5
Wire Wire Line
	4050 2675 4350 2675
Wire Wire Line
	4050 875  4350 875 
Wire Wire Line
	4050 2575 4350 2575
Wire Wire Line
	4050 2775 4350 2775
Wire Wire Line
	4050 2375 4350 2375
Wire Wire Line
	4050 2475 4350 2475
Wire Wire Line
	4050 1275 4350 1275
Text HLabel 4050 1075 0    50   Input ~ 0
AA4
Text HLabel 4050 1175 0    50   Input ~ 0
AA5
Text HLabel 4050 1275 0    50   Input ~ 0
AA6
Text HLabel 4050 2275 0    50   Input ~ 0
AD0
Text HLabel 4050 1375 0    50   Input ~ 0
AA7
Text HLabel 4050 1775 0    50   Input ~ 0
AA11
Text HLabel 4050 1675 0    50   Input ~ 0
AA10
Text HLabel 4050 1875 0    50   Input ~ 0
AA12
Text HLabel 4050 2075 0    50   Input ~ 0
AA14
Text HLabel 4050 2375 0    50   Input ~ 0
AD1
Text HLabel 4050 2175 0    50   Input ~ 0
AA15
Text HLabel 4050 1475 0    50   Input ~ 0
AA8
Text HLabel 4050 2875 0    50   Input ~ 0
AD6
Text HLabel 4050 2975 0    50   Input ~ 0
AD7
Text HLabel 4050 2775 0    50   Input ~ 0
AD5
Text Label 4350 2475 2    50   ~ 0
AD2
Text Label 4350 1575 2    50   ~ 0
AA9
Text HLabel 4050 2675 0    50   Input ~ 0
AD4
Text Label 4350 1275 2    50   ~ 0
AA6
Text Label 4350 2975 2    50   ~ 0
AD7
Text HLabel 4050 1975 0    50   Input ~ 0
AA13
Text HLabel 4050 2575 0    50   Input ~ 0
AD3
Text HLabel 4050 1575 0    50   Input ~ 0
AA9
Text HLabel 4050 975  0    50   Input ~ 0
AA3
Text HLabel 4050 2475 0    50   Input ~ 0
AD2
Wire Wire Line
	1925 2950 2225 2950
Text Label 2225 2950 2    50   ~ 0
R{slash}Wb
NoConn ~ 1925 2850
NoConn ~ 1925 2650
NoConn ~ 1925 3350
NoConn ~ 1925 3650
NoConn ~ 1925 3750
NoConn ~ 1925 3850
NoConn ~ 1925 1150
NoConn ~ 1925 1250
NoConn ~ 1925 1350
NoConn ~ 1050 2950
NoConn ~ 1050 3050
$Comp
L es65-rescue:27C16-my_ics U?
U 1 1 5EB2C614
P 7450 2075
AR Path="/5EA2DD9E/5EB2C614" Ref="U?"  Part="1" 
AR Path="/5EA9FEC9/5EB2C614" Ref="U?"  Part="1" 
F 0 "U?" H 7125 3100 50  0000 C CNN
F 1 "27C16" H 7200 3025 50  0000 C CNN
F 2 "Package_DIP:DIP-24_W15.24mm" H 7450 2075 50  0001 C CNN
F 3 "" H 7450 2075 50  0001 C CNN
	1    7450 2075
	1    0    0    -1  
$EndComp
$Comp
L es65-rescue:27C16-my_ics U?
U 1 1 5EB2C615
P 8700 2075
AR Path="/5EA2DD9E/5EB2C615" Ref="U?"  Part="1" 
AR Path="/5EA9FEC9/5EB2C615" Ref="U?"  Part="1" 
F 0 "U?" H 8400 3100 50  0000 C CNN
F 1 "27C16" H 8475 3025 50  0000 C CNN
F 2 "Package_DIP:DIP-24_W15.24mm" H 8700 2075 50  0001 C CNN
F 3 "" H 8700 2075 50  0001 C CNN
	1    8700 2075
	1    0    0    -1  
$EndComp
$Comp
L es65-rescue:27C16-my_ics U?
U 1 1 5EA45191
P 9950 2075
AR Path="/5EA2DD9E/5EA45191" Ref="U?"  Part="1" 
AR Path="/5EA9FEC9/5EA45191" Ref="U?"  Part="1" 
F 0 "U?" H 9650 3100 50  0000 C CNN
F 1 "27C16" H 9725 3025 50  0000 C CNN
F 2 "Package_DIP:DIP-24_W15.24mm" H 9950 2075 50  0001 C CNN
F 3 "" H 9950 2075 50  0001 C CNN
	1    9950 2075
	1    0    0    -1  
$EndComp
$Comp
L es65-rescue:27C16-my_ics U?
U 1 1 5EB2C617
P 11200 2075
AR Path="/5EA2DD9E/5EB2C617" Ref="U?"  Part="1" 
AR Path="/5EA9FEC9/5EB2C617" Ref="U?"  Part="1" 
F 0 "U?" H 10900 3100 50  0000 C CNN
F 1 "27C16" H 10975 3025 50  0000 C CNN
F 2 "Package_DIP:DIP-24_W15.24mm" H 11200 2075 50  0001 C CNN
F 3 "" H 11200 2075 50  0001 C CNN
	1    11200 2075
	1    0    0    -1  
$EndComp
Text Label 13775 5150 0    50   ~ 0
PLUP5
Text Label 575  5100 0    50   ~ 0
PLUP5
Text Label 4375 3275 2    50   ~ 0
~R~Wb
NoConn ~ 2250 5300
Wire Wire Line
	13775 5450 14125 5450
$Comp
L es65-rescue:TMM2016-my_ics U?
U 1 1 5EAA6C5C
P 7425 4750
F 0 "U?" H 7025 5800 50  0000 C CNN
F 1 "TMM2016" H 7150 5725 50  0000 C CNN
F 2 "Package_DIP:DIP-24_W15.24mm" H 7425 4750 50  0001 C CNN
F 3 "" H 7425 4750 50  0001 C CNN
	1    7425 4750
	1    0    0    -1  
$EndComp
$Comp
L es65-rescue:TMM2016-my_ics U?
U 1 1 5EAAB72D
P 8675 4750
F 0 "U?" H 8275 5800 50  0000 C CNN
F 1 "TMM2016" H 8400 5725 50  0000 C CNN
F 2 "Package_DIP:DIP-24_W15.24mm" H 8675 4750 50  0001 C CNN
F 3 "" H 8675 4750 50  0001 C CNN
	1    8675 4750
	1    0    0    -1  
$EndComp
$Comp
L es65-rescue:TMM2016-my_ics U?
U 1 1 5EAACEF4
P 9925 4750
F 0 "U?" H 9525 5800 50  0000 C CNN
F 1 "TMM2016" H 9650 5725 50  0000 C CNN
F 2 "Package_DIP:DIP-24_W15.24mm" H 9925 4750 50  0001 C CNN
F 3 "" H 9925 4750 50  0001 C CNN
	1    9925 4750
	1    0    0    -1  
$EndComp
$Comp
L es65-rescue:TMM2016-my_ics U?
U 1 1 5EAB0BC9
P 11175 4750
F 0 "U?" H 10775 5800 50  0000 C CNN
F 1 "TMM2016" H 10900 5725 50  0000 C CNN
F 2 "Package_DIP:DIP-24_W15.24mm" H 11175 4750 50  0001 C CNN
F 3 "" H 11175 4750 50  0001 C CNN
	1    11175 4750
	1    0    0    -1  
$EndComp
$Comp
L es65-rescue:TMM2016-my_ics U?
U 1 1 5EAB3890
P 7400 7425
F 0 "U?" H 7000 8475 50  0000 C CNN
F 1 "TMM2016" H 7125 8400 50  0000 C CNN
F 2 "Package_DIP:DIP-24_W15.24mm" H 7400 7425 50  0001 C CNN
F 3 "" H 7400 7425 50  0001 C CNN
	1    7400 7425
	1    0    0    -1  
$EndComp
$Comp
L es65-rescue:TMM2016-my_ics U?
U 1 1 5EAB7BE3
P 8650 7425
F 0 "U?" H 8250 8475 50  0000 C CNN
F 1 "TMM2016" H 8375 8400 50  0000 C CNN
F 2 "Package_DIP:DIP-24_W15.24mm" H 8650 7425 50  0001 C CNN
F 3 "" H 8650 7425 50  0001 C CNN
	1    8650 7425
	1    0    0    -1  
$EndComp
$Comp
L es65-rescue:TMM2016-my_ics U?
U 1 1 5EABAF46
P 9900 7425
F 0 "U?" H 9500 8475 50  0000 C CNN
F 1 "TMM2016" H 9625 8400 50  0000 C CNN
F 2 "Package_DIP:DIP-24_W15.24mm" H 9900 7425 50  0001 C CNN
F 3 "" H 9900 7425 50  0001 C CNN
	1    9900 7425
	1    0    0    -1  
$EndComp
NoConn ~ 2825 3150
NoConn ~ 2825 3250
NoConn ~ 2825 3350
NoConn ~ 2825 3450
$Comp
L power:GND #PWR?
U 1 1 5EACA319
P 12125 1825
AR Path="/5EA2DD9E/5EACA319" Ref="#PWR?"  Part="1" 
AR Path="/5EA9FEC9/5EACA319" Ref="#PWR?"  Part="1" 
F 0 "#PWR?" H 12125 1575 50  0001 C CNN
F 1 "GND" H 12125 1675 50  0000 C CNN
F 2 "" H 12125 1825 50  0001 C CNN
F 3 "" H 12125 1825 50  0001 C CNN
	1    12125 1825
	1    0    0    -1  
$EndComp
Wire Wire Line
	12125 1825 12125 1775
$Comp
L power:GND #PWR?
U 1 1 5EACAADA
P 12100 4500
AR Path="/5EA2DD9E/5EACAADA" Ref="#PWR?"  Part="1" 
AR Path="/5EA9FEC9/5EACAADA" Ref="#PWR?"  Part="1" 
F 0 "#PWR?" H 12100 4250 50  0001 C CNN
F 1 "GND" H 12100 4350 50  0000 C CNN
F 2 "" H 12100 4500 50  0001 C CNN
F 3 "" H 12100 4500 50  0001 C CNN
	1    12100 4500
	1    0    0    -1  
$EndComp
Wire Wire Line
	12100 4500 12100 4450
Wire Wire Line
	12150 4450 12100 4450
$Comp
L power:GND #PWR?
U 1 1 5EACBABA
P 12125 6700
AR Path="/5EA2DD9E/5EACBABA" Ref="#PWR?"  Part="1" 
AR Path="/5EA9FEC9/5EACBABA" Ref="#PWR?"  Part="1" 
F 0 "#PWR?" H 12125 6450 50  0001 C CNN
F 1 "GND" H 12125 6550 50  0000 C CNN
F 2 "" H 12125 6700 50  0001 C CNN
F 3 "" H 12125 6700 50  0001 C CNN
	1    12125 6700
	1    0    0    -1  
$EndComp
Wire Wire Line
	12125 6700 12125 6650
Wire Wire Line
	12175 6650 12125 6650
NoConn ~ 12925 6450
NoConn ~ 5075 10050
NoConn ~ 5600 10075
NoConn ~ 5700 10075
NoConn ~ 5800 10075
NoConn ~ 5900 10075
NoConn ~ 1925 3950
Text Notes 13700 1825 0    50   ~ 0
Inhalt des Decoder PROMs (6131):\nAufschrift: 8xxx/9xxx\n0x10: 7e\n0x11: 7d\n0x12: 7b\n0x13: 77\nsonst alles 0xff
Text Notes 13800 4475 0    50   ~ 0
Inhalt des Decoder PROMs (6131):\nAufschrift: Cxxx/Dxxx\n0x18: 7e\n0x19: 7d\n0x1a: 7b\n0x1b: 77\nsonst alles 0xff
Text Notes 13800 6800 0    50   ~ 0
Inhalt des Decoder PROMs (6131):\nAufschrift: Exxx/F0/F7\n0x1c: 7e\n0x1d: 7d\n0x1e: 7b\n0x1f: FF\nsonst alles 0xff
Text Label 11975 1675 0    50   ~ 0
A15
Text Label 11975 1575 0    50   ~ 0
A14
Text Label 11975 1475 0    50   ~ 0
A13
Text Label 11975 1275 0    50   ~ 0
A11
Text Label 11975 1375 0    50   ~ 0
A12
Text Label 11950 4350 0    50   ~ 0
A15
Text Label 11950 4250 0    50   ~ 0
A14
Text Label 11950 4150 0    50   ~ 0
A13
Text Label 11950 3950 0    50   ~ 0
A11
Text Label 11950 4050 0    50   ~ 0
A12
Text Label 11975 6550 0    50   ~ 0
A15
Text Label 11975 6450 0    50   ~ 0
A14
Text Label 11975 6350 0    50   ~ 0
A13
Text Label 11975 6150 0    50   ~ 0
A11
Text Label 11975 6250 0    50   ~ 0
A12
Text Notes 7425 2150 0    50   ~ 0
0x8000
Text Notes 8675 2150 0    50   ~ 0
0x8800
Text Notes 9900 2175 0    50   ~ 0
0x9000
Text Notes 11175 2150 0    50   ~ 0
0x9800
Text Notes 7375 4825 0    50   ~ 0
0xC000
Text Notes 8625 4850 0    50   ~ 0
0xC800
Text Notes 9875 4875 0    50   ~ 0
0xD000
Text Notes 11125 4850 0    50   ~ 0
0xD800
Text Notes 7325 7550 0    50   ~ 0
0xE000
Text Notes 8575 7525 0    50   ~ 0
0xE800
Text Notes 9850 7500 0    50   ~ 0
0xF000
NoConn ~ 10800 2425
NoConn ~ 9550 2425
NoConn ~ 8300 2425
NoConn ~ 7050 2425
$EndSCHEMATC
