.TI B A S I C - LADER UND ANSCHLUSSTEIL
;*************************************
;**                                 **
;**        B  A  S  I  C            **
;**                                 **
;*************************************
;
.MO BASIC
;
.SC
YBUF
YSVC
YFCB
YLCB
YTMO
@INIT
.SS
;
SEV .MD
BIT SETV
.ME
;
;++++++ Z E R O - P A G E
;
.SG Z,$E0
H1 .DS 1
H1I .DS 1;FUER INPUT-CMD
H2 .DS 2
;
.PG
;++++++ P R O G R A M M
;
.SG P,$800
START JMP BASIC
;
FILE .BY 'M.BASIC                         '
AADR .AD $2000
SETV .BY $40
;
SP/ENDE .DS 2;MOM. SPEICHERENDE
LCB .DS LCLNG
TMBER .EQ LCB
FCB .EQ LCB
;
;
BASIC .EQ *
PHA;LAUFW# SICHERN
;...... SPEICHER ANFORDERN
SVC TMODE+$80
.AD TMBER
@IF (LESS)
 LDA TMBER+TMMEMY
 CMP #$60
 @THEN
 SVC REQM
 BVC *+4
 SVC TERM;--->
 @END
;...... LCB VORBEREITEN
@CYCLE (X,0,,LCLNG,)
 LDA #0
 STA LCB,X
 @END
LDA #$FF
STA LCB+FCVERN
STA LCB+FCVERN+1
LDA #$03;$FLOPPY
STA LCB+FCHAND
PLA
STA LCB+FCDRIV
@CYCLE (X,0,,32,)
 LDA FILE,X
 STA LCB+FCNAME,X
 @END
LDA #$30;M-DATEI
STA LCB+FCRTYP
LDA #$FF
STA LCB+LCBAS
LDA AADR
LDY AADR+1;ANFANGSADRESSE
STA LCB+LCBAS+1
STY LCB+LCBAS+2
;...... LADEN + START
SVC LOAD+$80
.AD LCB
BVC *+4
SVC TERM;--->
LDA #<E/P/SEG
LDY #>E/P/SEG
STA SP/ENDE
STY SP/ENDE+1;MOM. SPEICHERENDE
JMP INIT
.PG
;++++++ ANSCHLUSSPROGRAMME
;
;++++++ PARAMETERLISTE
;
P/L .EQ *
.AD $5000;ANF PROG.BER.
.AD $5FFF;END PROG.BER.
.AD IN
.AD OUT
.AD ESC
.AD USR/ADS
;
USR/ADS .DS 10+10;A(US0..USR9)
;
;
;
;++++++ I N I T
;
INIT .EQ *
;...... INIT DATENBEREICHE
LDA #VBFINH
STA BUFIN+VBFLZ
STA BUFIN+VBFSZ
LDA #VBFINH+1+79
STA BUFOUT+VBFLNG
@CYCLE (X,0,,10+10,)
 LDA #0
 STA USR/ADS,X
 @END
;...... PROGRAMMMELDUNG
SVC SETADO+$80
.AD BUFOUT
SVC OUTJUS
SVC OUTEX1
.BY "   es65-BASIC VERS.B.6.5 ON "
SVC OUTDAT
SVC OUTEX1
.BY " AT "
SVC OUTTIM
@PASS (ZOUT)
;...... P/L UEBERGEBEN
LDA #<P/L
LDY #>P/L
JMP ($4FFE) ;IN BASIC
;
;
;
;++++++ E S C A P E   PRUEFEN
;
ESC .EQ *
@IF (ERROR)
 SVC ESCCK
 @THEN
 LDA #$7F
 @ELSE
 LDA #$00
 @END
RTS
;
;
;
;++++++ A U S G A B E
;
SOC .AD BUFOUT
.AD 0
.AD 0
;
BUFOUT .DS VBFINH+1+79
;
OUT .EQ *
@IF (EQUAL)
 CMP #$0D
 @THEN
 @PASS (ZOUT)
 @ELSE
 LDX BUFOUT+VBFSZ
 STA BUFOUT,X
 @IF (LESS)
  CPX BUFOUT+VBFLNG
  @THEN
  INC BUFOUT+VBFSZ
  @END
 @END
RTS
;
ZOUT .EQ *
LDA #'1
STA BUFOUT+VBFINH
LDX #WRITE
SVC SYSOUT+$80
.AD SOC
BVC *+4
SVC TERM;--->
LDA #VBFINH+1
STA BUFOUT+VBFSZ
RTS
;
;
;
;++++++ E I N G A B E
;
SIC .AD BUFIN
.AD BUFOUT
;
BUFIN .DS VBFINH+71
;
CMDS .EQ *
.BY 'S:',$FE,$FF
.BY 'BYE',$FE,$FF
.BY 'SAVE',$FE,$FF
.BY 'LOAD',$FE,$FF
.BY 'INIT',$FE,$FF
.BY $FF
CMDA .AD C/SYS
.AD C/BYE
.AD C/SAVE
.AD C/LOAD
.AD C/INIT
;
ERRTEX .EQ *
.BY $40,"EMPTY"
.BY $41,"NOT EMPTY (USE 'NEW')"
.BY $FF
;
IN .EQ *
@IF (NOTEQUAL)
 CMP #0
 @THEN
 LDA #%01000000
 @END
STA :H1I;0=INPUT
LDA #0
PHA
@WHILE (ZERO)
 PLA
 @DO
 CLD
 SEC
 LDA #VBFINH+VBFINH+1+79
 SBC BUFOUT+VBFSZ
 CMP #VBFINH+71
 BCC *+4
 LDA #VBFINH+71;MAXIMAL 71
 STA BUFIN+VBFLNG
 LDX #READW
 SVC SYSIN+$80
 .AD SIC
 BVC *+4
 SVC TERM;--->
 SVC SETADI+$80
 .AD BUFIN
 LDA :H1I
 SVC INJUS
 SVC INUPC
 @IF (NOTZERO)
  LDA :H1I
  @AND (NOERROR)
  SVC INTEX+$80
  .AD CMDS
  @THEN
  ASL A
  TAX
  LDA CMDA,X
  STA :H2
  LDA CMDA+1,X
  STA :H2+1
  @PASS (CMDUP)
  @IF (ERROR)
   @THEN
   TAX
   SVC SETADO+$80
   .AD BUFIN
   LDA #VBFINH+71
   STA BUFIN+VBFLNG
   SVC OUTJUS
   SVC OUTSPA
   SVC OUTERR+$80
   .AD ERRTEX
   LDX #WRITE
   SVC SYSOUT+$80
   .AD SIC
   BVC *+4
   SVC TERM;--->
   @END
  LDA #0
  PHA
  @ELSE
  SVC INLOC
  LDX #0
  @WHILE (NOERROR)
   SVC INCH
   @DO
   STA :$1B,X
   INX
   @END
  LDA #$00
  STA :$1B,X
  LDA #VBFINH+1
  STA BUFOUT+VBFSZ
  LDA #$FF
  PHA
  @END
 @END
RTS
;
CMDUP JMP (H2);JSR (H2)
;
.PG
;++++++  S Y S    +   E N D
;
C/SYS .EQ *
SVC CMD
RTS
;
;
;
C/BYE .EQ *
@IF (ERROR)
 SVC INEND
 @THEN
 LDA #$A1
 SEV
 @ELSE
 @IF (NOTZERO)
  LDY #1
  LDA ($78),Y
  @THEN
  LDA #$41;NOT EMPTY
  SEV
  @ELSE
  LDA #$01
  SVC TERM;--->
  @END
 @END
RTS
;
;
;
;
BLUEB .EQ *
@WHILE (NOERROR)
 @DO
 LDA #$20
 SVC INCK
 @END
RTS
;
.PG
;++++++  S A V E
;
C/SAVE .EQ *
@IF (ZERO)
 LDY #1
 LDA ($78),Y
 @THEN
 LDA #$40
 SEV
 @ELSE
@CYCLE (X,0,,FCLNG,)
 LDA #0
 STA FCB,X
 @END
@IF (ERROR)
 LDA #$20
 SVC INCK
 @OR (ERROR)
 @PASS (BLUEB)
 LDA #'B
 STA FCB+FCNAME
 LDA #'A
 STA FCB+FCNAME+1
 LDA #'S
 STA FCB+FCNAME+2
 LDX #$02
 SVC INFILE+$80
 .AD FCB
 @OR (ERROR)
 SVC INEND
 @OR (NOTEQUAL)
 LDA FCB+FCHAND
 CMP #$03
 @THEN
 LDA #$A1
 SEV
 @ELSE
 LDA #$50;TYP=BASIC
 STA FCB+FCFTYP
 LDA #<BUFIN
 LDY #>BUFIN
 STA FCB+FCAREC
 STY FCB+FCAREC+1
 SVC SETADO+$80
 .AD BUFIN
 LDA #VBFINH+72
 STA BUFIN+VBFLNG
 @IF (NOERROR)
  LDX #$02
  SVC OPEN+$80
  .AD FCB
  @THEN
  @PASS (SAVEN)
  @IF (ERROR)
   @THEN
   PHA
   SVC CLOSE+$80
   .AD FCB
   PLA
   SEV
   @ELSE
   SVC CLOSE+$80
   .AD FCB
   @END
  @END
 @END
@END
RTS
;
;
SAVEN .EQ *
LDA :$78
LDY :$79;ANF(PROGRAMM)
STA :H2
STY :H2+1
CLV
@WHILE (NOERROR)
 @AND (NOTZERO)
 LDY #1
 LDA (H2),Y
 @DO
 SVC OUTJUS
 LDX #1
 LDY #2
 LDA (H2),Y
 SVC OUTCHM
 INY
 LDA (H2),Y
 SVC OUTCHM
 @WHILE (NOTZERO)
  INY
  LDA (H2),Y
  @DO
  SVC OUTCHM
  @END
 SEC ;+1
 CLD
 TYA
 ADC :H2
 STA :H2
 LDA :H2+1
 ADC #$00
 STA :H2+1
 SVC WRITE+$80
 .AD FCB
 BVS *+4
 SVC WAIT
 @END
RTS
;
.PG
;++++++  L O A D
;
C/LOAD .EQ *
@IF (NOTEQUAL)
 LDA :$7A
 CMP :$7E
 @OR (NOTEQUAL)
 LDA :$79
 CMP :$7F
 @OR (NOTZERO)
 LDY #1
 LDA ($78),Y
 @THEN
 LDA #$41;NOT EMPTY
 SEV
 @ELSE
@CYCLE (X,0,,FCLNG,)
 LDA #0
 STA FCB,X
 @END
@IF (ERROR)
 LDA #$20
 SVC INCK
 @OR (ERROR)
 @PASS (BLUEB)
 LDA #'B
 STA FCB+FCNAME
 LDA #'A
 STA FCB+FCNAME+1
 LDA #'S
 STA FCB+FCNAME+2
 LDX #$01
 SVC INFILE+$80
 .AD FCB
 @OR (ERROR)
 SVC INEND
 @OR (NOTEQUAL)
 LDA FCB+FCHAND
 CMP #$03
 @THEN
 LDA #$A1
 SEV
 @ELSE
 LDA #$50;TYP=BASIC
 STA FCB+FCRTYP
 LDA #<BUFIN
 LDY #>BUFIN
 STA FCB+FCAREC
 STY FCB+FCAREC+1
 LDA #VBFINH+72
 STA BUFIN+VBFLNG
 @IF (NOERROR)
  LDX #$01
  SVC OPEN+$80
  .AD FCB
  @THEN
  @PASS (LOADEN)
  @IF (ERROR)
   @THEN
   PHA
   SVC CLOSE+$80
   .AD FCB
   PLA
   SEV
   @ELSE
   SVC CLOSE+$80
   .AD FCB
   @END
  @END
 @END
@END
RTS
;
;
LOADEN .EQ *
LDA :$78
LDY :$79;ANF(PROGRAMM)
STA :H2
STY :H2+1
@WHILE (NOERROR)
 SVC READ+$80
 .AD FCB
 BVS *+4
 SVC WAIT
 @AND (NOTEQUAL)
 LDA BUFIN+VBFSZ
 CMP #VBFINH;EOF?
 @DO
 LDY #2
 LDX #VBFINH
 @WHILE (LESS)
  CPX BUFIN+VBFSZ
  @DO
  LDA BUFIN,X
  STA (H2),Y
  INY
  INX
  @END
 LDA #0
 STA (H2),Y
 SEC ;+1
 CLD
 TYA
 LDY #0
 ADC :H2
 STA (H2),Y
 TAX
 LDA :H2+1
 ADC #$00
 INY
 STA (H2),Y
 STA :H2+1
 STX :H2
 @END
@IF (NOERROR)
@THEN
 CLC
 CLD
 LDA :H2
 ADC #2
 STA :$7A
 STA :$7C
 STA :$7E
 LDA :H2+1
 ADC #0
 STA :$7B
 STA :$7D
 STA :$7F
 @ELSE
 PHA
 LDY #0
 LDA #0
 STA (H2),Y
 INY
 STA (H2),Y
 PLA
 SEV
 @END
RTS
;
.PG
;++++++  I N I T
;
INIT/SPEND .EQ $1FFF;!!!!
;
INIT/TX1 .BY 'O.BAS.'
;
;
C/INIT .EQ *
@IF (ERROR)
 LDA #$20
 SVC INCK
 @OR (ERROR)
 @PASS (BLUEB)
 LDX #%10000001
 SVC INLOAD+$80
 .AD LCB
 @OR (ERROR)
 SVC INEND
 @THEN
 LDA #$A1
 SEV
 @ELSE
 LDX #32
 @WHILE (PLUS)
  DEX
  @DO
  LDA LCB+FCNAME-4,X
  STA LCB+FCNAME,X
  @END
 @CYCLE (X,0,,6,)
  LDA INIT/TX1,X;'O.BAS.'
  STA LCB+FCNAME,X
  @END
 @IF (EQUAL)
  LDA LCB+FCNAME+6
  CMP #'U
  @AND (EQUAL)
  LDA LCB+FCNAME+7
  CMP #'S
  @AND (EQUAL)
  LDA LCB+FCNAME+8
  CMP #'R
  @THEN
  @IF (LESS)
   LDA LCB+FCNAME+9
   CMP #'0
   @OR (GREATEQU)
   CMP #$3A
   @THEN
   LDA #$A1
   SEV
   @ELSE
   AND #$0F
   ASL A
   STA :H1
   LDA SP/ENDE
   LDY SP/ENDE+1
   STA :H2
   STY :H2+1;SICHERN FUER NACH LOAD
   @PASS (INITEN)
   @IF (NOERROR)
    @THEN
    LDX :H1
    LDA :H2
    STA USR/ADS,X
    LDA :H2+1
    STA USR/ADS+1,X
    CLV
    @END
   @END
  @ELSE
  LDA #$55
  SEV ;;;;;;;;;;;;;;
  @END
 @END
RTS
;
;
INITEN .EQ *
LDX #$FF
LDA SP/ENDE
LDY SP/ENDE+1
STX LCB+LCSEG+6;P-SEG
STA LCB+LCSEG+7
STY LCB+LCSEG+8
STX LCB+LCMEM
STA LCB+LCMEM+1
STY LCB+LCMEM+2
LDA #<INIT/SPEND
LDY #>INIT/SPEND
STA LCB+LCMEM+3
STY LCB+LCMEM+4
SVC LOAD+$80
.AD LCB
@IF (NOERROR)
 @THEN
 LDA LCB+LCSEG+7
 LDY LCB+LCSEG+8
 STA SP/ENDE
 STY SP/ENDE+1
 @END
RTS
;
;
;
E/P/SEG .EQ *
.EN START
