0402 0032X8 0 TI.74188A, 18SA030(54/74S188), 18S030(54/74S288)
0502 0032X8 1 HARRIS 7602, 7603
0802 0032X8 0 NS.54/74S188, 54/74S288
1002 0032X8 0 SIGN.82S23, 82S123
1602 0032X8 0 AMD.27S18/29750A, 27S19/29751A
2902 0032X8 1 MMI.5330/6330, 5331/6331
0101 0256X4 1 FC.93417, 93427
0301 0256X4 1 TI.14SA10(54/74S387), 14S10(54/74S287)
0501 0256X4 1 HAR.7610, 7611
0801 0256X4 0 NS.54/74S387, 54/74S287
1001 0256X4 0 SIG.82S126, 82S129
1101 0256X4 1 MMI.5300/6300, 5301/6301, RAY.29660/62, 29661/63
1301 0256X4 1 TI.24S10, 24SA10
1601 0256X4 0 AMD.27S20/29760A, 27S21/29761A
1801 0256X4 0 MMI.63S/63LS/63PS140, 63S/63LS/63PS141
0408 0256X8 0 TI.18SA22(54/74S470), 18S22(54/74S471)
0543 0256X8 ? HAR.7629
1108 0256X8 1 MMI.5308/6308, 5309/6309, RAY.29600/02, 29601/03
1114 0256X8 1 MMI.5335/6335, 5336/6336
0103 0512X4 1 FC.93436, 93446
0503 0512X4 1 HAR.7620, 7621, MOT.7620, 7621
0803 0512X4 0 NS.54/74S570, 54/74S571
1003 0512X4 0 SIGN.82S130, 82S131
1103 0512X4 1 MMI.5305/6305, 5306/6306, RAY.29610/12, 29611/13
1603 0512X4 0 AMD.27S12/29770, 27S13/29771
1803 0512X4 0 MMI.63S/63LS/63PS240, 63S/63LS/63PS241
0115 0512X8 1 FC.93438, 93448
0409 0512X8 0 TI.18SA42(54/74S473), 18S42(54/74S472)
0415 0512X8 0 TI.18SA46(54/74S475), 18S46(54/74S474)
0509 0512X8 1 HARRIS 7648, 7649
0515 0512X8 1 HAR.7640, 7641, MOT.7640, 7641
0809 0512X8 0 NS.54/74S473, 54/74S472
0815 0512X8 0 NS.74S475/77/87S295, 74S474/77/87S296
1009 0512X8 0 SIGN. 82S146, 82S147
1015 0512X8 0 SIGN. 82S140, 82S141
1109 0512X8 1 MMI.5348/6348, 5349/6349, RAY.29620/22, 29621/23
1115 0512X8 1 MMI.5340/6340, 5341/6341, RAY.29624/26, 29625/27
1309 0512X8 1 TI.28S42, 28L42, 28P42
1609 0512X8 0 AMD.27S28, 27S29
1636 0512X8 0 AMD.27S30, 27S31
1809 0512X8 0 MMI.63S/63LS/63PS480, 63S/63LS/63PS481
2126 0512X8 1 INTEL 2704/8704, TOSHIBA 321
0105 1024X4 1 FC.93452, 93453
0504 1024X4 1 HARRIS 7644
0505 1024X4 1 HAR.7642, 7643, MOT.7642, 7643
0805 1024X4 0 NS.54/74S572, 54/74S573
0834 1024X4 0 NS.54/74S574
1005 1024X4 0 SIGN.82S136, 82S137
1105 1024X4 1 MMI.5352/6352, 5353/6353, RAY.29640/42, 29641/43
1338 1024X4 1 TI.24SA41(54/74S477), 24S41(54/74S476)
1638 1024X4 0 AMD.27S32, 27S33
1805 1024X4 0 MMI.63S/63LS/63PS440, 63S/63LS/63PS441
1807 1024X4 0 MMI.63RS/63RA441
0116 1024X8 1 FC.93450/936450, 93451/936450, 93460, 93461
0516 1024X8 1 HAR.7608, 7680, 7681, MOT.7680, 7681
0816 1024X8 0 NS.87S180, 87S181
1016 1024X8 0 SIG.82S/LS180, 82S/LS181, 82S182, 82S183, 82S2708
1116 1024X8 1 MMI.5380/6380, 5381/6381, RAY.29630-29637
1316 1024X8 1 TI.28SA86, 28S86, 28L86, 28S2708
1637 1024X8 0 AMD.27S180, 27S181
1922 1024X8 1 INTEL 2758, TI.2508
2127 1024X8 1 2708, FUJ.8518, I.8708, MIT.58732S, MOT.68708, TOS.322
0506 2048X4 1 HAR.7684, 7685, MOT.7684, 7685
0510 2048X4 1 HAR.7686, 7687
0806 2048X4 0 NS.87S184, 87S185
1006 2048X4 0 SIGN.82S184, 82S185
1106 2048X4 1 RAY.29650/52, 29651/53
1306 2048X4 1 TI.24S81(74S454), 24SA81(74S455)
1606 2048X4 0 AMD.27S184, 27S185
1811 2048X4 0 MMI.63RA/63RS841
0521 2048X8 1 HAR.76160, 76161
0542 2048X8 1 HAR.7616
0821 2048X8 0 NS.87S190, 87S191
1021 2048X8 0 SIGN.82S190, 82S191
1121 2048X8 1 RAY.29680/82, 29681/83
1321 2048X8 1 TI.28S166, 28L166
1923 2048X8 1 2516, 2716, AMD.4716, FUJ.8516, HIT.462716, TOSH.323
2328 2048X8 1 MOT.TMS2716, TI.2716
1924 4096X8 1 2732
1925 4096X8 1 2532
2724 4096X8 1 INTEL 2732A
3130 8192X8 1 TI. 2564
