2126 0512X8 1 INTEL 2704/8704, TOSHIBA 321
1922 1024X8 1 TEXAS INSTRUMENTS 2508, INTEL 2758, NAT.SEM.2758A
2127 1024X8 1 2708, FUJ.8518, MITS.58732S, M.68708, TOSH.322
1923 2048X8 1 2716, 2516, AMD 4716, FUJ.8516, HIT.462716, TOSH.323
2328 2048X8 1 MOTOROLA TMS2716, TEX.INSTR. 2716
3323 2048X8 1 HITACHI 48016
1924 4096X8 1 2732, HITACHI 462732
1925 4096X8 1 2532, HITACHI 462532
2544 4096X8 1 MOTOROLA 68732-0
2545 4096X8 1 MOTOROLA 68732-1
2724 4096X8 1 INTEL 2732A
2529 8192X8 1 MOTOROLA 68764
3130 8192X8 1 2564
3533 8192X8 1 INTEL 2764
