REM BEZINABRECHNUNG
INPUT "  FUER WEN ";NAME$
"SUCHEN":READ N$
IF N$ <> NAME$ THEN GOTO "SUCHEN"
READ AKM1 : AKM=AKM1
PRINT
"SCHLEIFE":READ DAT$,LT,OES,KM
IF LT=0 THEN GOTO "ENDE"
IGN=0
IF LT<0 THEN IGN=1 : LT=-LT
IF OES <> 0 THEN GOTO "OESOK"
OES=PREIS*LT
"OESOK":REM
PREIS=OES/LT
STRECKE=KM-AKM
VERBRAUCH=(INT(LT/STRECKE*10000)/100)
PRINT "  ";DAT$;" ";
PRINT LT,OES,KM,STRECKE,VERBRAUCH
AKM=KM
GOSUB "MONAT"
IF IGN=1 THEN GOTO "NDS1"
SKM=SKM+STRECKE
SLT=SLT+LT
"NDS1":REM
GOTO "SCHLEIFE"
"MONAT":M$=RIGHT$(DAT$,4)
IF M$ = MV$ THEN GOTO "MONATENDE"
IF MV$ = "" THEN GOTO "MONA1"
GOSUB "M1"
"MONA1":MV$=M$
MKM=0
MLT=0
MOES=0
"MONATENDE":MKM=MKM+STRECKE
MLT=MLT+LT
MOES=MOES+OES
RETURN
"M1":PRINT
MVB=(INT(MLT*10000/MKM)/100)
PRINT "  MONAT ";MV$;" ";MKM;" ";MVB;" ";MOES
PRINT
RETURN
"ENDE":REM SCHLUSS
GOSUB "M1"
SVB=(INT(SLT/SKM*10000)/100)
PRINT "  GESAMT     ";SKM,SVB
END
DATA BF,27636
DATA 160783,52,550,28017
DATA 170783,24,265,28311
DATA 190783,54,590,28599
DATA 260783,57,600,29001
DATA 290783,56,600,29391
DATA 010883,57,610,29783
DATA 050883,56,600,30187
DATA 110883,49,520,30536
DATA 150883,50,533,30890
DATA 180883,45,490,31256
DATA 230883,57,617,31658
DATA 270883,59,642,32060
DATA 290883,55,596,32452
DATA 010983,56,612,32862
DATA 030983,22,240,33012
DATA 030983,50,555,33370
DATA 080983,51,556,33752
DATA 100983,30,000,34105
DATA 100983,30,000,34286
DATA 160983,30,000,34531
DATA 160983,30,000,34789
DATA 160983,47,520,34976
DATA 170983,45,485,35378
DATA 210983,42,468,35661
DATA 270983,54,590,36069
DATA 300983,47,510,36408
DATA 061083,51,560,36811
DATA 121083,54,582,37191
DATA 151083,50,540,37545
DATA 201083,55,590,37986
DATA 251083,55,595,38436
DATA 311083,52,560,38803
DATA 041183,57,610,39226
DATA 091183,47,510,39583
DATA 121183,55,610,39994
DATA 161183,57,630,40381
DATA 221183,52,553,40748
DATA 281183,49,530,41123
DATA 021283,51,570,41480
DATA 061283,52,590,41870
DATA 091283,50,570,42230
DATA 111283,52,590,42623
DATA 121283,48,530,43023
DATA 151283,55,600,43379
DATA 221283,52,570,43760
DATA 261283,52,580,44119
DATA 301283,55,600,44499
DATA 040184,52,580,44838
DATA 070184,38,425,45102
DATA 070184,50,580,45410
DATA 140184,52,600,45807
DATA 180184,55,620,46211
DATA 210184,52,590,46590
DATA 250184,53,590,46977
DATA 300184,46,520,47314
DATA 010284,42,470,47616
DATA 050284,46,525,47980
DATA 090284,09,100,48307
DATA 140284,57,640,48477
DATA 160284,49,545,48840
DATA 200284,42,465,49106
DATA 230284,46,510,49425
DATA 280284,52,590,49838
DATA 050384,48,535,50183
DATA 060384,26,290,50371
DATA 090384,52,580,50732
DATA 130384,45,510,51044
DATA 190384,58,652,51431
DATA 240384,56,640,51806
DATA 290384,39,430,52086
DATA 300384,33,370,52332
DATA 020484,28,300,52538
DATA 060484,38,420,52796
DATA 090484,27,292,52998
DATA 110484,48,525,53337
DATA 150484,50,560,53695
DATA 200484,56,610,54061
DATA 220484,42,455,54429
DATA 260484,46,502,54819
DATA 270484,45,000,55143
DATA 270484,58,000,55449
DATA 280484,46,000,55753
DATA 010584,45,000,56033
DATA 010584,28,000,56322
DATA 010584,47,530,56510
DATA 030584,48,530,56862
DATA 070584,51,550,57281
DATA 140584,54,590,57702
DATA 180584,57,616,58128
DATA 230584,-46,495,58485
DATA 270584,53,600,58865
DATA 300584,56,610,59304
DATA 000000,00,000,00000
