 
/ E PROG
  es65-PROG VERS.E.6 ON 1981-07-14 AT 17:13:37
  DATA I/O PROGRAMMER 20A
  CONFIGURATION NUMBER 6EA3
  PLEASE SELECT PROM-TYPE
? PROM=2516
  PROM SELECTED
     SIZE    PROM   PINOUT
  2048 X 8   2516    1923
  *=0000-07FF
* DIS 0-
  0000 : 00 00 00 00  00 00 00 00  00 00 00 00  00 00 00 00   ................
  0010 : 00 00 00 00  00 00 00 00  00 00 00 00  00 00 00 00   ................
  0020 : 00 00 00 00  00 00 00 00  00 00 00 00  00 00 00 00   ................
  0030 : 00 00 00 00  00 00 00 00  00 00 00 00  00 00 00 00   ................
  0040 : 00 00 00 00  00 00 00 00  00 00 00 00  00 00 00 00   ................
  0050 : 00 00 00 00  00 00 00 00  00 00 00 00  00 00 00 00   ................
  0060 : 00 00 00 00  00 00 00 00  00 00 00 00  00 00 00 00   ................
  0070 : 00 00 00 00  00 00 00 00  00 00 00 00  00 00 00 00   ................
  0080 : 00 00 00 00  00 00 00 00  00 00 00 00  00 00 00 00   ................
  0090 : 00 00 00 00  00 00 00 00  00 00 00 00  00 00 00 00   ................
  00A0 : 00 00 00 00  00 00 00 00  00 00 00 00  00 00 00 00   ................
  00B0 : 00 00 00 00  00 00 00 00  00 00 00 00  00 00 00 00   ................
  00C0 : 00 00 00 00  00 00 00 00  00 00 00 00  00 00 00 00   ................
  00D0 : 00 00 00 00  00 00 00 00  00 00 00 00  00 00 00 00   ................
  00E0 : 00 00 00 00  00 00 00 00  00 00 00 00  00 00 00 00   ................
  00F0 : 00 00 00 00  00 00 00 00  00 00 00 00  00 00 00 00   ................
  0100 : 00 00 00 00  00 00 00 00  00 00 00 00  00 00 00 00   ................
   ERROR 40 TIME OUT
* XD $A00-
   ERROR A0 ILLEGAL CMD
* S:XD $A00-
  0A00 : 00 00 00 00  00 00 00 00  00 00 00 00  00 00 00 00                   
  0A10 : 00 00 00 00  00 00 00 00  00 00 00 00  00 00 00 00                   
  0A20 : 00 00 00 00  00 00 00 00  00 00 00 00  00 00 00 00                   
  0A30 : 00 00 00 00  00 00 00 00  00 00 00 00  00 00 00 00                   
  0A40 : 00 00 00 00  00 00 00 00  00 00 00 00  00 00 00 00                   
  0A50 : 00 00 00 00  00 00 00 00  00 00 00 00  00 00 00 00                   
  0A60 : 00 00 00 00  00 00 00 00  00 00 00 00  00 00 00 00                   
  0A70 : 00 00 00 00  00 00 00 00  00 00 00 00  00 00 00 00                   
  0A80 : 00 00 00 00  00 00 00 00  00 00 00 00  00 00 00 00                   
  0A90 : 00 00 00 00  00 00 00 00  00 00 00 00  00 00 00 00                   
  0AA0 : 00 00 00 00  00 00 00 00  00 00 00 00  00 00 00 00                   
  0AB0 : 00 00 00 00  00 00 00 00  00 00 00 00  00 00 00 00                   
  0AC0 : 00 00 00 00  00 00 00 00  00 00 00 00  00 00 00 00                   
  0AD0 : 00 00 00 00  00 EE 0A 81  81 EE 0B 81  81 EE 0C CA        n   n   n J
  0AE0 : CA 00 00 1E  02 00 00 00  00 00 00 00  00 00 30 20   J             0 
  0AF0 : 30 30 20 30  30 20 30 30  20 30 30 20  30 30 20 30   00 00 00 00 00 0
  0B00 : 30 20 30 30  20 30 30 20  30 30 20 30  30 20 30 30   0 00 00 00 00 00
  0B10 : 20 30 30 20  30 30 0D 0A  3E 0D 0A 3E  0D 0A 0D 0A    00 00  >  >    
  0B20 : 31 39 32 33  3E 0D 0A 0D  0A 3E 0D 0A  0D 0A 3E 0D   1923>    >    > 
  0B30 : 0D 0A 30 31  30 30 20 30  30 20 30 30  20 30 30 20     0100 00 00 00 
  0B40 : 30 30 20 30  30 20 30 30  20 30 30 20  30 30 20 30   00 00 00 00 00 0
* S:SC $N
