.PG
;**************************************************
;**                                              **
;**          SVC'S $1X  (IN.... SVC'S)           **
;**                                              **
;**************************************************
;
EINZL .EQ *;EIN ZEICHEN LESEN
BIT VSET
STY H1X11
LDY #VBFSZ
LDA (POIN/S1),Y
STA H1X13;LAENGE
LDY #VBFLZ
LDA (POIN/S1),Y
CMP H1X13
BCC EINZL2;NICHT AM ENDE
LDA #$0D
JMP EINZL1
EINZL2 TAY
LDA (POIN/S1),Y;CHAR AUS BUFFER
AND #$7F
PHA
INY
TYA
LDY #VBFLZ
STA (POIN/S1),Y;LZ + 1
PLA
CLV
BIT JCILOC ;(V=0)
BMI EINZL1 ;LOC BLEIBT
CMP #$61
BCC EINZL1
CMP #$7B
BCS EINZL1
AND #$DF
EINZL1 LDY H1X11
RTS
;
POIM1 .EQ *;POINTER UM EINS ZURUECK
STY H1X11
LDY #VBFLZ
LDA (POIN/S1),Y
TAY
DEY ;LZ - 1
TYA
LDY #VBFLZ
STA (POIN/S1),Y
LDY H1X11
RTS
;
POIST LDY #VBFLZ;LZ SICHERSTELLEN
LDA (POIN/S1),Y
STA H1X12
RTS
;
POILD LDY #VBFLZ;LZ REGENERIEREN
LDA H1X12
STA (POIN/S1),Y
RTS
;
LOCSAV LDX JCILOC
STX JCILOS
LDX #$80
STX JCILOC
RTS
;
LOCLOD LDX JCILOS
STX JCILOC
RTS
;
;-
;
SVC10 LDX JCSTKP;ADR FUER IN-SVC'S (SETADI)
LDA VACCU,X
STA JCADI
LDA VYREG,X
STA JCADI+1
RTS
;
;----
;
SVC11 JSR EINZL;EIN ZEICHEN LESEN (INCH)
LDX JCSTKP
STA VACCU,X
RTS
;
;--
;
SVC12 .EQ *;PRUEFEN AUF ZEICHEN (INCK)
JSR EINZL
LDX JCSTKP
CMP VACCU,X
BEQ SVC122
STA VACCU,X
BVS *+5
JSR POIM1
BIT SETV
RTS
SVC122 CLV
RTS
;
;--
;
SVC13 .EQ *;HEX ZAHL LESEN (INHEX)
LDA #0
STA H133
JSR POIST
JSR EINZL
BVS SV13F
CMP #'' ;ASCII?
BEQ SV13A;...JA
CMP #'"
BNE SV131
LDA #$80
STA H133
JMP SV13A
SV131 JSR POIM1
JSR INADRE
BVS SV13F
LDA H133+1
BNE SV13F;>255
LDX JCSTKP
LDA H133+2
STA VACCU,X
CLV
RTS
SV13F JSR POILD
BIT SETV
RTS
;+++++ ASCII-ZEICHEN
SV13A JSR LOCSAV
JSR EINZL
JSR LOCLOD
BVS SV13F
ORA H133
LDX JCSTKP
STA VACCU,X
CLV
RTS
;
;+++++ INADR: BIN, HEX, DEZ ADRESSE LESEN
INADRE LDA #0
STA H133
STA H133+1
STA H133+2
JSR EINZL
BVS INADF
CMP #'$
BEQ INADH;..HEX
CMP #'%
BEQ INADB;..BIN
JSR POIM1
LDX #9
LDY #3
JMP INAD1
INADH LDX #$F
LDY #2
INAD1 STX H131;> ZIFFER
JSR EINZL
BVS INADF
JSR INADU;IMCOD
BVS INADF
STA H133+2
INAD2 JSR EINZL
BVS INAD3
JSR INADU
BVS INAD4
ASL A
ASL A
ASL A
ASL A
LDX #3
INAD5 ROL A
ROL H133+2
ROL H133+1
ROL H133
DEX
BPL INAD5
DEY
BPL INAD2
JMP INAD3
INAD4 JSR POIM1
INAD3 LDA H131
CMP #9;DEZ?
BEQ INADD;...UMRECHNEN
CLV
RTS
INADF BIT SETV
RTS
;+++++ BINAER
INADB LDX #1
STX H131;>ZIFFER
JSR EINZL
BVS INADF
JSR INADU
BVS INADF
STA H133+2
LDY #14;16 ZIFFERN
INADC JSR EINZL
BVS INAD3
JSR INADU
BVS INAD4
LSR A
ROL H133+2
ROL H133+1
DEY
BPL INADC
JMP INAD3
;+++++ DEZ AUF HEX UMRECHNEN
INADD LDA #0
STA H132
STA H132+1
SEC
SED
INADD1 LDA H133+2
SBC #$56
STA H133+2
LDA H133+1
SBC #$02
STA H133+1
LDA H133
SBC #$00
STA H133
BCC INADD2
INC H132
BNE INADD1
INADDF BIT SETV
RTS
INADD2 CLC
LDA H133+2
ADC #$56
STA H133+2
LDA H133+1
ADC #$02
STA H133+1
SEC
INADD4 LDA H133+2
SBC #$01
STA H133+2
LDA H133+1
SBC #$00
STA H133+1
BCC INADD3
INC H132+1
BNE INADD4
BEQ INADDF
INADD3 LDA H132+1
STA H133+2
LDA H132
STA H133+1
CLV
RTS
;
;+++++ ZIFFER UMCODIEREN
INADU CLV
LDX H131
CMP #$61
BCC INADU1
CMP #$7B
BCS INADU1
AND #$DF;UPC
INADU1 CMP VTABHX,X
BEQ INADU2
DEX
BPL INADU1
BIT SETV
INADU2 TXA
RTS
;
;--
;
SVC14 .EQ *;HEX ADRESSE LESEN (INADR)
JSR POIST
JSR INADRE
BVS SV14F
LDX JCSTKP
LDA H133+2
STA VACCU,X
LDA H133+1
STA VYREG,X
CLV
RTS
SV14F JSR POILD
BIT SETV
RTS
;
;--
;
SVC15 .EQ *;RANGE LESEN (INRNG)
JSR POIST
LDA H1X12
STA H1511
LDX JCSTKP
LDA VACCU,X
STA :POIN/F
LDA VYREG,X
STA :POIN/F+1
LDA #'$
SVC INCK
BVC *+5
JMP SVC152
LDA #0
STA H1521
STA H1521+1
STA H1522
STA H1522+1
LDA #15
STA H131;FUER INADU
LDY #2
JSR EINZL
BVC *+5
SV15FF JMP SVC15F
STA H1512
JSR INADU
BVC SVC153;..HEX
LDA H1512
CMP #'X
BNE SV15FF
LDA #$0F
STA H1522+1;MASKE
JMP SVC154
SVC153 STA H1521+1
SVC154 JSR EINZL
BVS SVC15A
STA H1512
JSR INADU
BVC SVC156;..HEX
LDA H1512
CMP #'X
BNE SVC157;ENDE
LDA #$F0
LDX #3
SVC158 ROL A
ROL H1522+1
ROL H1522
DEX
BPL SVC158
LDA #0
JMP SVC15B
SVC156 STA H1512
LDA H1522
ORA H1522+1
BNE SVC157
LDA H1512
SVC15B LDX #3
ASL A
ASL A
ASL A
ASL A
SVC159 ROL A
ROL H1521+1
ROL H1521
DEX
BPL SVC159
DEY
BPL SVC154
JMP SVC15A
SVC157 JSR POIM1
SVC15A LDA H1522
ORA H1522+1
BEQ SVC152
LDY #0
LDA H1521+1
STA (POIN/F),Y
EOR H1522+1
LDY #2
STA (POIN/F),Y
LDY #1
LDA H1521
STA (POIN/F),Y
EOR H1522
LDY #3
STA (POIN/F),Y
SVC15E LDX JCSTKP
LDA #0
STA VXREG,X
CLV
RTS
SVC152 LDA H1511
STA H1X12
JSR POILD
SVC INADR
BVS SVC15F;FEHLER
STY H1512
LDY #0
STA (POIN/F),Y
LDY #2
STA (POIN/F),Y
LDA H1512
LDY #1
STA (POIN/F),Y
LDY #3
STA (POIN/F),Y;ANF=END-ADR
LDA #'-
SVC INCK
BVC SVC151;2.ADR
JMP SVC15E
SVC151 SVC INADR
BVS SVC15O;OPEN END
PHA
LDX JCSTKP
LDA #0
STA VXREG,X
PLA
STY H1512
SVC15P LDY #2
STA (POIN/F),Y
LDA H1512
LDY #3
STA (POIN/F),Y
CLD
SEC
LDY #2
LDA (POIN/F),Y;END-LO
LDY #0
SBC (POIN/F),Y;ANF-LO
LDY #3
LDA (POIN/F),Y;END-HO
LDY #1
SBC (POIN/F),Y;ANF-HO
BCC SVC15F;ANF<END
CLV
RTS
SVC15F LDA H1511
STA H1X12
JSR POILD
BIT SETV
RTS
SVC15O LDX JCSTKP
LDA VXREG,X
BEQ SVC15F ;NO OPEN END
LDA #$FF
STA VXREG,X
STA H1512
JMP SVC15P
;
;-
;
HILF16 .EQ H1611
ZAEL16 .EQ H1612
;
SVC16 JSR POIST;TEST LAUT LISTE (INTEXT)
JSR VPARAD;ADR DER LISTE IN POIN/S2
LDA #$FF
STA ZAEL16;TEXT#
LDY #$00;ZEIGER IN LISTE
SVC161 INC ZAEL16
JSR EINZL
BVS SVC16F;BUFFERENDE
STA HILF16
JSR X/LODPOIS2
CMP HILF16
BEQ SVC162;1.CHAR RICHTIG
SVC163 INY
JSR X/LODPOIS2;NAECHSTEN EINTRAG SUCHEN
CMP #$FF
BNE SVC163
INY
JSR X/LODPOIS2
CMP #$FF
BEQ SVC16F;LISTENENDE
STY H1815
JSR POILD
LDY H1815
JMP SVC161
SVC16F BIT VSET;NICHT GEFUNDEN
JSR POILD;LZ REGENERIEREN
RTS
;+++++ VERGLEICH AB 2. ZEICHEN
SVC162 INY
JSR X/LODPOIS2
CMP #$FE;ENDE PFLICHTTEIL
BEQ SVC164;...JA
JSR EINZL
BVS SVC163;BUFFERENDE
STA HILF16
JSR X/LODPOIS2
CMP HILF16
BEQ SVC162;...WEITERVERGLEICHEN
JMP SVC163;NAECHSTER TEXT
SVC164 INY
JSR X/LODPOIS2
CMP #$FF;TEXTENDE
BEQ SVC165;...JA
JSR EINZL
BVS SVC165;BUFFERENDE..OK
STA HILF16
JSR X/LODPOIS2
CMP HILF16
BEQ SVC164
JSR POIM1;DIESER CHAR NICHT
SVC165 LDX JCSTKP
LDA ZAEL16;TEXT#
STA VACCU,X
CLV
RTS
;
;--
;
HILF17 .EQ H171
;
SVC17 JSR POIST;NAME LESEN (INNAME)
JSR VPARAD
LDA VXREG,X
STA HILF17;ANZAHL ZEICHEN
LDY #$00
LDA #$20
SVC170 STA (POIN/S2),Y;AUF BLANK
INY
CPY HILF17
BNE SVC170
DEC HILF17
DEC HILF17
JSR EINZL
BVS SVC17F;BUFFERENDE..FALSCH
JSR UP171;BUCHSTABE?
BVS SVC17F;...NEIN
LDY #$00
STA (POIN/S2),Y
SVC172 INY
JSR EINZL
BVS SVC173;BUFFERENDE..OK
JSR UP17;BUCHST/ZIFFER
BVS SVC174;...NEIN
STA (POIN/S2),Y
DEC HILF17
BPL SVC172
INY
JMP SVC173
SVC174 JSR POIM1
SVC173 LDX JCSTKP
TYA
STA VXREG,X;TATS LAENGE
CLV
RTS
SVC17F JSR POILD
BIT VSET
RTS
;
UP17 JSR UP171;BUCHSTABE
BVC UP173;...JA
JSR UP172;ZIFFER?
BVC UP173;...JA
CMP #'.
BEQ UP173
CMP #'/
BEQ UP173
CMP #'#
BEQ UP173
BIT SETV
RTS
UP173 CLV
RTS
UP171 CMP #'@ ;BUCHSTABE?
BCC UP1711
CMP #$5B
BCC UP1712
CMP #$61
BCC UP1711
CMP #$7B
BCC UP1712
UP1711 BIT VSET
RTS
UP1712 CLV
RTS
UP172 CMP #$30;ZIFFER?
BCC UP1721
CMP #$3A
BCC UP1722
UP1721 BIT VSET
RTS
UP1722 CLV
RTS
;
;
;--
;
TEX018 .BY '$N',$FE,'ULL',$FF
.BY '$T',$FE,'ERM',$FF
.BY '$P',$FE,'RINTER',$FF
.BY '$F',$FE,'LOPPY',$FF
.BY $FF
TEX118 .BY 'OV',$FE,'ERWRITE',$FF,$FF
TEX218 .BY '1',$FE,$FF,'2',$FE,$FF,'3',$FE,$FF
.BY '4',$FE,$FF,'5',$FE,$FF,$FF
;
UP18DV CMP #$FF
BNE UP181;..OK
LDX H1816
BMI UP18E ;MIT LW#
LDX #0
UP183 LDA FHMONT,X
CMP H1811
BNE UP182
TXA
UP181 RTS
UP182 INX
CPX #5
BCC UP183
LDA #$FF;NOT MOUNTED
RTS
UP18E LDX #0
UP18E2 LDA FHMONT,X
CMP H1811
BNE UP18E1
TXA
PHA
UP18E4 INX
CPX #5
BCC UP18E3
PLA
RTS
UP18E3 LDA FHMONT,X
CMP H1811
BNE UP18E4
PLA
LDA #$FE ;DRIVE# FEHLT
RTS
UP18E1 INX
CPX #5
BCC UP18E2
LDA #$FF ;NOT MOUNTED
RTS
;
SVC18 .EQ *;FILENAME LESEN (INFILE)
JSR POIST
LDA H1X12
STA H1812
LDX JCSTKP
LDA VXREG,X
STA H1816
AND #%00111111
STA H181;ART
LDA VACCU,X
STA :POIN/F
LDA VYREG,X;FCB-ADR
STA :POIN/F+1;FCB-ADR
LDA VXREG,X
AND #%01000000
BEQ SVC181
LDY #FCLNG-1
LDA #0
SVC180 STA (POIN/F),Y;FCB LOESCHEN
DEY
BPL SVC180
SVC181 LDY #FCDRIV
LDA #$FF;KEINE DRIVE# ANGEG
STA (POIN/F),Y
LDY #FCHAND
LDA #3;DEFAULT = $FLOPPY
STA (POIN/F),Y
SVC INTEX+$80
.AD TEX018
BVS SV181;ASSUME $FLOPPY
LDY #FCHAND
STA (POIN/F),Y;HANDLER#
CMP #0;$NULL?
BEQ SV18A
CMP #2 ;$PRINTER
BEQ SV18A
CMP #3;FLOPPY?
BEQ SV182;...JA
LDA H181
CMP #$03
BNE SV18OK
BIT SETV
RTS
SV18OK CLV
RTS
;+++++ UEBERPRUEFEN OB <AUS-DATEI>
SV18A .EQ *
LDA H181
CMP #$02;OUTPUT?
BEQ SV18OK;...JA
BIT SETV
RTS
;+++++ FLOPPY-DATEI OHNE $FLOPPY
SV181 LDA #<TEX218
LDY #>TEX218
SVC INTEX
BVC SV183
LDA #'A
STA H1811
LDA #$FF
JSR UP18DV
LDY #FCDRIV
STA (POIN/F),Y
JMP SV184
;+++++ PARAMETER-FEHLER
SV18F .EQ *
LDA JCADI
STA :POIN/S1
LDA JCADI+1
STA :POIN/S1+1;REGENERIEREN
LDA H1812
STA H1X12
JSR POILD
BIT SETV
RTS
;+++++ NACH $FLOPPY WEITER
SV182 JSR EINZL
CMP #':
BNE SV18F
LDA #<TEX218
LDY #>TEX218
SVC INTEX
BVS SV18F
SV183 LDX #'A
STX H1811
JSR UP18DV
LDY #FCDRIV
STA (POIN/F),Y ;DRIVE#
JSR EINZL
BVS SV1831
CMP #':
BEQ SV184
JSR POIM1
SV1831 LDA H181
CMP #$03;TQAL?
BNE SV18F
LDY #FCNAME
LDA #$20
STA (POIN/F),Y
CLV
RTS
;+++++ DATEI-NAME LESEN
SV184 LDY #FCVERN
LDA #$FF
STA (POIN/F),Y
INY
STA (POIN/F),Y ;VER# NICHT ANGEG
LDA H181
CMP #$03
BNE *+5
JMP SV18TQ;TEIL-QUAL.
;+++++ <PREFIX> UEBERPRUEFEN
LDX #32
LDY #FCNAME
STX H1813
STY H1814
SV18P2 LDA (POIN/F),Y
BEQ SV18P1
CMP #$20
BEQ SV18P1
CMP #'.
BEQ SV18P1
DEX
INY
CPY #FCNAME+10
BCC SV18P2
JMP SV18F
SV18P1 LDA #'.
STA (POIN/F),Y
CPX #32
BEQ SV18P3;KEIN <PREFIX> IM FCB
INY
DEX
STY H1814
STX H1813
LDA #$FE
STA (POIN/F),Y
INY
LDA #$FF
STA (POIN/F),Y
INY
STA (POIN/F),Y;PREPARE FOR SVC INTEXT
LDA :POIN/F
LDY :POIN/F+1;EV. <PREFIX> UEBERLESEN
SVC INTEX
SV18P3 LDX H1813
;DATEINAME&KOMMENTAR LESEN
CLC
CLD
LDA :POIN/F
ADC H1814
STA H1815
LDA :POIN/F+1
ADC #$00
TAY
LDA H1815;A(FCNAME) OHNE <PREFIX>
SVC INNAME
BVC *+5
SV18F3 JMP SV18F
TXA
CLC
CLD
ADC H1814
TAX
INX
CPX H1813 ;LAENGE > 30
DEX
BCS SV186;..JA..KEIN COMMENT
JSR EINZL
CMP #$3B ;;
BNE SV185;KEIN COMMENT
LDA H181
CMP #$02
BNE SV18F3;COMMENT VERBOTEN
TXA
TAY
LDA #$3B ;;
STA (POIN/F),Y;IN FCNAME
INX
STX H1815
SEC
CLD
LDA #32
SBC H1815
TAX ;LAENGE COMMENT
CLC
LDA :POIN/F
ADC H1815
LDY :POIN/F+1
SVC INNAME ;COMMENT LESEN
BVS SV18F3
SV186 JSR EINZL
SV185 BVS SV187;ENDE DER ZEILE
CMP #'(
BEQ SV188
JSR POIM1
SV187 LDY #FCNAME+1
SV1871 LDA (POIN/F),Y
CMP #'.
BEQ SV1872
INY
CPY #FCNAME+6
BCC SV1871
JMP SV18F;KEIN PREFIX
SV1872 CLV
RTS
SV188 LDA H181
CMP #$02
BEQ SV18O;OVERMOEGL.
LDA #4;4 ZIFFERN VER#
SVC INDEC
BVS SV18F3
STY H1815
LDY #FCVERN
STA (POIN/F),Y
ORA H1815
BEQ SV18F3 ;V#=0
INY
LDA H1815
STA (POIN/F),Y;VER #
JSR EINZL
CMP #')
BNE SV18F4
JMP SV187
SV18O LDA #<TEX118
LDY #>TEX118
SVC INTEX
BVS SV18F4
LDA #')
SVC INCK
BVS SV18F4
LDA #$FF
LDY #FCOVER
STA (POIN/F),Y
JMP SV187
SV18F4 JMP SV18F
;+++++ TEIL-QUAL. NAMEN LESEN
SV18TQ LDA #'*
SVC INCK
BVS SV18T1
LDY #FCTQAL
LDA (POIN/F),Y
ORA #%10000000;TQ-V
STA (POIN/F),Y
LDY #VBFLZ
LDA (POIN/S1),Y
TAY
DEY
LDA #'A ;PREP FOR INNAME
STA (POIN/S1),Y
TYA
LDY #VBFLZ
STA (POIN/S1),Y
SV18T1 LDA :POIN/F
LDY :POIN/F+1
LDX #32
SVC INNAME
BVS SV18T2
LDY #FCTQAL
LDA (POIN/F),Y
BPL SV18T3;..OK
LDY #FCNAME+1 ;A WIEDER WEG
SV18T4 LDA (POIN/F),Y
DEY
STA (POIN/F),Y
INY
INY
CPY #FCNAME+32
BCC SV18T4
DEY
LDA #$20
STA (POIN/F),Y
SV18T3 LDA #'*
SVC INCK
BVS SV18T5
LDY #FCTQAL
LDA (POIN/F),Y
ORA #%00000001;TQ-H
STA (POIN/F),Y
SV18T5 CLV
RTS
SV18T2 LDY #FCNAME
LDA #$20
STA (POIN/F),Y
JMP SV18T3
;
;--
;
SVC19 .EQ *;LITERAL LESEN (INLIT)
JSR VPARAD
LDA VXREG,X
STA H1912;LAENGE MAX
JSR POIST
JSR LOCSAV
JSR EINZL
BVC SVC191
SVC19F JSR POILD
JSR LOCLOD
BIT SETV
RTS
SVC191 STA H1911;BEGRENZER
LDY #$00;ZAEHLER
SVC193 JSR EINZL
BVS SVC19F
CMP H1911
BEQ SVC19E
STA (POIN/S2),Y
INY
DEC H1912
BNE SVC193
JSR EINZL
CMP H1911;BEGRENZER?
BNE SVC19F
SVC19E LDX JCSTKP
TYA
STA VXREG,X;TATS LAENGE
JSR LOCLOD
LDA H1911
CMP #'"
BNE SVC194
DEY
LDA (POIN/S2),Y
ORA #$80
STA (POIN/S2),Y
SVC194 CLV
RTS
;
;--
;
SVC1A .EQ *;DEZ. ZAHL LESEN (INDEC)
JSR POIST
LDX JCSTKP
LDA VACCU,X
BEQ SV1AF
CMP #7
BCS SV1AF
TAY
DEY
DEY
LDA #$00
STA H1A3
STA H1A3+1
STA H1A3+2
LDA #9
STA H131;>ZIFFER
JSR EINZL
BVS SV1AF
JSR INADU;DECODE
BVS SV1AF
STA H1A3+2
CPY #$FF
BEQ SV1A5;..NUR 1 ZIFFER
SV1A4 JSR EINZL
BVS SV1A5
JSR INADU
BVS SV1A6
ASL A
ASL A
ASL A
ASL A
LDX #3
SV1A1 ROL A
ROL H1A3+2
ROL H1A3+1
ROL H1A3
DEX
BPL SV1A1
DEY
BPL SV1A4
JMP SV1A5
SV1A6 JSR POIM1
SV1A5 LDX JCSTKP
LDA H1A3
STA VXREG,X
LDA H1A3+1
STA VYREG,X
LDA H1A3+2
STA VACCU,X
CLV
RTS
SV1AF JSR POILD
BIT SETV
RTS
;
;--
;
SVC1B JSR EINZL;BUFFERENDE? (INEND)
BVS SVC1B1
BIT VSET
JSR POIM1
RTS
SVC1B1 CLV
RTS
;
;--
;
SVC1C LDA #$80
STA JCILOC
LDY #VBFSZ;IB-BUFFER JUSTIEREN
LDA (POIN/S1),Y
STA H1C1;LAENGE
CMP #VBFINH;LAENGE=0?
BNE SVC1C1;...NEIN
LDA #0
LDX JCSTKP
STA VACCU,X
LDY #VBFLZ
LDA #VBFINH
STA (POIN/S1),Y
RTS
SVC1C1 LDY #VBFINH
LDX JCSTKP
LDA VACCU,X
BPL SVC1C2;LEADING BLANKS BLEIBEN
SVC1C3 LDA (POIN/S1),Y
CMP #$20
BNE SVC1C2;UNGLEICH BLANK
INY
CPY H1C1
BCC SVC1C3
DEY ;1 BLANK BLEIBT
TYA
LDY #VBFLZ
STA (POIN/S1),Y
LDA #1
STA VACCU,X
RTS
SVC1C2 TYA
LDY #VBFLZ
STA (POIN/S1),Y
LDA VACCU,X
AND #%01000000;TRAILING BLANKS WEG?
BEQ SVC1C4;..NEIN
LDY H1C1
DEY
SVC1C6 LDA (POIN/S1),Y
CMP #$20
BNE SVC1C5
CPY #VBFINH+1
BCC SVC1C5
DEY
JMP SVC1C6
SVC1C5 INY
TYA
LDY #VBFSZ
STA (POIN/S1),Y
SVC1C4 SEC
CLD
LDY #VBFSZ
LDA (POIN/S1),Y
LDY #VBFLZ
SBC (POIN/S1),Y
STA VACCU,X
RTS
;
;---
;
SVC1D LDA #0;INUPC
STA JCILOC
RTS
;
SVC1E LDA #$80;INLOC
BNE SVC1D+2
;
;----
;
SVC1F SVC INTEX+$80;INDRIV
.AD TEX218
BVC SVC1F1
LDX JCSTKP
LDA VXREG,X
BEQ SVC1F2;SELBST SUCHEN
BIT SETV
RTS;PARAMETER-FEHLER
SVC1F2 LDX JCSTKP
LDA VACCU,X;DRIVE-TYP (*,A)
STA H1811
LDA #0
STA H1816
LDA #$FF
JSR UP18DV
LDX JCSTKP
STA VACCU,X
CLV
RTS
SVC1F1 TAY;DRIVE#
LDX JCSTKP
LDA VACCU,X;
BEQ SVC1F3;TYP EGAL
CMP FHMONT,Y
BNE SVC1FF;..NEIN
SVC1F3 TYA
STA VACCU,X
CLV
RTS
SVC1FF LDA #$FF
STA VACCU,X
CLV
RTS
;
;-------
;
