%TF.GenerationSoftware,KiCad,Pcbnew,6.0.0-rc1-unknown-db41769bb9~144~ubuntu20.04.1*%
%TF.CreationDate,2021-12-09T21:14:03+01:00*%
%TF.ProjectId,32k_perUser,33326b5f-7065-4725-9573-65722e6b6963,v0.2*%
%TF.SameCoordinates,Original*%
%TF.FileFunction,Other,User*%
%FSLAX46Y46*%
G04 Gerber Fmt 4.6, Leading zero omitted, Abs format (unit mm)*
G04 Created by KiCad (PCBNEW 6.0.0-rc1-unknown-db41769bb9~144~ubuntu20.04.1) date 2021-12-09 21:14:03*
%MOMM*%
%LPD*%
G01*
G04 APERTURE LIST*
%ADD10C,0.050000*%
G04 APERTURE END LIST*
D10*
%TO.C,U26*%
X154787000Y-95174000D02*
X154787000Y-121224000D01*
X154787000Y-121224000D02*
X165487000Y-121224000D01*
X165487000Y-121224000D02*
X165487000Y-95174000D01*
X165487000Y-95174000D02*
X154787000Y-95174000D01*
%TO.C,BT26*%
X163400000Y-63002000D02*
X163400000Y-65902000D01*
X157450000Y-80402000D02*
X154850000Y-77802000D01*
X163400000Y-83302000D02*
X163400000Y-80402000D01*
X163400000Y-65902000D02*
X166050000Y-65902000D01*
X159100000Y-63002000D02*
X163400000Y-63002000D01*
X168010000Y-78442000D02*
X168010000Y-67862000D01*
X159100000Y-83302000D02*
X163400000Y-83302000D01*
X163400000Y-80402000D02*
X166050000Y-80402000D01*
X159100000Y-65902000D02*
X159100000Y-63002000D01*
X159100000Y-80402000D02*
X159100000Y-83302000D01*
X159100000Y-65902000D02*
X157450000Y-65902000D01*
X154850000Y-68502000D02*
X153900000Y-68502000D01*
X157450000Y-65902000D02*
X154850000Y-68502000D01*
X159100000Y-80402000D02*
X157450000Y-80402000D01*
X154850000Y-77802000D02*
X153900000Y-77802000D01*
X153900000Y-77802000D02*
X153900000Y-68502000D01*
X166050000Y-80402000D02*
G75*
G03*
X168010000Y-78442000I-1J1960001D01*
G01*
X168010000Y-67862000D02*
G75*
G03*
X166050000Y-65902000I-1960001J-1D01*
G01*
%TO.C,J1*%
X105800000Y-59350000D02*
X105800000Y-52500000D01*
X111660000Y-140640000D02*
X111660000Y-59350000D01*
X111660000Y-59350000D02*
X105800000Y-59350000D01*
X92070000Y-52500000D02*
X92070000Y-147500000D01*
X105800000Y-147500000D02*
X105800000Y-140640000D01*
X105800000Y-140640000D02*
X111660000Y-140640000D01*
X105800000Y-52500000D02*
X92070000Y-52500000D01*
X92070000Y-147500000D02*
X105800000Y-147500000D01*
%TO.C,H1*%
X166450000Y-57172500D02*
G75*
G03*
X166450000Y-57172500I-3450000J0D01*
G01*
%TO.C,D26*%
X155750000Y-58700000D02*
X152250000Y-58700000D01*
X152250000Y-53300000D02*
X155750000Y-53300000D01*
X155750000Y-53300000D02*
X155750000Y-58700000D01*
X152250000Y-58700000D02*
X152250000Y-53300000D01*
%TO.C,U2*%
X147100000Y-57950000D02*
X128900000Y-57950000D01*
X147100000Y-94050000D02*
X147100000Y-57950000D01*
X128900000Y-94050000D02*
X147100000Y-94050000D01*
X128900000Y-57950000D02*
X128900000Y-94050000D01*
%TO.C,J26*%
X131042000Y-113687000D02*
X134642000Y-113687000D01*
X134642000Y-113687000D02*
X134642000Y-97387000D01*
X134642000Y-97387000D02*
X131042000Y-97387000D01*
X131042000Y-97387000D02*
X131042000Y-113687000D01*
%TO.C,H2*%
X166500000Y-143172500D02*
G75*
G03*
X166500000Y-143172500I-3450000J0D01*
G01*
%TO.C,U1*%
X136584000Y-121052000D02*
X147134000Y-121052000D01*
X136584000Y-95102000D02*
X136584000Y-121052000D01*
X147134000Y-95102000D02*
X136584000Y-95102000D01*
X147134000Y-121052000D02*
X147134000Y-95102000D01*
%TD*%
M02*
