%TF.GenerationSoftware,KiCad,Pcbnew,6.0.0-rc1-unknown-db41769bb9~144~ubuntu20.04.1*%
%TF.CreationDate,2021-12-09T21:14:04+01:00*%
%TF.ProjectId,32k_perUser,33326b5f-7065-4725-9573-65722e6b6963,v0.2*%
%TF.SameCoordinates,Original*%
%TF.FileFunction,AssemblyDrawing,Top*%
%FSLAX46Y46*%
G04 Gerber Fmt 4.6, Leading zero omitted, Abs format (unit mm)*
G04 Created by KiCad (PCBNEW 6.0.0-rc1-unknown-db41769bb9~144~ubuntu20.04.1) date 2021-12-09 21:14:04*
%MOMM*%
%LPD*%
G01*
G04 APERTURE LIST*
%ADD10C,0.150000*%
%ADD11C,0.100000*%
G04 APERTURE END LIST*
D10*
%TO.C,U26*%
X156630952Y-92202380D02*
X157297619Y-92202380D01*
X156869047Y-93202380D01*
X158107142Y-92535714D02*
X158107142Y-93202380D01*
X157869047Y-92154761D02*
X157630952Y-92869047D01*
X158250000Y-92869047D01*
X159107142Y-93202380D02*
X158630952Y-93202380D01*
X158630952Y-92202380D01*
X159392857Y-93154761D02*
X159535714Y-93202380D01*
X159773809Y-93202380D01*
X159869047Y-93154761D01*
X159916666Y-93107142D01*
X159964285Y-93011904D01*
X159964285Y-92916666D01*
X159916666Y-92821428D01*
X159869047Y-92773809D01*
X159773809Y-92726190D01*
X159583333Y-92678571D01*
X159488095Y-92630952D01*
X159440476Y-92583333D01*
X159392857Y-92488095D01*
X159392857Y-92392857D01*
X159440476Y-92297619D01*
X159488095Y-92250000D01*
X159583333Y-92202380D01*
X159821428Y-92202380D01*
X159964285Y-92250000D01*
X160345238Y-92297619D02*
X160392857Y-92250000D01*
X160488095Y-92202380D01*
X160726190Y-92202380D01*
X160821428Y-92250000D01*
X160869047Y-92297619D01*
X160916666Y-92392857D01*
X160916666Y-92488095D01*
X160869047Y-92630952D01*
X160297619Y-93202380D01*
X160916666Y-93202380D01*
X161773809Y-92535714D02*
X161773809Y-93202380D01*
X161535714Y-92154761D02*
X161297619Y-92869047D01*
X161916666Y-92869047D01*
X162773809Y-92202380D02*
X162297619Y-92202380D01*
X162250000Y-92678571D01*
X162297619Y-92630952D01*
X162392857Y-92583333D01*
X162630952Y-92583333D01*
X162726190Y-92630952D01*
X162773809Y-92678571D01*
X162821428Y-92773809D01*
X162821428Y-93011904D01*
X162773809Y-93107142D01*
X162726190Y-93154761D01*
X162630952Y-93202380D01*
X162392857Y-93202380D01*
X162297619Y-93154761D01*
X162250000Y-93107142D01*
%TO.C,BT26*%
X168678571Y-75223428D02*
X168726190Y-75080571D01*
X168773809Y-75032952D01*
X168869047Y-74985333D01*
X169011904Y-74985333D01*
X169107142Y-75032952D01*
X169154761Y-75080571D01*
X169202380Y-75175809D01*
X169202380Y-75556761D01*
X168202380Y-75556761D01*
X168202380Y-75223428D01*
X168250000Y-75128190D01*
X168297619Y-75080571D01*
X168392857Y-75032952D01*
X168488095Y-75032952D01*
X168583333Y-75080571D01*
X168630952Y-75128190D01*
X168678571Y-75223428D01*
X168678571Y-75556761D01*
X169202380Y-74128190D02*
X168678571Y-74128190D01*
X168583333Y-74175809D01*
X168535714Y-74271047D01*
X168535714Y-74461523D01*
X168583333Y-74556761D01*
X169154761Y-74128190D02*
X169202380Y-74223428D01*
X169202380Y-74461523D01*
X169154761Y-74556761D01*
X169059523Y-74604380D01*
X168964285Y-74604380D01*
X168869047Y-74556761D01*
X168821428Y-74461523D01*
X168821428Y-74223428D01*
X168773809Y-74128190D01*
X168535714Y-73794857D02*
X168535714Y-73413904D01*
X168202380Y-73652000D02*
X169059523Y-73652000D01*
X169154761Y-73604380D01*
X169202380Y-73509142D01*
X169202380Y-73413904D01*
X168535714Y-73223428D02*
X168535714Y-72842476D01*
X168202380Y-73080571D02*
X169059523Y-73080571D01*
X169154761Y-73032952D01*
X169202380Y-72937714D01*
X169202380Y-72842476D01*
X169154761Y-72128190D02*
X169202380Y-72223428D01*
X169202380Y-72413904D01*
X169154761Y-72509142D01*
X169059523Y-72556761D01*
X168678571Y-72556761D01*
X168583333Y-72509142D01*
X168535714Y-72413904D01*
X168535714Y-72223428D01*
X168583333Y-72128190D01*
X168678571Y-72080571D01*
X168773809Y-72080571D01*
X168869047Y-72556761D01*
X169202380Y-71652000D02*
X168535714Y-71652000D01*
X168726190Y-71652000D02*
X168630952Y-71604380D01*
X168583333Y-71556761D01*
X168535714Y-71461523D01*
X168535714Y-71366285D01*
X168535714Y-71128190D02*
X169202380Y-70890095D01*
X168535714Y-70652000D02*
X169202380Y-70890095D01*
X169440476Y-70985333D01*
X169488095Y-71032952D01*
X169535714Y-71128190D01*
%TO.C,J1*%
X108072380Y-107904761D02*
X107072380Y-107904761D01*
X107072380Y-107666666D01*
X107120000Y-107523809D01*
X107215238Y-107428571D01*
X107310476Y-107380952D01*
X107500952Y-107333333D01*
X107643809Y-107333333D01*
X107834285Y-107380952D01*
X107929523Y-107428571D01*
X108024761Y-107523809D01*
X108072380Y-107666666D01*
X108072380Y-107904761D01*
X108072380Y-106904761D02*
X107072380Y-106904761D01*
X108072380Y-106428571D02*
X107072380Y-106428571D01*
X108072380Y-105857142D01*
X107072380Y-105857142D01*
X107405714Y-104952380D02*
X108072380Y-104952380D01*
X107024761Y-105190476D02*
X107739047Y-105428571D01*
X107739047Y-104809523D01*
X108072380Y-103904761D02*
X108072380Y-104476190D01*
X108072380Y-104190476D02*
X107072380Y-104190476D01*
X107215238Y-104285714D01*
X107310476Y-104380952D01*
X107358095Y-104476190D01*
X107072380Y-103047619D02*
X107072380Y-103238095D01*
X107120000Y-103333333D01*
X107167619Y-103380952D01*
X107310476Y-103476190D01*
X107500952Y-103523809D01*
X107881904Y-103523809D01*
X107977142Y-103476190D01*
X108024761Y-103428571D01*
X108072380Y-103333333D01*
X108072380Y-103142857D01*
X108024761Y-103047619D01*
X107977142Y-103000000D01*
X107881904Y-102952380D01*
X107643809Y-102952380D01*
X107548571Y-103000000D01*
X107500952Y-103047619D01*
X107453333Y-103142857D01*
X107453333Y-103333333D01*
X107500952Y-103428571D01*
X107548571Y-103476190D01*
X107643809Y-103523809D01*
X108072380Y-102000000D02*
X108072380Y-102571428D01*
X108072380Y-102285714D02*
X107072380Y-102285714D01*
X107215238Y-102380952D01*
X107310476Y-102476190D01*
X107358095Y-102571428D01*
X107167619Y-101619047D02*
X107120000Y-101571428D01*
X107072380Y-101476190D01*
X107072380Y-101238095D01*
X107120000Y-101142857D01*
X107167619Y-101095238D01*
X107262857Y-101047619D01*
X107358095Y-101047619D01*
X107500952Y-101095238D01*
X108072380Y-101666666D01*
X108072380Y-101047619D01*
X108167619Y-100857142D02*
X108167619Y-100095238D01*
X107072380Y-99666666D02*
X107072380Y-99571428D01*
X107120000Y-99476190D01*
X107167619Y-99428571D01*
X107262857Y-99380952D01*
X107453333Y-99333333D01*
X107691428Y-99333333D01*
X107881904Y-99380952D01*
X107977142Y-99428571D01*
X108024761Y-99476190D01*
X108072380Y-99571428D01*
X108072380Y-99666666D01*
X108024761Y-99761904D01*
X107977142Y-99809523D01*
X107881904Y-99857142D01*
X107691428Y-99904761D01*
X107453333Y-99904761D01*
X107262857Y-99857142D01*
X107167619Y-99809523D01*
X107120000Y-99761904D01*
X107072380Y-99666666D01*
X108072380Y-98380952D02*
X108072380Y-98952380D01*
X108072380Y-98666666D02*
X107072380Y-98666666D01*
X107215238Y-98761904D01*
X107310476Y-98857142D01*
X107358095Y-98952380D01*
X108072380Y-98047619D02*
X107405714Y-97523809D01*
X107405714Y-98047619D02*
X108072380Y-97523809D01*
X107072380Y-97238095D02*
X107072380Y-96619047D01*
X107453333Y-96952380D01*
X107453333Y-96809523D01*
X107500952Y-96714285D01*
X107548571Y-96666666D01*
X107643809Y-96619047D01*
X107881904Y-96619047D01*
X107977142Y-96666666D01*
X108024761Y-96714285D01*
X108072380Y-96809523D01*
X108072380Y-97095238D01*
X108024761Y-97190476D01*
X107977142Y-97238095D01*
X107167619Y-96238095D02*
X107120000Y-96190476D01*
X107072380Y-96095238D01*
X107072380Y-95857142D01*
X107120000Y-95761904D01*
X107167619Y-95714285D01*
X107262857Y-95666666D01*
X107358095Y-95666666D01*
X107500952Y-95714285D01*
X108072380Y-96285714D01*
X108072380Y-95666666D01*
X108167619Y-95476190D02*
X108167619Y-94714285D01*
X107786666Y-94523809D02*
X107786666Y-94047619D01*
X108072380Y-94619047D02*
X107072380Y-94285714D01*
X108072380Y-93952380D01*
X107548571Y-93285714D02*
X107596190Y-93142857D01*
X107643809Y-93095238D01*
X107739047Y-93047619D01*
X107881904Y-93047619D01*
X107977142Y-93095238D01*
X108024761Y-93142857D01*
X108072380Y-93238095D01*
X108072380Y-93619047D01*
X107072380Y-93619047D01*
X107072380Y-93285714D01*
X107120000Y-93190476D01*
X107167619Y-93142857D01*
X107262857Y-93095238D01*
X107358095Y-93095238D01*
X107453333Y-93142857D01*
X107500952Y-93190476D01*
X107548571Y-93285714D01*
X107548571Y-93619047D01*
X107977142Y-92047619D02*
X108024761Y-92095238D01*
X108072380Y-92238095D01*
X108072380Y-92333333D01*
X108024761Y-92476190D01*
X107929523Y-92571428D01*
X107834285Y-92619047D01*
X107643809Y-92666666D01*
X107500952Y-92666666D01*
X107310476Y-92619047D01*
X107215238Y-92571428D01*
X107120000Y-92476190D01*
X107072380Y-92333333D01*
X107072380Y-92238095D01*
X107120000Y-92095238D01*
X107167619Y-92047619D01*
%TO.C,H1*%
X156214285Y-61824880D02*
X156214285Y-60824880D01*
X156547619Y-61539166D01*
X156880952Y-60824880D01*
X156880952Y-61824880D01*
X157500000Y-61824880D02*
X157404761Y-61777261D01*
X157357142Y-61729642D01*
X157309523Y-61634404D01*
X157309523Y-61348690D01*
X157357142Y-61253452D01*
X157404761Y-61205833D01*
X157500000Y-61158214D01*
X157642857Y-61158214D01*
X157738095Y-61205833D01*
X157785714Y-61253452D01*
X157833333Y-61348690D01*
X157833333Y-61634404D01*
X157785714Y-61729642D01*
X157738095Y-61777261D01*
X157642857Y-61824880D01*
X157500000Y-61824880D01*
X158690476Y-61158214D02*
X158690476Y-61824880D01*
X158261904Y-61158214D02*
X158261904Y-61682023D01*
X158309523Y-61777261D01*
X158404761Y-61824880D01*
X158547619Y-61824880D01*
X158642857Y-61777261D01*
X158690476Y-61729642D01*
X159166666Y-61158214D02*
X159166666Y-61824880D01*
X159166666Y-61253452D02*
X159214285Y-61205833D01*
X159309523Y-61158214D01*
X159452380Y-61158214D01*
X159547619Y-61205833D01*
X159595238Y-61301071D01*
X159595238Y-61824880D01*
X159928571Y-61158214D02*
X160309523Y-61158214D01*
X160071428Y-60824880D02*
X160071428Y-61682023D01*
X160119047Y-61777261D01*
X160214285Y-61824880D01*
X160309523Y-61824880D01*
X160642857Y-61824880D02*
X160642857Y-61158214D01*
X160642857Y-60824880D02*
X160595238Y-60872500D01*
X160642857Y-60920119D01*
X160690476Y-60872500D01*
X160642857Y-60824880D01*
X160642857Y-60920119D01*
X161119047Y-61158214D02*
X161119047Y-61824880D01*
X161119047Y-61253452D02*
X161166666Y-61205833D01*
X161261904Y-61158214D01*
X161404761Y-61158214D01*
X161500000Y-61205833D01*
X161547619Y-61301071D01*
X161547619Y-61824880D01*
X162452380Y-61158214D02*
X162452380Y-61967738D01*
X162404761Y-62062976D01*
X162357142Y-62110595D01*
X162261904Y-62158214D01*
X162119047Y-62158214D01*
X162023809Y-62110595D01*
X162452380Y-61777261D02*
X162357142Y-61824880D01*
X162166666Y-61824880D01*
X162071428Y-61777261D01*
X162023809Y-61729642D01*
X161976190Y-61634404D01*
X161976190Y-61348690D01*
X162023809Y-61253452D01*
X162071428Y-61205833D01*
X162166666Y-61158214D01*
X162357142Y-61158214D01*
X162452380Y-61205833D01*
X162928571Y-61824880D02*
X162928571Y-60824880D01*
X162928571Y-61301071D02*
X163500000Y-61301071D01*
X163500000Y-61824880D02*
X163500000Y-60824880D01*
X164119047Y-61824880D02*
X164023809Y-61777261D01*
X163976190Y-61729642D01*
X163928571Y-61634404D01*
X163928571Y-61348690D01*
X163976190Y-61253452D01*
X164023809Y-61205833D01*
X164119047Y-61158214D01*
X164261904Y-61158214D01*
X164357142Y-61205833D01*
X164404761Y-61253452D01*
X164452380Y-61348690D01*
X164452380Y-61634404D01*
X164404761Y-61729642D01*
X164357142Y-61777261D01*
X164261904Y-61824880D01*
X164119047Y-61824880D01*
X165023809Y-61824880D02*
X164928571Y-61777261D01*
X164880952Y-61682023D01*
X164880952Y-60824880D01*
X165785714Y-61777261D02*
X165690476Y-61824880D01*
X165500000Y-61824880D01*
X165404761Y-61777261D01*
X165357142Y-61682023D01*
X165357142Y-61301071D01*
X165404761Y-61205833D01*
X165500000Y-61158214D01*
X165690476Y-61158214D01*
X165785714Y-61205833D01*
X165833333Y-61301071D01*
X165833333Y-61396309D01*
X165357142Y-61491547D01*
%TO.C,D26*%
X151428571Y-57738095D02*
X151476190Y-57595238D01*
X151523809Y-57547619D01*
X151619047Y-57500000D01*
X151761904Y-57500000D01*
X151857142Y-57547619D01*
X151904761Y-57595238D01*
X151952380Y-57690476D01*
X151952380Y-58071428D01*
X150952380Y-58071428D01*
X150952380Y-57738095D01*
X151000000Y-57642857D01*
X151047619Y-57595238D01*
X151142857Y-57547619D01*
X151238095Y-57547619D01*
X151333333Y-57595238D01*
X151380952Y-57642857D01*
X151428571Y-57738095D01*
X151428571Y-58071428D01*
X151666666Y-57119047D02*
X151666666Y-56642857D01*
X151952380Y-57214285D02*
X150952380Y-56880952D01*
X151952380Y-56547619D01*
X150952380Y-56357142D02*
X151952380Y-56023809D01*
X150952380Y-55690476D01*
X150952380Y-55452380D02*
X150952380Y-54785714D01*
X151952380Y-55214285D01*
X150952380Y-54214285D02*
X150952380Y-54119047D01*
X151000000Y-54023809D01*
X151047619Y-53976190D01*
X151142857Y-53928571D01*
X151333333Y-53880952D01*
X151571428Y-53880952D01*
X151761904Y-53928571D01*
X151857142Y-53976190D01*
X151904761Y-54023809D01*
X151952380Y-54119047D01*
X151952380Y-54214285D01*
X151904761Y-54309523D01*
X151857142Y-54357142D01*
X151761904Y-54404761D01*
X151571428Y-54452380D01*
X151333333Y-54452380D01*
X151142857Y-54404761D01*
X151047619Y-54357142D01*
X151000000Y-54309523D01*
X150952380Y-54214285D01*
%TO.C,U2*%
X139785714Y-90452380D02*
X139595238Y-90452380D01*
X139500000Y-90500000D01*
X139452380Y-90547619D01*
X139357142Y-90690476D01*
X139309523Y-90880952D01*
X139309523Y-91261904D01*
X139357142Y-91357142D01*
X139404761Y-91404761D01*
X139500000Y-91452380D01*
X139690476Y-91452380D01*
X139785714Y-91404761D01*
X139833333Y-91357142D01*
X139880952Y-91261904D01*
X139880952Y-91023809D01*
X139833333Y-90928571D01*
X139785714Y-90880952D01*
X139690476Y-90833333D01*
X139500000Y-90833333D01*
X139404761Y-90880952D01*
X139357142Y-90928571D01*
X139309523Y-91023809D01*
X140261904Y-90547619D02*
X140309523Y-90500000D01*
X140404761Y-90452380D01*
X140642857Y-90452380D01*
X140738095Y-90500000D01*
X140785714Y-90547619D01*
X140833333Y-90642857D01*
X140833333Y-90738095D01*
X140785714Y-90880952D01*
X140214285Y-91452380D01*
X140833333Y-91452380D01*
X141214285Y-90547619D02*
X141261904Y-90500000D01*
X141357142Y-90452380D01*
X141595238Y-90452380D01*
X141690476Y-90500000D01*
X141738095Y-90547619D01*
X141785714Y-90642857D01*
X141785714Y-90738095D01*
X141738095Y-90880952D01*
X141166666Y-91452380D01*
X141785714Y-91452380D01*
X142690476Y-90452380D02*
X142214285Y-90452380D01*
X142166666Y-90928571D01*
X142214285Y-90880952D01*
X142309523Y-90833333D01*
X142547619Y-90833333D01*
X142642857Y-90880952D01*
X142690476Y-90928571D01*
X142738095Y-91023809D01*
X142738095Y-91261904D01*
X142690476Y-91357142D01*
X142642857Y-91404761D01*
X142547619Y-91452380D01*
X142309523Y-91452380D01*
X142214285Y-91404761D01*
X142166666Y-91357142D01*
X143595238Y-90452380D02*
X143404761Y-90452380D01*
X143309523Y-90500000D01*
X143261904Y-90547619D01*
X143166666Y-90690476D01*
X143119047Y-90880952D01*
X143119047Y-91261904D01*
X143166666Y-91357142D01*
X143214285Y-91404761D01*
X143309523Y-91452380D01*
X143500000Y-91452380D01*
X143595238Y-91404761D01*
X143642857Y-91357142D01*
X143690476Y-91261904D01*
X143690476Y-91023809D01*
X143642857Y-90928571D01*
X143595238Y-90880952D01*
X143500000Y-90833333D01*
X143309523Y-90833333D01*
X143214285Y-90880952D01*
X143166666Y-90928571D01*
X143119047Y-91023809D01*
%TO.C,J26*%
X130857142Y-113238095D02*
X130904761Y-113285714D01*
X130952380Y-113428571D01*
X130952380Y-113523809D01*
X130904761Y-113666666D01*
X130809523Y-113761904D01*
X130714285Y-113809523D01*
X130523809Y-113857142D01*
X130380952Y-113857142D01*
X130190476Y-113809523D01*
X130095238Y-113761904D01*
X130000000Y-113666666D01*
X129952380Y-113523809D01*
X129952380Y-113428571D01*
X130000000Y-113285714D01*
X130047619Y-113238095D01*
X130952380Y-112666666D02*
X130904761Y-112761904D01*
X130857142Y-112809523D01*
X130761904Y-112857142D01*
X130476190Y-112857142D01*
X130380952Y-112809523D01*
X130333333Y-112761904D01*
X130285714Y-112666666D01*
X130285714Y-112523809D01*
X130333333Y-112428571D01*
X130380952Y-112380952D01*
X130476190Y-112333333D01*
X130761904Y-112333333D01*
X130857142Y-112380952D01*
X130904761Y-112428571D01*
X130952380Y-112523809D01*
X130952380Y-112666666D01*
X130285714Y-111904761D02*
X130952380Y-111904761D01*
X130380952Y-111904761D02*
X130333333Y-111857142D01*
X130285714Y-111761904D01*
X130285714Y-111619047D01*
X130333333Y-111523809D01*
X130428571Y-111476190D01*
X130952380Y-111476190D01*
X130285714Y-111000000D02*
X130952380Y-111000000D01*
X130380952Y-111000000D02*
X130333333Y-110952380D01*
X130285714Y-110857142D01*
X130285714Y-110714285D01*
X130333333Y-110619047D01*
X130428571Y-110571428D01*
X130952380Y-110571428D01*
X131047619Y-110333333D02*
X131047619Y-109571428D01*
X129952380Y-109142857D02*
X129952380Y-109047619D01*
X130000000Y-108952380D01*
X130047619Y-108904761D01*
X130142857Y-108857142D01*
X130333333Y-108809523D01*
X130571428Y-108809523D01*
X130761904Y-108857142D01*
X130857142Y-108904761D01*
X130904761Y-108952380D01*
X130952380Y-109047619D01*
X130952380Y-109142857D01*
X130904761Y-109238095D01*
X130857142Y-109285714D01*
X130761904Y-109333333D01*
X130571428Y-109380952D01*
X130333333Y-109380952D01*
X130142857Y-109333333D01*
X130047619Y-109285714D01*
X130000000Y-109238095D01*
X129952380Y-109142857D01*
X130952380Y-107857142D02*
X130952380Y-108428571D01*
X130952380Y-108142857D02*
X129952380Y-108142857D01*
X130095238Y-108238095D01*
X130190476Y-108333333D01*
X130238095Y-108428571D01*
X130952380Y-107523809D02*
X130285714Y-107000000D01*
X130285714Y-107523809D02*
X130952380Y-107000000D01*
X129952380Y-106428571D02*
X129952380Y-106333333D01*
X130000000Y-106238095D01*
X130047619Y-106190476D01*
X130142857Y-106142857D01*
X130333333Y-106095238D01*
X130571428Y-106095238D01*
X130761904Y-106142857D01*
X130857142Y-106190476D01*
X130904761Y-106238095D01*
X130952380Y-106333333D01*
X130952380Y-106428571D01*
X130904761Y-106523809D01*
X130857142Y-106571428D01*
X130761904Y-106619047D01*
X130571428Y-106666666D01*
X130333333Y-106666666D01*
X130142857Y-106619047D01*
X130047619Y-106571428D01*
X130000000Y-106523809D01*
X129952380Y-106428571D01*
X129952380Y-105238095D02*
X129952380Y-105428571D01*
X130000000Y-105523809D01*
X130047619Y-105571428D01*
X130190476Y-105666666D01*
X130380952Y-105714285D01*
X130761904Y-105714285D01*
X130857142Y-105666666D01*
X130904761Y-105619047D01*
X130952380Y-105523809D01*
X130952380Y-105333333D01*
X130904761Y-105238095D01*
X130857142Y-105190476D01*
X130761904Y-105142857D01*
X130523809Y-105142857D01*
X130428571Y-105190476D01*
X130380952Y-105238095D01*
X130333333Y-105333333D01*
X130333333Y-105523809D01*
X130380952Y-105619047D01*
X130428571Y-105666666D01*
X130523809Y-105714285D01*
%TO.C,H2*%
X149714285Y-141624880D02*
X149714285Y-140624880D01*
X150047619Y-141339166D01*
X150380952Y-140624880D01*
X150380952Y-141624880D01*
X151000000Y-141624880D02*
X150904761Y-141577261D01*
X150857142Y-141529642D01*
X150809523Y-141434404D01*
X150809523Y-141148690D01*
X150857142Y-141053452D01*
X150904761Y-141005833D01*
X151000000Y-140958214D01*
X151142857Y-140958214D01*
X151238095Y-141005833D01*
X151285714Y-141053452D01*
X151333333Y-141148690D01*
X151333333Y-141434404D01*
X151285714Y-141529642D01*
X151238095Y-141577261D01*
X151142857Y-141624880D01*
X151000000Y-141624880D01*
X152190476Y-140958214D02*
X152190476Y-141624880D01*
X151761904Y-140958214D02*
X151761904Y-141482023D01*
X151809523Y-141577261D01*
X151904761Y-141624880D01*
X152047619Y-141624880D01*
X152142857Y-141577261D01*
X152190476Y-141529642D01*
X152666666Y-140958214D02*
X152666666Y-141624880D01*
X152666666Y-141053452D02*
X152714285Y-141005833D01*
X152809523Y-140958214D01*
X152952380Y-140958214D01*
X153047619Y-141005833D01*
X153095238Y-141101071D01*
X153095238Y-141624880D01*
X153428571Y-140958214D02*
X153809523Y-140958214D01*
X153571428Y-140624880D02*
X153571428Y-141482023D01*
X153619047Y-141577261D01*
X153714285Y-141624880D01*
X153809523Y-141624880D01*
X154142857Y-141624880D02*
X154142857Y-140958214D01*
X154142857Y-140624880D02*
X154095238Y-140672500D01*
X154142857Y-140720119D01*
X154190476Y-140672500D01*
X154142857Y-140624880D01*
X154142857Y-140720119D01*
X154619047Y-140958214D02*
X154619047Y-141624880D01*
X154619047Y-141053452D02*
X154666666Y-141005833D01*
X154761904Y-140958214D01*
X154904761Y-140958214D01*
X155000000Y-141005833D01*
X155047619Y-141101071D01*
X155047619Y-141624880D01*
X155952380Y-140958214D02*
X155952380Y-141767738D01*
X155904761Y-141862976D01*
X155857142Y-141910595D01*
X155761904Y-141958214D01*
X155619047Y-141958214D01*
X155523809Y-141910595D01*
X155952380Y-141577261D02*
X155857142Y-141624880D01*
X155666666Y-141624880D01*
X155571428Y-141577261D01*
X155523809Y-141529642D01*
X155476190Y-141434404D01*
X155476190Y-141148690D01*
X155523809Y-141053452D01*
X155571428Y-141005833D01*
X155666666Y-140958214D01*
X155857142Y-140958214D01*
X155952380Y-141005833D01*
X156428571Y-141624880D02*
X156428571Y-140624880D01*
X156428571Y-141101071D02*
X157000000Y-141101071D01*
X157000000Y-141624880D02*
X157000000Y-140624880D01*
X157619047Y-141624880D02*
X157523809Y-141577261D01*
X157476190Y-141529642D01*
X157428571Y-141434404D01*
X157428571Y-141148690D01*
X157476190Y-141053452D01*
X157523809Y-141005833D01*
X157619047Y-140958214D01*
X157761904Y-140958214D01*
X157857142Y-141005833D01*
X157904761Y-141053452D01*
X157952380Y-141148690D01*
X157952380Y-141434404D01*
X157904761Y-141529642D01*
X157857142Y-141577261D01*
X157761904Y-141624880D01*
X157619047Y-141624880D01*
X158523809Y-141624880D02*
X158428571Y-141577261D01*
X158380952Y-141482023D01*
X158380952Y-140624880D01*
X159285714Y-141577261D02*
X159190476Y-141624880D01*
X159000000Y-141624880D01*
X158904761Y-141577261D01*
X158857142Y-141482023D01*
X158857142Y-141101071D01*
X158904761Y-141005833D01*
X159000000Y-140958214D01*
X159190476Y-140958214D01*
X159285714Y-141005833D01*
X159333333Y-141101071D01*
X159333333Y-141196309D01*
X158857142Y-141291547D01*
%TO.C,U1*%
X139445428Y-93812000D02*
X139350190Y-93764380D01*
X139207333Y-93764380D01*
X139064476Y-93812000D01*
X138969238Y-93907238D01*
X138921619Y-94002476D01*
X138874000Y-94192952D01*
X138874000Y-94335809D01*
X138921619Y-94526285D01*
X138969238Y-94621523D01*
X139064476Y-94716761D01*
X139207333Y-94764380D01*
X139302571Y-94764380D01*
X139445428Y-94716761D01*
X139493047Y-94669142D01*
X139493047Y-94335809D01*
X139302571Y-94335809D01*
X139874000Y-94478666D02*
X140350190Y-94478666D01*
X139778761Y-94764380D02*
X140112095Y-93764380D01*
X140445428Y-94764380D01*
X141254952Y-94764380D02*
X140778761Y-94764380D01*
X140778761Y-93764380D01*
X142112095Y-94764380D02*
X141540666Y-94764380D01*
X141826380Y-94764380D02*
X141826380Y-93764380D01*
X141731142Y-93907238D01*
X141635904Y-94002476D01*
X141540666Y-94050095D01*
X142969238Y-93764380D02*
X142778761Y-93764380D01*
X142683523Y-93812000D01*
X142635904Y-93859619D01*
X142540666Y-94002476D01*
X142493047Y-94192952D01*
X142493047Y-94573904D01*
X142540666Y-94669142D01*
X142588285Y-94716761D01*
X142683523Y-94764380D01*
X142874000Y-94764380D01*
X142969238Y-94716761D01*
X143016857Y-94669142D01*
X143064476Y-94573904D01*
X143064476Y-94335809D01*
X143016857Y-94240571D01*
X142969238Y-94192952D01*
X142874000Y-94145333D01*
X142683523Y-94145333D01*
X142588285Y-94192952D01*
X142540666Y-94240571D01*
X142493047Y-94335809D01*
X143350190Y-93764380D02*
X143683523Y-94764380D01*
X144016857Y-93764380D01*
X144493047Y-94192952D02*
X144397809Y-94145333D01*
X144350190Y-94097714D01*
X144302571Y-94002476D01*
X144302571Y-93954857D01*
X144350190Y-93859619D01*
X144397809Y-93812000D01*
X144493047Y-93764380D01*
X144683523Y-93764380D01*
X144778761Y-93812000D01*
X144826380Y-93859619D01*
X144874000Y-93954857D01*
X144874000Y-94002476D01*
X144826380Y-94097714D01*
X144778761Y-94145333D01*
X144683523Y-94192952D01*
X144493047Y-94192952D01*
X144397809Y-94240571D01*
X144350190Y-94288190D01*
X144302571Y-94383428D01*
X144302571Y-94573904D01*
X144350190Y-94669142D01*
X144397809Y-94716761D01*
X144493047Y-94764380D01*
X144683523Y-94764380D01*
X144778761Y-94716761D01*
X144826380Y-94669142D01*
X144874000Y-94573904D01*
X144874000Y-94383428D01*
X144826380Y-94288190D01*
X144778761Y-94240571D01*
X144683523Y-94192952D01*
D11*
%TO.C,U26*%
X157972000Y-95504000D02*
X163322000Y-95504000D01*
X163322000Y-95504000D02*
X163322000Y-120904000D01*
X163322000Y-120904000D02*
X156972000Y-120904000D01*
X156972000Y-120904000D02*
X156972000Y-96504000D01*
X156972000Y-96504000D02*
X157972000Y-95504000D01*
X155067000Y-95444000D02*
X155067000Y-120964000D01*
X155067000Y-120964000D02*
X165227000Y-120964000D01*
X165227000Y-120964000D02*
X165227000Y-95444000D01*
X165227000Y-95444000D02*
X155067000Y-95444000D01*
%TO.C,BT26*%
X154550000Y-77152000D02*
X154550000Y-69152000D01*
X157850000Y-79752000D02*
X165350000Y-79752000D01*
X154550000Y-77152000D02*
X155250000Y-77152000D01*
X154550000Y-69152000D02*
X155250000Y-69152000D01*
X155250000Y-77152000D02*
X157850000Y-79752000D01*
X155250000Y-69152000D02*
X157850000Y-66552000D01*
X157850000Y-66552000D02*
X165350000Y-66552000D01*
X166359589Y-68544095D02*
G75*
G03*
X166350000Y-77752000I3790412J-4607905D01*
G01*
X166700000Y-67852000D02*
G75*
G03*
X165300000Y-66552000I-1350002J-50002D01*
G01*
X166350000Y-68552000D02*
G75*
G03*
X166697558Y-67773987I-500001J690001D01*
G01*
X165300000Y-79752000D02*
G75*
G03*
X166700000Y-78452000I49999J1350001D01*
G01*
X166697558Y-78530013D02*
G75*
G03*
X166350000Y-77752000I-847559J88012D01*
G01*
%TO.C,J1*%
X105300000Y-142000000D02*
X104300000Y-142000000D01*
X98560000Y-53000000D02*
X98560000Y-56250000D01*
X104300000Y-58000000D02*
X105300000Y-58000000D01*
X104300000Y-142000000D02*
X104300000Y-58000000D01*
X92560000Y-143750000D02*
X98560000Y-143750000D01*
X92560000Y-56250000D02*
X92560000Y-143750000D01*
X99218200Y-99500000D02*
X99918200Y-100000000D01*
X99918200Y-100000000D02*
X99218200Y-100500000D01*
X98560000Y-147000000D02*
X105300000Y-147000000D01*
X98560000Y-143750000D02*
X98560000Y-147000000D01*
X99218200Y-100500000D02*
X99218200Y-99500000D01*
X105300000Y-147000000D02*
X105300000Y-142000000D01*
X105300000Y-53000000D02*
X98560000Y-53000000D01*
X105300000Y-58000000D02*
X105300000Y-53000000D01*
X98560000Y-56250000D02*
X92560000Y-56250000D01*
%TO.C,D26*%
X152480000Y-55300000D02*
X152480000Y-56700000D01*
X155520000Y-55850000D02*
X155520000Y-56700000D01*
X154950000Y-55300000D02*
X152500000Y-55300000D01*
X155520000Y-56700000D02*
X152480000Y-56700000D01*
X154950000Y-55300000D02*
X155520000Y-55850000D01*
%TO.C,U2*%
X130615000Y-93770000D02*
X130615000Y-58210000D01*
X145345000Y-58210000D02*
X145345000Y-92770000D01*
X144345000Y-93770000D02*
X130615000Y-93770000D01*
X145345000Y-92770000D02*
X144345000Y-93770000D01*
X130615000Y-58210000D02*
X145345000Y-58210000D01*
%TO.C,J26*%
X134112000Y-113157000D02*
X131572000Y-113157000D01*
X134112000Y-97917000D02*
X134112000Y-113157000D01*
X131572000Y-98552000D02*
X132207000Y-97917000D01*
X132207000Y-97917000D02*
X134112000Y-97917000D01*
X131572000Y-113157000D02*
X131572000Y-98552000D01*
%TO.C,U1*%
X138699000Y-95372000D02*
X145049000Y-95372000D01*
X145049000Y-95372000D02*
X145049000Y-119772000D01*
X138699000Y-120772000D02*
X138699000Y-95372000D01*
X145049000Y-119772000D02*
X144049000Y-120772000D01*
X144049000Y-120772000D02*
X138699000Y-120772000D01*
%TD*%
M02*
