%TF.GenerationSoftware,KiCad,Pcbnew,6.0.0-rc1-unknown-db41769bb9~144~ubuntu20.04.1*%
%TF.CreationDate,2021-12-09T21:14:03+01:00*%
%TF.ProjectId,32k_perUser,33326b5f-7065-4725-9573-65722e6b6963,v0.2*%
%TF.SameCoordinates,Original*%
%TF.FileFunction,Legend,Top*%
%TF.FilePolarity,Positive*%
%FSLAX46Y46*%
G04 Gerber Fmt 4.6, Leading zero omitted, Abs format (unit mm)*
G04 Created by KiCad (PCBNEW 6.0.0-rc1-unknown-db41769bb9~144~ubuntu20.04.1) date 2021-12-09 21:14:03*
%MOMM*%
%LPD*%
G01*
G04 APERTURE LIST*
%ADD10C,0.120000*%
G04 APERTURE END LIST*
D10*
%TO.C,U26*%
X159147000Y-95444000D02*
G75*
G03*
X161147000Y-95444000I1000000J0D01*
G01*
X159147000Y-95444000D02*
X157897000Y-95444000D01*
X157897000Y-95444000D02*
X157897000Y-120964000D01*
X157897000Y-120964000D02*
X162397000Y-120964000D01*
X162397000Y-120964000D02*
X162397000Y-95444000D01*
X162397000Y-95444000D02*
X161147000Y-95444000D01*
X154897000Y-95384000D02*
X154897000Y-121024000D01*
X154897000Y-121024000D02*
X165397000Y-121024000D01*
X165397000Y-121024000D02*
X165397000Y-95384000D01*
X165397000Y-95384000D02*
X154897000Y-95384000D01*
%TO.C,BT26*%
X155200000Y-77302000D02*
X154400000Y-77302000D01*
X163250000Y-66402000D02*
X165350000Y-66402000D01*
X154400000Y-69002000D02*
X155200000Y-69002000D01*
X157800000Y-79902000D02*
X155200000Y-77302000D01*
X157800000Y-66402000D02*
X159250000Y-66402000D01*
X159250000Y-79902000D02*
X157800000Y-79902000D01*
X155200000Y-69002000D02*
X157800000Y-66402000D01*
X163250000Y-79902000D02*
X165350000Y-79902000D01*
X154400000Y-77302000D02*
X154400000Y-69002000D01*
X166834160Y-78566615D02*
G75*
G03*
X166450000Y-77652000I-984161J124615D01*
G01*
X166850000Y-67852000D02*
G75*
G03*
X165300000Y-66402000I-1499999J-49999D01*
G01*
X165300000Y-79902000D02*
G75*
G03*
X166850000Y-78452000I50001J1499999D01*
G01*
X166450000Y-68652000D02*
G75*
G03*
X166834160Y-67737385I-600001J790000D01*
G01*
%TO.C,J1*%
X104560000Y-69920000D02*
X104560000Y-69119000D01*
X104560000Y-100400000D02*
X104560000Y-99599000D01*
X104560000Y-128340000D02*
X104560000Y-127539000D01*
X104560000Y-77540000D02*
X104560000Y-76739000D01*
X104560000Y-133420000D02*
X104560000Y-132619000D01*
X104560000Y-108020000D02*
X104560000Y-107219000D01*
X104560000Y-120720000D02*
X104560000Y-119919000D01*
X104560000Y-92780000D02*
X104560000Y-91979000D01*
X104560000Y-75000000D02*
X104560000Y-74199000D01*
X104560000Y-115640000D02*
X104560000Y-114839000D01*
X104560000Y-135960000D02*
X104560000Y-135159000D01*
X102709200Y-100050800D02*
X102409200Y-100650800D01*
X104560000Y-141741000D02*
X104560000Y-140465000D01*
X104560000Y-87700000D02*
X104560000Y-86899000D01*
X104560000Y-90240000D02*
X104560000Y-89439000D01*
X104560000Y-72460000D02*
X104560000Y-71659000D01*
X104560000Y-110560000D02*
X104560000Y-109759000D01*
X104560000Y-95320000D02*
X104560000Y-94519000D01*
X105560000Y-52740000D02*
X105560000Y-58260000D01*
X104560000Y-59760000D02*
X104560000Y-58260000D01*
X103009200Y-100650800D02*
X102709200Y-100050800D01*
X104560000Y-102940000D02*
X104560000Y-102139000D01*
X102409200Y-100650800D02*
X103009200Y-100650800D01*
X104560000Y-62300000D02*
X104560000Y-61499000D01*
X104560000Y-118180000D02*
X104560000Y-117379000D01*
X104560000Y-97860000D02*
X104560000Y-97059000D01*
X100101600Y-147260000D02*
X105560000Y-147260000D01*
X104560000Y-130880000D02*
X104560000Y-130079000D01*
X104560000Y-82620000D02*
X104560000Y-81819000D01*
X100076200Y-52740000D02*
X105560000Y-52740000D01*
X104560000Y-85160000D02*
X104560000Y-84359000D01*
X104560000Y-67380000D02*
X104560000Y-66579000D01*
X105560000Y-147260000D02*
X105560000Y-141740000D01*
X105560000Y-58260000D02*
X104560000Y-58260000D01*
X104560000Y-113100000D02*
X104560000Y-112299000D01*
X104560000Y-125800000D02*
X104560000Y-124999000D01*
X104560000Y-123260000D02*
X104560000Y-122459000D01*
X104560000Y-80080000D02*
X104560000Y-79279000D01*
X104560000Y-105480000D02*
X104560000Y-104679000D01*
X104560000Y-138275000D02*
X104560000Y-137699000D01*
X104560000Y-64840000D02*
X104560000Y-64039000D01*
X105560000Y-141740000D02*
X104560000Y-141740000D01*
%TO.C,D26*%
X152420000Y-56760000D02*
X153350000Y-56760000D01*
X155580000Y-56760000D02*
X154650000Y-56760000D01*
X152420000Y-56760000D02*
X152420000Y-55300000D01*
X155580000Y-56760000D02*
X155580000Y-53600000D01*
%TO.C,U2*%
X131920000Y-93830000D02*
X136980000Y-93830000D01*
X144040000Y-58150000D02*
X131920000Y-58150000D01*
X131920000Y-58150000D02*
X131920000Y-93830000D01*
X138980000Y-93830000D02*
X144040000Y-93830000D01*
X144040000Y-93830000D02*
X144040000Y-58150000D01*
X138980000Y-93830000D02*
G75*
G03*
X136980000Y-93830000I-1000000J0D01*
G01*
%TO.C,J26*%
X131512000Y-100457000D02*
X131512000Y-113217000D01*
X131512000Y-100457000D02*
X134172000Y-100457000D01*
X131512000Y-99187000D02*
X131512000Y-97857000D01*
X134172000Y-100457000D02*
X134172000Y-113217000D01*
X131512000Y-113217000D02*
X134172000Y-113217000D01*
X131512000Y-97857000D02*
X132842000Y-97857000D01*
%TO.C,U1*%
X142874000Y-120832000D02*
X144124000Y-120832000D01*
X139624000Y-120832000D02*
X140874000Y-120832000D01*
X139624000Y-95312000D02*
X139624000Y-120832000D01*
X144124000Y-120832000D02*
X144124000Y-95312000D01*
X144124000Y-95312000D02*
X139624000Y-95312000D01*
X142874000Y-120832000D02*
G75*
G03*
X140874000Y-120832000I-1000000J0D01*
G01*
%TD*%
M02*
