TITLE 'THE GAME OF LIFE';
" THIS GAME IS DESIGNED TO RUN ON THE ";
" SYSTEM 65 WITH A DEC VT52 TERMINAL ";
;
DEF NUMA=$D2CE;
DEF READ=$D1DC,OUTPUT=$D2C1,RD2=$D2E5;
DEF JUMP=$C606,RKEP=$D139,REDOUT=$D2B0;
*
 .SG Z
*
DCL R,C,IR,IC,NUM,TEMP,NUM1;
DCL WHICH,J,T,N;
DCL W1 WORD;
DCL POP WORD, BIG WORD, GEN WORD;
DCL WA WORD, WH WORD, CHAR,I;
ENTRY;
;
" CLEAR OUT THE ARRAYS ";
WH=##HOLD; WA=##ARR; NUM.2=C800;
GOO:
@WA=$20; @WH=$20; INCW WA; INCW WH;
DECW NUM;	IF NUM.2 ^= ZERO THEN GOTO GOO;
BIG.2=ZERO;	POP.2=ZERO;	GEN.2=ONE;
	R=1;	C=1;	CALL ERASE;
R=7;	C=60;	JUMP=##MSG1;	CALL DISPLY;
CALL START;
H1:	R=15;	C=45;	JUMP=##MSG3;	CALL DISPLY;
R=16;	C=45;	JUMP=##MSG4;	CALL DISPLY;
CALL RD2;	"DUMMY TO CLEAR IT";
L5:	R=16;	C=64;	CALL ERASEL;
CALL RD2;	CALL DECMAL;	IR=.A;	IF IR<2 THEN GOTO L5;
IF IR>19 THEN GOTO L5;
R+1;	C=45;	JUMP=##MSG5;	CALL DISPLY;
L6:	C=66;	CALL ERASEL;	CALL RD2;
CALL DECMAL; "CONVERT TO DECIMAL";
IC=.A;	IF IC<2 THEN GOTO L6;	IF IC>39 THEN GOTO L6;
L7:
" DONT BOTHER WITH COUNT";
R=IR+2;	C=IC+2;
L75:	CALL READY;	IR=R-2;	IC=C-2;
CALL READ;	CHAR=.A;	IF CHAR=$D THEN GOTO W2;
IF CHAR=$20 THEN DO;
			C+1;	GOTO L75;
		  END;
IR-1;	SHL IR;	WA.2=T1[IR];	"GET ROW POINTER";
CALL POPUP;
IC-1;	.Y=IC;	"GET COLUMN POINTER";
.A=CHAR; 'STA (WA),Y'; CALL OUTPUT; C+1; GOTO L75;
W2:
R=23;	C=10;	CALL ERASE;	JUMP=##MSG7;
CALL DISPLY;	C=19;	CALL ERASE;	CALL REDOUT;	CHAR=.A;
IF CHAR='Y' THEN GOTO L5;
R=19;	C=60;	JUMP=##MSG8;	CALL DISPLY;
R+1;	JUMP=##MSG9;	CALL DISPLY;
R+1;	JUMP=##MSG10;	CALL DISPLY;
L8:
R=23;	C=10;	CALL ERASE;
R+1;	JUMP=##MSG11;	CALL DISPLY;	R=4;
WA=##ARR;	WA.2=WA+C41;	WH=##HOLD;	WH.2=WH+C41;
IC=1;
L9:
NUM=@WA; IF NUM ^= $20 THEN GOTO L10;
CALL BIRTH;
GOTO L11;
L10:
CALL DEATH;
L11:
NUM=@WH; IF NUM = $20 THEN GOTO Z1;
CALL POPUP;
Z1:
INC IC;
INCW WA;	INCW WH;	IF IC<40 THEN GOTO Y2;
C=42;	JUMP=##MP;	CALL DISPLY;	IC=1;
R+1;
Y2:
IF R<23 THEN GOTO L9;
C=40;	CALL READ;	"WAIT TILL HE SEES IT";
" COPY HOLD INTO ARR";
H3:
WA=##ARR;	WH=##HOLD;	NUM.2=C800;
H55:
I=@WH;	@WA=I;	INCW WA;	INCW WH;
DECW NUM;	IF NUM.2^=ZERO THEN GOTO H55;
CALL GENUP;
R=19;	C=72;	CALL READY;	'LDA GEN+1';	CALL NUMA;
.A=GEN;	CALL NUMA;
R+1;	CALL READY;	'LDA POP+1';	CALL NUMA;
.A=POP;	CALL NUMA;
" SEE IF NEW IS LARGER ";
TEMP.2 = BIG-POP;	IFF .CARRY THEN P23;
BIG.2 = POP;
P23:
R+1;	CALL READY;	'LDA BIG+1';	CALL NUMA;
.A=BIG;	CALL NUMA;
WA=##ARR;	NUM.2=C800;	R=3;
L12:
C=3;
L13:
CALL READY;	J=@WA;	CALL OUTPUT;
C+1;	INCW WA;	IF C < 43 THEN GOTO L13;
R+1;	IF R<23 THEN GOTO L12;
IF POP.2 = ZERO THEN GOTO L14;
POP.2 = ZERO;	GOTO L8;
L14:
R=23;	C=10;	JUMP=##MSG12;	CALL DISPLY;
L15:
CALL READ;	'JMP $200';
;
;
BIRTH:
WHICH='B';	GOTO SS;
;
DEATH:
WHICH='D';
;
SS:
W1.2=WA-C41;
T=$FF;	N=0;
AA:
NUM=@W1; IF NUM = $20 THEN GOTO G;
N+1;
;
G:
INCW W1;	T+1;
GOTO [T] [AA,AA,B,G,AA,CC,AA,AA,D];
;
B:	W1.2=WA-ONE;	GOTO AA;
;
CC:	W1.2=WA+C39;	GOTO AA;
;
D:	IF WHICH = 'B' THEN GOTO E;
IF N < 2 THEN GOTO D1;	" UNDERPOPULATED";
IF N > 4 THEN GOTO D1;	" OVERPOPULATED ";
RETURN;
;
D1: @WH = $20; RETURN;
;
E:	IF N ^= 3 THEN RETURN;
@WH = '*';	RETURN;
;
DOIT:	CALL READY;	.A='/';	GOTO OUTPUT;
;
READY:	.A=27;	CALL OUTPUT;	.A=89;	CALL OUTPUT;
	.A=R + $1F;	CALL OUTPUT;
	.A=C + $1F;	GOTO OUTPUT;
;
" DISPLAY MESSAGE";
;
DISPLY:
CALL READY;	GOTO RKEP;
;
" ERASE TO END OF SCREEN ";
ERASE:	CALL READY;	.A=27;	CALL OUTPUT;
.A=74;	GOTO OUTPUT;
;
" ERASE REST OF LINE";
ERASEL:
CALL READY;	.A=27;	CALL OUTPUT;
.A=75;	GOTO OUTPUT;
;
START:
R=3;	C=2;
L1:	C+1; 	CALL DOIT;
IF C<42 THEN GOTO L1;
L2:	R+1;	CALL DOIT;
IF R<22 THEN GOTO L2;
L3:	C-1;	CALL DOIT;
IF C>3 THEN GOTO L3;
L4:	R-1;	CALL DOIT;
IF R>4 THEN GOTO L4;
RETURN;
;
" CONVERT TO DECIMAL";
DECMAL:	NUM1=.A;	NUM=0;
DLP:	NUM+10;	NUM1-$10;
IFF = THEN DLP;	IFF .C THEN DLP;
NUM-10;	NUM1+$10;	NUM1+NUM;	.A=NUM1;
RETURN;
;
POPUP:
SET .D;	POP.2 = POP+ONE;	CLEAR .D;
RETURN;
;
GENUP:
SET .D;	GEN.2 = GEN+ONE;	CLEAR .D;
RETURN;
PAGE;
DCL MSG1 CHAR INIT['THE GAME OF LIFE;'];
DCL MSG3 CHAR INIT['START OF POPULATION;'];
DCL MSG4 CHAR INIT['WHICH LINE (02-19);'];
DCL MSG5 CHAR INIT['WHICH COLUMN (02-39);'];
DCL MSG7 CHAR INIT['ANY MORE?;'];
DCL MSG8 CHAR INIT['GENERATION;'];
DCL MSG9 CHAR INIT['POPULATION;'];
DCL MSG10 CHAR INIT['LARGEST;'];
DCL MSG11 CHAR INIT['PLEASE WAIT;'];
DCL MSG12 CHAR INIT['POPULATION EXTERMINATED;'];
DCL MP CHAR INIT['+;'];
;
PAGE;
"POINTER FOR ROWS TABLE";
;
T1:
"********CSL SCREW UP...FIXIT****";
*
.AD ARR
.AD ARR+40
.AD ARR+80
.AD ARR+120
.AD ARR+160
.AD ARR+200
.AD ARR+240
.AD ARR+280
.AD ARR+320
.AD ARR+360
.AD ARR+400
.AD ARR+440
.AD ARR+480
.AD ARR+520
.AD ARR+560
.AD ARR+600
.AD ARR+640
.AD ARR+680
.AD ARR+720
*
;
DCL ARR[800];
DCL HOLD[800];
DCL C800 WORD INIT[800], ZERO WORD INIT[0];
DCL ONE WORD INIT[1];
DCL C39 WORD INIT[39], C41 WORD INIT[41];
EXIT;
