;
;************************************************
;**                                            **
;**      S P E I C H E R B E L E G U N G       **
;**                                            **
;************************************************
;
.IE @CONTR.S
.LC
.CE
;
;  ****   SPEICHERBEREICHE   ****
;
; (JE NACH SYSTEMKONFIGURATION ZU VEREINBAREN)
;
ZERO .DA $0000 ; <<<<<<<<<<<<
;
;
;  ****   Z E R O P A G E  -  BELEGUNG   ****
;
.DY ZERO
;
;+++++ HILFSZELLEN FUER ALLG. VERWENDUNG
HILF01 .DS 1
HILF02 .DS 1
HILFADR .DS 4 ; HILFSPEICHER FUER ADRESSE
POINT1 .DS 2
POINT2 .DS 2
;
RNGANF .DS 2
RNGEND .DS 2
DRIVE/NUM .DS 1 ; DRIVE# DER E.DATEI
ERR/OFFSET .DS 1 ; FEHLERZEIGER
;
;
POISTR .DS 3 ; ADRESSE+ANZAHL
;
HILFO1 .DS 1 ; HILFSZELLE FUER AUSGABE
MEM/PRUE .DS 1 ; HILFSZELLE MEMORY-PRUEFUNG (BIT 7=LOG1)
SWI/BRKCMD .DS 1 ; 0..NICHT ABGESCHLOSSEN , $FF..RUN OD. HALT
;
MODMOD .DS 1 ; MODIFY-MODE
MODINH .DS 1 ; INHALT MODIFY-ZELLE
MODADR .DS 2 ; ADRESSE MODIFY-ZELLE
GETSWI .DS 1 ; SCHALTER FUER TSYS-LESEN
MODHIL .DS 1 ; HILFSZELLE MODIFY
DISMEM .DS 16 ; MEMORY FUER 2.TEIL DISPL.
TELEGNUM .DS 1 ; HILFSZELLE TELEGRAMMNUMMER
ASYS/RAML .DS 1 ; HO-ADR ASYS-RAM ANFANG (INIT-CMD)
;
; ZEROPAGE-BELEGUNG LOADER,WRITE,READ
;
ADDRS .DS 4
STARTA .DS 2 ;STARTADR
H1 .DS 1
H2 .DS 1
OFFSET .DS 2
TEMPX .DS 1
TEMPY .DS 1
TEMPYY .DS 1
VADR .DS 2 ;FUER PUTDAT
TEMPA .DS 1
SAVE .DS 1
; DIV. SCHALTER
VADSW .DS 1 ;.DI 1 ... VADR GILT
SWI/MESS .DS 1 ; 0..MESSAGE , $FF..DIREKT
SWI/OUT .DS 1 ; 0..KEIN OUTPUT , $FF..OUTPUT
NUM/MESS .DS 1 ; MESSAGE-#
OFFSETSWI .DS 1 ; 0..OHNE OFFSET
SYSTEMSWI .DS 1 ; 0..TSYS
DISP/SWI .DS 1;0..DISPLAY, $FF..FIND
DISP/SYSWI .DS 1 ; 0..ASYS , $FF..TSYS
DISP/FIND .DS 1;VERGLEICHSBYTE BEI DISPLY-FIND
;
;  VEKTOREN , REGISTER
;
IRQVEKT .DS 2
RSTVEKT .DS 2
NMIVEKT .DS 2
;
GO/SWI .DS 1 ; 0...OHNE VEKTOR
;
;
SST/PC .DS 2 ; PROGRAMM-COUNTER
;
SST/ACCU .DS 1
SST/XREG .DS 1
SST/YREG .DS 1
SST/PREG .DS 1
SST/SREG .DS 1
;
XHEX/WERT .DS 2 ; ERGEBNIS
XHEX/MASK .DS 1 ; MASKE
XHEX/COUNT .DS 1 ; HILFSZAEHLER
;
HILF/BYTE .DS 1 ; HILFSZELLE
;
TRIG/MASK .DS 1 ; HILFSZELLE TRIGGERMASKE
TRIG/ADR .DS 2 ; HILFSZELLE TRIGGER-ADRESSE
TRIG/DAT .DS 1 ; HILFSZELLE TRIGGER-DATEN
TRIG/RWSYN .DS 1 ; HILFSZELLE  R/W,SYNC
TRIG/COUNT .DS 2 ; HILFSZELLE TRIG.-COUNTER SOLL/IST
WAIT/SWI .DS 1 ; 0..WAIT NICHT SINNVOLL (HALT)
WAIT/SWI/2 .DS 1 ; 0.. 1.MAL , $FF 2.-X.MAL
LOAD/SWI .DS 1 ; 0..VERSCHIEBEND
;
HILF/STA .DS 1 ; HILFSZELLE AUSGABE BUSSTATUS
HILF/DAT .DS 1 ; HILFSZELLE       - " -
HILF/ADL .DS 1 ; HILFSZELLE       - " -
HILF/ADH .DS 1 ; HILFSZELLE       - " -
;
SWIM/INI .DS 1 ; 0..ASYS NICHT INITIALISIERT
SWIM/INPH .DS 1 ; 0..INPUT OHNE KOPFZEILE
SWIM/INPC .DS 1 ; 0..NUR EINE AUSGABE
SWIM/BTCMD .DS 1 ; 0..CMD-FOLGENEINGABE (BRK,TRIG) GESPERRT
SWIM/ADOFF .DS 1 ; 0..KEIN OFFFSET BEI CMD
;
ADROFFSET .DS 2 ; OFFSET-ADRESSE FUER ADR UND RNG
;
;  ZELLEN FUER DISASSEMBLER
;
;
DIAS/CODE .DS 1 ; HILFSZELLE FUER NEUEN CODE
;
;
;  ****  RAM FUER TMOD  ****
;
TMO/RAM .DS TMLNG
JAHR .DS 2 ; JAHR DER BENUETZUNG
;
.EY
;
;  ****  SPEICHERZELLEN IM TSYS  ****
;
TSY/HSLSTA .DA $DEB4
TSY/HSLDAT .DA $DEB5
TSY/HSLADL .DA $DEB6
TSY/HSLADH .DA $DEB7
;
TSY/DMAMAS .DA $DED1
;
TSY/TRIADL .DA $DEF1
TSY/TRIADH .DA $DEF0
TSY/TRIDAT .DA $DEE1
TSY/TRIMAS .DA $DEE0
TSY/TRICOU .DA $DEB1
;
;
; -------------------------------
;
;   ENDE  SPEICHERBELEGUNGSPLAN
;
; -------------------------------
;
;
.LS
