





















                                    WWWWWWWW   WWWWWWWWW
                                    MMMMMMMM   MMMMMMMMM
                                    IIIIIIII   IIIIIIIII
                                    ********   *********
                                    XXXXXXXX   XXXXXXXXX
                                   WWWWWWWWW   WWWWWWWWW
                                   MMMMMMMMM   MMMMMMMMM
                                   IIIIIIIII   IIIIIIIII
                                   *********   *********
                                   XXXXXXXXX   XXXXXXXXX
                                   WWW         WWW
                                   MMM         MMM
                                   III         III
                                   ***         ***
                                   XXX         XXX
           WWWWWWWWW   WWWWWWWWW   WWWWWWWW    WWWWWWWW
           MMMMMMMMM   MMMMMMMMM   MMMMMMMM    MMMMMMMM
           IIIIIIIII   IIIIIIIII   IIIIIIII    IIIIIIII
           *********   *********   ********    ********
           XXXXXXXXX   XXXXXXXXX   XXXXXXXX    XXXXXXXX
           WWW   WWW   WWW         WWWWWWWWW   WWWWWWWWW
           MMM   MMM   MMM         MMMMMMMMM   MMMMMMMMM
           III   III   III         IIIIIIIII   IIIIIIIII
           ***   ***   ***         *********   *********
           XXX   XXX   XXX         XXXXXXXXX   XXXXXXXXX
           WWWWWWWWW   WWWWWWWWW   WWW   WWW         WWW
           MMMMMMMMM   MMMMMMMMM   MMM   MMM         MMM
           IIIIIIIII   IIIIIIIII   III   III         III
           *********   *********   ***   ***         ***
           XXXXXXXXX   XXXXXXXXX   XXX   XXX         XXX
           WWW               WWW   WWWWWWWWW   WWWWWWWWW
           MMM               MMM   MMMMMMMMM   MMMMMMMMM
           III               III   IIIIIIIII   IIIIIIIII
           ***               ***   *********   *********
           XXX               XXX   XXXXXXXXX   XXXXXXXXX
           WWWWWWWWWWWWWWWWWWWWW    WWWWWWW    WWWWWWWW
           MMMMMMMMMMMMMMMMMMMMM    MMMMMMM    MMMMMMMM
           IIIIIIIIIIIIIIIIIIIII    IIIIIII    IIIIIIII
           *********************    *******    ********
           XXXXXXXXXXXXXXXXXXXXX    XXXXXXX    XXXXXXXX





                         SYSTEM  es65


                     es65-ASSEMB VER.B.6.5









                                             F. Beranek

                                           September 1981



 0. INHALT
    ------


   1. FUNKTION                                         1

   2. ARBEITSWEISE                                     2

     2.1. Syntaktischer Aufbau eines Assembler-Prog.   2

     2.2. Struktur eines Assembler-Programmes          5

     2.3. Globale symbolische Adressen                 7

     2.4. Bedingte Assemblierung                       8

     2.5. Objekt-Modul                                 9

     2.6. Uebersetzer-Liste                           10

     2.7. Eindeutige Namen                            11

     2.8. Makros                                      12

     2.9. Automatische Zero-Page-Adressierung         15

   3. META-AUSDRUECKE                                 16

   4. AUFRUF                                          21

   5. PSEUDO-OPERATIONEN                              23

     5.1. Funktionelle Gruppierung                    23

     5.2. Beschreibung der Pseudo-Operationen         25

   6. FEHLERMELDUNGEN                                 49

     6.1. Standard-Fehlermeldungen                    49

     6.2. Syntaxfehler in Programmzeilen              50

   ANHANG A - PROGRAMMBEISPIEL                        51

   ANHANG B - BEISPIEL - MAKROS                       57

   ANHANG C - AENDERUNGEN GEGENUEBER VERS.6.3         58

                                                       - 1 -


1. FUNKTION
   --------


  Das Dienstprogramm es65-ASSEMB uebersetzt Assembler-Programme
  fuer die Prozessoren 650X.

  Die Eingabedaten (das Source-Programm) muessen auf der Floppy als
  ASCII-Datei gespeichert sein.
  Es ist moeglich, dass das Source-Programm auf mehrere Dateien
  aufgesplittet ist (um es mit dem es65-EDIT bearbeiten zu koennen).
  Diese Dateien werden vom Assembler so behandelt, als ob sie eine
  einzige Datei waeren.

  Als Ergebnis der Uebersetzung wird einerseits eine Datei mit dem
  Objekt-Modul andererseits eine Uebersetzerliste auf der Floppy,
  am Drucker oder am Terminal erzeugt.
  Beide Ausgaben koennen auch unterdrueckt werden.

  Da der ASSEMB in PROM resident gespeichert ist, steht der Arbeits-
  speicher des Benutzers ganz fuer die Symboltabelle zur Verfuegung.
  Sollte der Speicher fuer die Symboltabelle nicht ausreichen, so
  wird (falls vorhanden) vom Monitor ein "Zusatz-RAM" angefordert.

  Der ASSEMB arbeitet mit mehreren Zuordnungszaehlern, um einzelne
  Programm- bzw. Datensegmente beliebing im Speicher verschieben zu
  koennen. Dies ist beim Binden und beim Laden des Objekt-Codes
  moeglich.

  Durch die Moeglichkeit der bedingten Assemblierung lassen sich
  z.B. auf einfache Weise verschiedene Versionen eines Programmes
  erzeugen.

  Der ASSEMB ermoeglicht, in Zusammenarbeit mit dem Binder es65-LINK,
  modulare Programmierung, d.h. ein Programm wird aus voneinander
  unabhaengig erstellten und getesteten Modulen gebildet, welche
  durch globale Adressen mit Hilfe des Binders verknuepft werden.

  Der ASSEMB ermoeglicht die Verwendung von Makros.
  Diese koennen im Programm direkt definiert werden, oder in einer
  Macro-Bibliothek gespeichert sein (siehe dazu Beschreibung MACGEN).
                                                       - 2 -


2. ARBEITSWEISE
   ------------


  Der ASSEMB ist ein Zwei-Phasen-Assembler, d.h. das Source Programm
  (welches aus mehreren Source Dateien bestehen kann) wird zweimal
  bearbeitet:

  Phase 1  In dieser Phase werden alle Symboldefinitionen gesammelt
           und in der Symboltabelle gespeichert. Bezuege auf Adressen
           werden, ausser in Pseudo-Operationen, nicht beachtet.

  Phase 2  In dieser Phase erfolgt die eigentliche Uebersetzung.
           Mit Hilfe der Symboltabelle, die in der ersten Phase
           erstellt wurde, koennen alle Befehle (auch solche mit
           Vorwaertsbezuegen) uebersetzt werden.
           Es wird ein Objekt-Modul und eine Uebersetzungsliste
           erzeugt. Das Objekt-Modul enthaelt das uebersetzte Modul
           in verschiebbarer Form. Dieses kann durch den Binder
           es65-LINK oder den Lader (im Debugger) weiter verarbeitet
           werden.
           Die Uebersetzerliste enthaelt (auf Wunsch - durch Pseudo-
           Operationen steuerbar) eine Liste des Programmes, eventuell
           aufgetretene Fehler und einen Ausdruck der Symboltabelle.






2.1. Syntaktischer Aufbau eines Assembler-Programmes
     -----------------------------------------------



    Die Eingabedaten fuer den Assembler (das Sourceprogramm) muessen
    in einer Datei (oder mehreren Dateien) vom Typ ASCII auf der
    Floppy gespeichert sein. Diese Dateien koennen mit dem es65-EDIT
    erstellt und geaendert werden.

    Jede Zeile wird einzeln verarbeitet. Die Laenge der Zeilen ist auf
    72 Zeichen beschraenkt.


    Eine Zeile kann von einer der folgenden Typen sein:


2.1.1. Kommentarzeile

      Ist eine Zeile, die als erstes Zeichen ungleich Blank einen
      Strichpunkt (;) enthaelt, oder eine Leerzeile.
      Eine solche Zeile dient nur zur Dokumentation und erzeugt
      keinen Objekt-Code.

                                                       - 3 -


2.1.2. Symbolischer Befehl

      Eine solche Zeile stellt einen Maschinenbefehl in symbolischer
      Schreibweise dar. Eine eventuell angegebene <symb.Adr> dient
      der Kennzeichnung dieses Befehls, um von anderen Befehlen darauf
      Bezug nehmen zu koennen.
      Eine solche Zeile ergibt nach der Uebersetzung 1 bis 3 Byte
      Objekt-Code (je nach Adressierungsart).

      Sie besteht aus maximal vier Feldern

      [<symb.Adr> ]<Operation> [<Operand>][<Kommentar>]

      von denen mindestens <Operation> vorhanden sein muss.
      Der Aufbau der einzelnen Felder ist in Abschnitt 3. beschrieben.

      Die Zeile muss in keinem fixen Format eingegeben werden.
      Der ASSEMB bringt jede Zeile in ein fixes Format. In diesem
      Format wird die Zeile auch in die Uebersetzerliste geschrieben.
      Dieses Formatieren geht nach folgendem Algorithmus vor sich:
      Fuehrende Leerzeichen (Blanks) werden uebergangen. Ist der
      darauffolgende Text ein gueltiger <Operation>, so wird das
      Feld <symb.Adr> als leer und der Text als <Operation> an-
      genommen. (d.h. eine <symb.Adr> kann keine <Operation> sein)
      Andernfalls wird der Text (bis zum ersten Zeichen, welches in
      <symb.Adr> unzulaessig ist) als <symb.Adr> und (nach Uebergehen
      der Leerzeichen der naechste Text als <Operation> angenommen.
      <Operation> wird durch ein Leerzeichen, einen Strichpunkt oder
      Zeilenende beendet.
      Strichpunkt und Zeilenende sind nur zulaessig, wenn fuer diese
      <Operation> kein <Operand> notwendig ist.
      Tritt ein Strichpunkt auf, so wird das Feld <Operand> als leer
      angenommen und der Rest der Zeile (ab dem Strichpunkt) als
      Kommentar betrachtet.
      Tritt Zeilenende auf, so werden <Operand> und <Kommentar> als
      leer angenommen.
      Tritt ein Leerzeichen auf, so wird, nach Uebergehen der Leer-
      zeichen, der Text bis zum naechsten Leerzeichen, Strichpunkt
      oder Zeilenende als <Operand>, der Rest (wenn vorhanden) als
      <Kommentar> angenommen.

2.1.3. Pseudo-Operation

      Eine solche Zeile enthaelt eine Steueranweisung fuer den ASSEMB.
      Die moeglichen Pseudo-Operationen und deren Wirkung wird im
      Abschnitt 5. beschrieben.
      Eine solche Zeile ergibt nach dem Uebersetzen 0 bis N Byte
      Objekt-Code.

      Sie besteht aus maximal vier Feldern

      [<Symb.Adr> ]<Pseudo-Op>[ <Ps-Operand>][<Kommentar>]

      von denen mindestens <Pseudo-Op> vorhanden sein muss.

      Die Formatierung erfolgt analog der Formatierung eines
      symbolischen Befehls (2.1.2.).

                                                       - 4 -


2.1.4. Makro-Aufruf

      Eine solche Zeile stellt den Aufruf eines Makros dar.
      Dieses Makro muss entweder in der verwendeten Makro-Bibliothek
      enthalten sein, oder im Programm vor dem ersten Aufruf definiert
      werden.
      Es werden je nach Makro 0 bis N Byte Objekt-Code erzeugt.

      Sie besteht aus maximal vier Feldern:

      [<symb.Adr> ]<Makro-Name>[ (<Makro-Op>)][<Kommentar>]

      von denen mindestens <Makro-Name> vorhanden sein muss.

      Die Formatierung erfolgt analog der Formatierung eines
      symbolischen Befehls (2.1.2.).
      Zu beachten ist, dass <Makro-Name> NICHT gleich <Operation> oder
      <symb.Adr> sein darf!

                                                       - 5 -


2.2. Struktur eines Assembler-Programmes
     -----------------------------------


    Ein typisches Programm fuer den Prozessor 650X verwendet drei
    verschiedene Speicherbereiche:

    - Zero-Page fuer
      verschiedene Datenbereiche, insbesondere Vektoren fuer die
      indirekte Adressierung.

    - RAM fuer
      groessere Datenbereiche, die in der Zero-Page keinen Platz
      finden.

    - PROM fuer
      die Speicherung des Programmes.

    Diese Speicherbereiche liegen (ausser dem Bereich in der Zero-
    Page) an beliebigen Adressen.


    Dementsprechend laesst sich diese Unterteilung (Segmentierung)
    auch in einem Assembler-Programm angeben.
    Um auch komplexeste Aufgaben loesen zu koennen, sind jedoch nicht
    nur die drei "Grundsegmente" (Zero-Page (Z) Data (D) Program (P)),
    sondern ausserdem
    - 7 allgemeine Segmente
    - 3 Common-Segmente
    - 1 Absolut-Segment
    - 1 Segment fuer Scheinvereinbarungen (Dummy-Section)
    moeglich.


    Im Folgenden werden die einzelnen Segmente naeher beschrieben:

2.2.1. Zero-Page-Segment (Z)

      Enthaelt keinen Objekt-Code sondern nur Datenbereiche, welche
      in der Zero-Page liegen. Dementsprechend sind symbolische
      Befehle, sowie Pseudo-Operationen, welche Objekt-Code erzeugen,
      in diesem Segment verboten.
      Das Segment kann als Ganzes an eine beliebige Adresse (in der
      Zero-Page) verschoben werden. Dieses Verschieben kann beim
      Assemblieren (durch die Pseudo-Operation .SG), beim Linken
      oder beim Laden erfolgen.
      Beim Linken mehrerer Module werden die Zero-Page-Segmente der
      einzelnen Module aneinander gereiht.

      Beispiel:          .SG Z,$40
                POINT1   .DS 2
                POINT2   .DS 2
                H/ZELLE  .DS 1

2.2.2. Daten-Segment (D)

      Aufbau und Verwendung des Daten-Segments erfolgt analog dem
      Zero-Page-Segment, mit der Ausnahme, dass das Daten-Segment
      an einer beliebigen Adresse liegen kann.

                                                       - 6 -


2.2.3. Programm-Segment (P)

      Dieses Segment enthaelt das Programm. Laeuft das Programm in
      RAM, so koennen auch Datenbereiche in diesem Segment vereinbart
      werden.
      Alles weitere gilt wie bei 2.2.1..

2.2.4. Allgemeine Segmente (S1-S7)

      Koennen (fuer komplexe Aufgaben) als Programm- oder Daten-
      Segment verwendet werden (siehe 2.2.2. und 2.2.3.).

2.2.5. Common-Segmente (C1-C3)

      Unterscheiden sich nur in folgendem Punkt von den allgemeinen
      Segmenten:

      Es duerfen nur Datenbereiche vereinbart werden (siehe 2.2.1).
      Beim Linken mehrerer Module werden die einzelnen Common-Segmente
      nicht aneinandergereiht, sondern ueberlagert.

2.2.6. Absolut-Segment (A)

      Kann als Programm- oder Datensegment verwendet werden. Das
      Absolut-Segment kann auf mehrere Speicherbereiche verteilt
      sein. Die Lage kann NUR bei der Assemblierung festgelegt werden.
      Linker und Lader koennen das Absolut-Segment nicht verschieben.

      Dieses Segment ist nur in Ausnahmefaellen zu benuetzen (z.B.
      ein kurzes Testprogramm, oder ein Programmteil muss unbedingt
      an einer bestimmten Stelle im Speicher stehen).

2.2.7. Segment fuer Scheinvereinbarungen (Y)

      In diesem Segment koennen nur Datenbereiche definiert werden.
      Diese Datenbereiche stellen aber keine echten Daten dar, sondern
      dienen nur zur Beschreibung des Aufbaus eines Datenbereiches,
      welcher irgendwo im Speicher liegt.

                                                       - 7 -


2.3. Globale symbolische Adressen
     ----------------------------


  Eine symbolische Adresse kann in Hinblick auf den Gueltigkeits-
  bereich einer der folgenden drei Typen zugeordnet werden:


2.3.1. Intern definierte symbolische Adresse

    Diese sind nur innerhalb der Module bekannt, in denen sie
    definiert werden.
    Dies ist die Standardform und bedarf keiner besonderen Kenn-
    zeichnung.


2.3.2. Allgemein definierte symbolische Adresse (ENTRY)

    Diese sind innerhalb eines Modules definiert und innerhalb und
    ausserhalb dieses Modules bekannt.
    Sie werden wie interne symbolische Adressen definiert, jedoch
    zusaetzlich mit der Pseudo-Operation .EY gekennzeichnet.


2.3.3. Extern definierte symbolische Adresse (EXTERNAL)

    Diese sind ausserhalb eines Modules definiert, jedoch innerhalb
    dieses Modules verwendbar.
    EXTERNAL und ENTRY ergaenzen einander. Ein EXTERNAL muss in einem
    anderen Modul als ENTRY definiert sein.
    Ein EXTERNAL hat zum Zeitpunkt der Uebersetzung noch keinen Wert.
    Erst beim Binden wird eine Adresse zugeordnet.

                                                       - 8 -



2.4. Bedingte Assemblierung
     ----------------------


    Mit Hilfe der bedingten Assemblierung koennen von einem Source-
    Programm durch Steuerung verschiedene Objekt-Programme erstellt
    werden.
    Zur Steuerung der bedingten Assemblierung sind im ASSEMB
    "Assembler-Variable" (<@-Variable>) implementiert. Diese werden
    von den symbolischen Adressen klar unterschieden (erster Buchstabe
    ist "@") und koennen nicht statt einer symbolischen Adresse ver-
    wendet werden.
    Durch die Moeglichkeit eine Assemblervariable (mit dem Namen "@")
    beim Aufruf des ASSEMB anzugeben, laesst sich die bedingte
    Assemblierung steuern,ohne das Source-Programm aendern zu muessen.
    Der Wert von Assembler-Variablen kann mit der Pseudo-Operation
    SET (.ST) geaendert werden.

    Im Zusammenhang mit Makros faellt der bedingten Assemblierung eine
    besondere Bedeutung zu. Nur dadurch koennen durch Makros (ge-
    steuert durch die angegebenen Parameter (<Makro-Op>)) verschiedene
    Programmteile mit demselben Makro erzeugt werden.

    Beispiel:

    Ein Programm zur Bedienung eines Terminals wird geschrieben.
    Es soll entweder Terminals mit 40 oder 80 Zeichen/Zeile bedienen.
    Der Grossteil des Programmes wird unabhaengig von der Zeilenlaenge
    sein, ein Teil jedoch spezifisch dafuer.
    In diesem Fall wird man sinnvoll die bedingte Assemblierung
    einsetzen.
    In das Programm werden beide Programmteile (fuer 40 und 80 Z/Z)
    aufgenommen, jedoch nur einer dieser Teile wird assembliert.
    Die Auswahl des gewuenschten Teiles erfolgt ueber eine Assembler-
    variable.

                        .IE @LAENGE-40
            ;Source fuer 40 Zeichen/Zeile
            ...
            ..
            .
                        .CE
                        .IE @LAENGE-80
            ;Source fuer 80 Zeichen/Zeile
            ...
            ..
            .
                        .CE

    Je nachdem @LAENGE den Wert 40 oder 80 hat, wird eines der beiden
    Programmstuecke assembliert.

    Weitere Beispiele siehe 2.8. Makros.

                                                      - 9 -


2.5. Objekt-Modul
     ------------


  Der erzeugte Objekt-Code wird als Objekt-Modul gespeichert.
  Ein solches kann vom Binder oder Lader (im Debugger) weiter-
  verarbeitet werden.

  Werden in einem Modul keine globalen Adressen verwendet, so ist das
  Modul gleichzeitig ein Programm.
  Andernfalls muessen mehrere Objekt-Module durch den Binder zu einem
  Programm verknuepft werden.

  Ein Objekt-Modul wird nur erzeugt, wenn bei der Uebersetzung keine
  Fehler auftraten.

  Folgende Daten sind in einem Objekt-Modul gespeichert:

  - Name des Modules
    Kann durch die Pseudo-Operation .MO festgelegt werden. Ist dies
    nicht der Fall, so wird aus dem Namen der Datei, die dieses Modul
    enthaelt, ein Modul-Name erzeugt.
  - Datum der Erzeugung
  - Anfangsadressen und Laengen der einzelnen Segmente
    Die Anfangsadressen koennen mit der Pseudo-Operation .SG angegeben
    werden. Ansonsten werden die Standardwerte ($0000) verwendet.
  - erzeugter Objekt-Code in verschieblicher Form
  - Alle ENTRIES und EXTERNALS sowie Information ueber deren
    Definition und Verwendung
  - Auf Wunsch (Parameter "*I" beim Aufruf):
    Alle intern definierten symbolischen Adressen (ausser solchen,
    die durch die Pseudo-Operation .SC unterdrueckt wurden).
  - Wenn angegeben: Startadresse des Modules
    Diese kann durch die Pseudooperation .EN angegeben werden

                                                       - 10 -


2.6. Uebersetzer-Liste
     -----------------


  Die erzeugte Liste besteht aus zwei Teilen:


2.6.1. Source-Programm Liste

    Ist der Schalter "LIST" gesetzt, so werden alle Source-Zeilen,
    ausser eventuell einigen Pseudo-Operationen (siehe 4. - *N),
    die Liste geschrieben (siehe .LS und .LC).

    Durch Makro-Expansion erzeugte Zeilen (siehe 2.8.) werden nur dann
    in die Liste uebernommen, wenn die Schalter "LIST" und "LISTEXP"
    gesetzt sind (siehe .LS .LC .ES .EC).
    Wurde beim Aufruf der Parameter "*N" nicht angegeben, so werden
    vor der ersten Source-Zeile mehrere Zeilen als "Pseudo-Kommentar"
    ausgegeben, welche die Vorbesetzung der Assembler-Variable "@",
    die Namen der verwendeten Source-Dateien und den Namen der Macro-
    Bibliothek enthalten (das Overlay muss verwendet werden "V=").

    Die Liste enthaelt:
    - Spalte 1 ist leer oder enthaelt eine Fehlermarkierung (siehe 6.)
    - Spalte 2 ist leer oder enthaelt ein "Z" (siehe 2.9.)
    - den momentanen Zuordnungszaehler oder bei manchen Pseudo-
      Operationen das Ergebnis dieser Pseudo-Operation
    - maximal die ersten 3 Byte des erzeugten Objekt-Codes.
      Zu beacheten ist, dass beim Binden und/oder Laden der Adressteil
      eines Befehles veraendert werden kann.
    - die Nummer der Source-Datei
    - einen Doppelpunkt (:) fuer eine "normale" Zeile oder
      einen Bindestrich (-) fuer eine Zeile, die durch Makro-Expansion
      entsteht
    - die Zeilennummer
    - den Zeileninhalt in tabulierter Form.


2.6.2. Ausdruck der Symboltabelle

    Der Ausdruck der Symboltabelle enthaelt alle symbolischen
    Adressen, die definiert wurden, waehrend der Schalter "SYMBOL"
    gesetzt war (siehe .SS .SC).
    Die Ausgabe der Symboltabelle erfolgt nur, wenn am der Parameter
    "*S" beim Aufruf angegeben wurde.

    Dieser Ausdruck enthaelt:
    - Spalte 1 ist leer oder enthaelt einen Stern (*), wenn eine
      symbolische Adresse zwar definiert, aber nicht verwendet wurde
    - den Namen der symbolischen Adresse
    - ein Leerzeichen, ein "X" oder ein "Y" als Kennzeichen, ob es
      sich um eine intern, extern oder allgemein definierte
      symbolische Adresse handelt.
      Ein Makro-Name wird durch ein "M" in dieser Spalte gekenn-
      zeichnet.
    - Die symbolische Bezeichnung des Segmentes, in wlechem die
      symbolische Adresse definiert wurde
    - die Adresse der symbolischen Adresse.

                                                       - 11 -

2.7. Eindeutige Namen
     ----------------

  Viele Unterprogramme verwenden Hilfszellen (z.B. Pointer in der
  Zero-Page). Es ist gefaehrlich, in verschiedenen Unterprogrammen
  dieselben Hilfszellen zu verwenden, da dies zu schwer zu findenden
  Fehlern fuehren kann.
  Man muss also fuer jedes Unterprogramm eigene Namen fuer die Hilfs-
  zellen erfinden.

  Eine andere Moeglichkeit besteht darin, dem Assembler eindeutige
  Namen erzeugen zu lassen.
  Dazu existieren vier Pseudo-Operationen: .BB .BE .SB .SE

  Die Funktion von .BB (Block-Begin) und .BE (Block-End) soll nun
  betrachtet werden.
  Es existiert ein assemblerinterner, zweistelliger Zaehler (der
  Block-Sequence-Counter), der die Werte von 00 bis ZZ annehmen kann.
  Bei jedem Aufruf von .BB wird der momentane Zaehlerstand in einem
  Stack abgelegt und dem Zaehler ein eindeutiger Wert zugewiesen.
  Bei jedem .BE wird vom Stack wieder der vorherige Zaehlerstand her-
  gestellt.

  Beispiel:   Zaehler   Schachtelung der Bloecke    Pseudo-Ops.
                00               I
                                 I                     .BB
                01                I
                                  I
                                  I                    .BB
                02                 I
                                   I                   .BE
                01                I
                                  I                    .BB
                03                 I                   .BB
                04                  I                  .BE
                03                 I
                                   I                   .BE
                01                I                    .BE
                00               I

  Dieser Zaehler wird (wenn sein Wert ungleich "00" ist) in jeder
  Zeile statt der Zeichenfolge "@@" eingesetzt.
  Der Wert des Zaehlers ist "00", solange kein .BB gegeben wurde, oder
  Alle .BB wieder durch .BE rueckgaengig gemacht wurden.
  ACHTUNG: Das Einsetzen des Zaehlers erfolgt in der GANZEN Zeile
    (also auch in Literalen und im Kommentar).

  Beispiel: der Wert des Zahlers ist "3K"
    Source-Zeile:      MARK@@ LDA  :HILF@@
    erzeugte Zeile:    MARK3K     LDA :HILF3K

  Die Funktion von .SB (Structure-Begin) und .SE (Structure-End) ist
  analog. Die, durch den Structure-Sequence-Counter ersetzte Zeichen-
  folge ist "//".

  Ab einer Pseudo-Operation .BB oder .SB wird die Liste des Source-
  Programms um 2 Stellen eingerueckt. Diese Einrueckung wird durch
  .BE oder .SE wieder rueckgaengig gemacht.

  "Bloecke" und "Strukturen" sind voneinander unabhaengig und koennen
  beliebig ge- und verschachtelt werden.


                                                       - 12 -

  2.8. Makros
       ------

  In Assembler-Programmen kommen bestimmte Befehlsfolgen immer wieder
  vor (z.B. Uebertragen eines Speicher-Bereiches).
  Meistens sind diese Folgen nicht voellig identisch, sondern es
  werden verschiedene Adressen, Zaehler usw. verwendet.

  Eine Moeglichkeit, die Programmierzeit zu verringern ist die
  Verwendung vorgefertigter Unterprogramme, an welche alle variablen
  Daten uebergeben werden. Diese Unterprogramme sind jedoch recht
  aufwendig, da sie allgemein gehalten sein muessen (indirekte
  Adressierung) und rentieren sich daher nur fuer groessere Sachen
  (z.B.: Mathematik-Routinen, Handler fuer Interface-Karten usw.).
  Bei dieser Methode existiert also ein Programmteil (das Unter-
  programm), welches von mehreren Stellen des Programms angesprungen
  wird, wobei jedesmal verschiedene Variable mit uebergeben werden.

  Die zweite Moeglichkeit der Loesung dieses Problems besteht in der
  Verwendung von Makros.
  Dabei wird zum Zeitpunkt des Assemblierung jedesmal ein
  "massgeschneiderter" Programmteil durch Aufruf eines Makros erzeugt.
  Es entsteht also der Programmteil mehrmals, jedesmal mit einer
  anderen, den Erfordernissen entsprechenden, Befehlsfolge.

  Makros bieten also folgende Vorteile:
  - Das langweilige Schreiben bestimmter, immer wiederkehrender
    Befehlsfolgen (und damit die Fehlerwarscheinlichkeit) wird
    verringert.
  - Die Programme werden bei sinnvoller Verwendung der Makros besser
    lesbar und leichter wartbar.
  - Makros koennen in einer Makrobibliothek zusammengefasst werden
    und koennen so mit minimalem Aufwand verwendet werden.


2.8.1. Makro-Definition

    Bevor ein Makro verwendet werden kann, muss es definiert werden.
    Diese Definition kann im Programm direkt erfolgen, oder sie kann
    bereits in der verwendeten Makro-Bibliothek vorhenden sein.
    Eine Makro-Definition beginnt mit der Pseudo-Operation .MD, wobei
    der Name des Makros, sowie eventuell vorhandene Parameter an-
    gegeben werden. Die letzte Zeile einer Definition ist die Pseudo-
    Operation .ME. Dazwischen koenne beliebige Zeilen stehen.
    In diesen Zeilen - dem Makro-Rumpf - koennen die bei .MD
    definierten Parameter - die formalen Parameter - verwendet werden.

    Beispiel:   Inkrementieren eines Wortes (2 Byte)

                INCW       .MD (ZELLE)
                           INC ZELLE
                           BNE *+5
                           INC ZELLE+1
                           .ME

                Der Name des Makros ist "INCW".
                Der (einzige) formale Parameter heisst "ZELLE".

                                                       - 13 -


2.8.2. Makro-Aufruf

    Der Aufruf eines Makros erfolgt durch Angabe seines Namens
    (siehe 2.1.4.). Eventuell notwendige Parameter sind in Klammern
    eingeschlossen anzugeben.
    Beim Aufruf erflogt eine Zuweisung des Wertes der angegebenen
    Parameter - der aktuellen Parameter - an die formalen Parameter.
    Es muessen aber nicht alle Parameter angegeben sein (das Komma
    als Trennzeichen zwischen den Parametern ist zu schreiben, sofern
    noch Paramter folgen). Die Tatsache ob fuer einen formalen
    Parameter ein aktueller Parameter angegeben wurde, kann durch
    bedingte Assemblierung ausgewertet werden (siehe .IA .IG).
    Danach wird der Makro-Rumpf unter Verwendung der Werte der
    formalen Parameter uebersetzt. Dies wird als Makro-Expansion
    bezeichnet.
    Die Expansion endet durch die Pseudo-Operation .ME oder .MX.
    In einem Makro-kann wieder ein Makro aufgerufen werden (maximale
    Schachtelung ist 4).
    Beim Aufruf werden folgende Werte in einem Stack sichergestellt
    und nach Ende der Expansion wiederhergestellt:
    - die Schalter LIST, LISTEXP und SYMBOL
    - die Macro-Sequence-Number (siehe 2.8.3.)
    - die vor dem Aufruf gueltigen formalen Parameter (nur bei
      geschachtelten Makroaufrufen).

    Beispiele: (Definition von 2.8.1. - INCW)

      INCW ($2100)   ... erhoeht das Wort $2100-$2101 um 1
      INCW (POINT)   ... erhoeht das Wort POINT-POINT+1 um 1

      Liegt in obigem Beispiel POINT in der Zero-Page, so werden durch
      die INC-Befehle 2 Byte Objekt-Code verschwendet.
      Eine moegliche Abhilfe ist durch Verwendung eines zweiten
      Parameters zur Unterscheidung zwischen Zero-Page und "normaler"
      Adresse gegeben:

                INCW       .MD (ZELLE,@ZERO)
                           .IG @ZERO
                           INC :ZELLE
                           BNE *+4
                           INC :ZELLE+1
                           .CE
                           .IA @ZERO
                           INC ZELLE
                           BNE *+5
                           INC ZELLE+1
                           .CE
                           .ME
      Wird ein zweiter Parameter angegeben (egal was), so wird
      Zero-Page-Lage angenommen, ansonsten "normale" Lage des Wortes.

                           INCW ($23,Z)
                HIER       INCW (POINTER,ZERO/PAGE)
                           INCW ($2134)

      Da der zweite Parameter nicht verwendet wird (es wird nur sein
      Vorhandensein geprueft), kann auch eine undefinierte symbolische
      Adresse angegeben werden.

                                                       - 14 -


      Fuer die Uebersetzungszeit guenstiger waere allerdings folgende
      Definition des Makros INCW:

                INCW       .MD (ZELLE,@ZERO)
                           .IG @ZERO
                           INC :ZELLE
                           BNE *+4
                           INC :ZELLE+1
                           .MX                 ;EXIT FROM MACRO
                           INC ZELLE
                           BNE *+5
                           INC ZELLE+1
                           .ME

      Durch .MX wird die Makro-Expansion vorzeitig abgebrochen, falls
      es sich um eine Zero-Page-Adresse handelt (der haeufigere Fall).

      Eine andere Moeglichkeit besteht in der Verwendung der Pseudo-
      Operation ".IS":

                INCW       .MD (ZELLE,ZERO/MERKER)
                           .IS ZERO/MERKER,ZERO
                           INC :ZELLE
                           BNE *+4
                           INC :ZELLE+1
                           .MX
                           INC ZELLE
                           BNE *+5
                           INC ZELLE+1
                           .ME

      In diesem Fall ist das Schluesselwort "ZERO" anzugeben, falls
      Zero-Page-Adressierung gewuenscht ist.


2.8.3. Eindeutige Namen in Makros

    Werden in einem Macro symbolische Adressen (als Sprungziel)
    definiert, so fuehrt dies dazu, dass ab dem zweiten Aufruf
    dieses Makros diese symbolischen Adressen mehrfach definiert sind.

    Als Abhilfe existiert ein Zaehler - der Macro-Sequence-Counter -
    welchem bei jedem Macroaufruf ein eindeutiger Wert zugewiesen
    wird.
    In der Makro-Expansion wird die Zeichenfolge "##" durch diesen
    Zaehler ersetzt (Naeheres analog 2.7.).

    Beispiel:
                INCW       .MD (ZELLE)
                           INC ZELLE
                           BNE NICHT0##
                           INC ZELLE+1
                NICHT0##   .EQ *
                           .ME

      Wird die Moeglichkeit der automatischen Zero-Page-Adressierung
      verwendet (Paramaeter "*Z" beim Aufruf - siehe 2.9.), so ist
      dies die guenstigste Form dews Macros INCW.

                                                      - 15 -


    2.9. Automatische Zero-Page-Adressierung
         -----------------------------------

    Wird beim Aufruf der Parameter "*Z" angegeben, so werden
    Zero-Page-Befehle selbst erkannt und entsprechend uebersetzt,
    wenn folgende Bedingungen bei der Analyse von <Ausdruck>
    erfuellt sind:
    - alle im <Ausdruck> verwendeten <Symb.Adr> muessen vorher
      definiert sein
    - der Ausdruck muss vom Typ
      absolut
      relativ im Z-Segment oder
      unbestimmt sein
    - Ist der Ausdruck vom Typ unbestimmt, so muss die externe
      Adresse durch .EZ definiert sein
    - Der Wert des Ausdrucks darf maximal $FF sein
    - die gewaehlte Adressieungsart muss fuer die Zero-Page moeglich
      sein.

    Befehle, bei welchen die Zero-Page-Adressierung automatisch
    angenommen wird, werden in der Spalte 2 der Uebersetzerliste
    mit einem "Z" markiert.

    Die Kennzeichnung von Zero-Page-Befehlen durch Doppelpunkt
    ist gleichzeitig moeglich.


    ACHTUNG!
      Die Adressierungsarten "ABSOLUT INDEXED" und "ZERO-PAGE INDEXED"
      unterscheiden sich grundsaetzlich (page crossing).

                                                       - 16 -


3. META-AUSDRUECKE
   ---------------

  Ausser den unten angefuehrten Meta-Ausdruecken werden in dieser
  Beschreibung auch die allgemein gueltigen Meta-Ausdruecke des
  Systems verwendet (siehe Beschreibung es65-MONITOR).

+--------------------------------------------------------------------+
I                                                                    I
I <symb.Adr>     ::= <Name>                                          I
I                                                                    I
I                Stellt eine symbolische Adresse dar (16 Bit Wert),  I
I                auf welche im Programm Bezug genommen werden kann.  I
I                Der Name darf maximal 10 Zeichen lang sein und      I
I                das erste Zeichen darf nicht "@" sein.              I
I                Der symbolischen Adresse wird der Typ absolut oder  I
I                relativ zugeordnet, je nachdem, in welchem Segment  I
I                und auf welche Weise sie definiert wird.            I
I                In der Symboltabelle wird dieser Typ, wie folgt,    I
I                gekennzeichnet:                                     I
I                                                                    I
I                A  Die symbolische Adresse ist absolut definiert,   I
I                   d.h. ein Bezug auf sie wird beim Verschieben     I
I                   nicht veraendert.                                I
I                   Eine absolute Definition wird angenommen, wenn   I
I                   die symbolische Adresse im Absolut-Segment       I
I                   definiert wird, oder die Definition durch die    I
I                   Pseudo-Operation .EQ absolut vorgenommen wird.   I
I                Y  Die symbolische Adresse ist im Segment fuer      I
I                   Scheinvereinbarungen definiert und wird als      I
I                   absolut betrachtet.                              I
I                Alle uebrigen (Z, D, P, S1-S7, C1-C3)               I
I                   Die symbolische Adresse ist verschieblich        I
I                   (relativ) definiert, d.h. ein Bezug auf sie      I
I                   wird beim Verschieben des entsprechenden         I
I                   Segmentes geaendert.                             I
I                                                                    I
I                Eine durch die Pseudo-Operation definierte, externe,I
I                symbolische Adresse hat einen unbestimmten Wert.    I
I                                                                    I
I     Beispiele: H/ZELLE  POINTER1  A  ANF.001  MARKE#1              I
I                                                                    I
I                                                                    I
+--------------------------------------------------------------------+

                                                       - 17 -


+--------------------------------------------------------------------+
I                                                                    I
I <Wert>         ::= <symb.Adr> | <Adresse> | * | <Formalpar> |      I
I                    <@-Variable> | <Literal>                        I
I                                                                    I
I                Stellt eine 16-Bit Groesse dar. Der Wert dieser     I
I                Groesse ist der Wert der symbolischen Adresse,      I
I                der Konstanten, der Wert des momentanen Zuordnungs- I
I                zaehlers,der Wert des formalen Paramters oder des   I
I                Literals (nur ein Zeichen).                         I
I                Der Typ von <Wert> kann absolut oder relativ sein:  I
I                                                                    I
I                absolut:    eine absolute symbolische Adresse       I
I                            oder eine Konstante                     I
I                            oder * in einem A- oder Y-Segment       I
I                            oder eine @-Variable                    I
I                            oder ein Literal                        I
I                relativ:    eine relative symbolische Adresse       I
I                            oder * in einem verschieblichen Segment I
I                unbestimmt: eine extern definierte symbolische      I
I                            Adresse                                 I
I                                                                    I
I     Beispiele: *  A/BE/BU  %1100001110010110  $FFFA  1024  '7'  @  I
I                                                                    I
+--------------------------------------------------------------------+
I                                                                    I
I <Ausdruck>     ::= <Wert> | <Wert>+<Ausdruck> | <Wert>-<Ausdruck>  I
I                                                                    I
I                Stellt einen arithmetischen Ausdruck, der eine      I
I                16-Bit Groesse ergibt, dar.                         I
I                Der Ausdruck wird waehrend der UEBERSETZUNG         I
I                berechnet!!!                                        I
I                                                                    I
I                Der Typ des Ausdrucks wird nach folgenden Regeln    I
I                ermittelt:                                          I
I                                                                    I
I                Absolut ist ein                                     I
I                   absoluter Wert                                   I
I                   oder die Summe zweier absoluter Werte            I
I                   oder die Differenz zweier relativer Werte.       I
I                Relativ ist ein                                     I
I                   relativer Wert                                   I
I                   oder die Summe eines relativen und eines         I
I                        absoluten Wertes                            I
I                   oder die Differenz eines relativen und eines     I
I                        absoluten Wertes.                           I
I                Unbestimmt ist ein                                  I
I                   unbestimmter Wert                                I
I                   oder die Summe eines unbestimmten und eines      I
I                        absoluten Wertes                            I
I                   oder die Differenz eines unbestimmten und eines  I
I                        absoluten Wertes.                           I
I                                                                    I
I                Alle in einem Ausdruck vorkommenden relativen       I
I                Werte muessen im selben Segment definiert sein.     I
I                                                                    I
I     Beispiele: H/ZELLE+7  POINT+$A0-4  *+6  *-MARKE  'Z'+1         I
I                                                                    I
+--------------------------------------------------------------------+

                                                       - 18 -

+--------------------------------------------------------------------+
I                                                                    I
I <Operation>    ::= ADC | AND | ASL | BCC | BCS | BEQ | BIT |       I
I                    BMI | BNE | BPL | BRK | BVC | BVS | CLC |       I
I                    CLD | CLI | CLV | CMP | CPX | CPY | DEC |       I
I                    DEX | DEY | EOR | INC | INX | INY | JMP |       I
I                    JSR | LDA | LDX | LDY | LSR | NOP | ORA |       I
I                    PHA | PHP | PLA | PLP | ROL | ROR | RTI |       I
I                    RTS | SBC | SEC | SED | SEI | STA | STX |       I
I                    STY | TAX | TAY | TSX | TXA | TXS | TYA |       I
I                    SVC                                             I
I                                                                    I
I                Stellt den Opcode fuer einen Maschinenbefehl in     I
I                symbolischer Schreibweise dar.                      I
I                Siehe "Programming-Manual".                         I
I                Eigens fuer das System es65 wurde eine neue         I
I                Operation eingefuehrt:                              I
I                                                                    I
I                SVC  -  Supervisor Call  (Monitor-Aufruf)           I
I                  Der Operand dazu muss einen absoluten Wert im     I
I                  Bereich 0 bis 255 ergeben. Es werden 2 Byte       I
I                  Objekt-Code erzeugt: 1 Byte $00 (BRK-Opcode) +    I
I                  1 Byte mit dem Operanden.                         I
I                  Die Anwendung dieses Befehles ist im Manual       I
I                  "MSYS-Programmierung" erklaert.                   I
I                                                                    I
+--------------------------------------------------------------------+
I                                                                    I
I <Operand>      ::= <Ausdruck> |                                    I
I                    :<Ausdruck> |                                   I
I                    #<Imm-Ausdr> |                                  I
I                    <Ausdruck>,X | <Ausdruck>,Y |                   I
I                    :<Ausdruck>,X | :<Ausdruck>,Y |                 I
I                    (<Ausdruck>,x) |                                I
I                    (<Ausdruck>),Y |                                I
I                    (<Ausdruck>) |                                  I
I                    A                                               I
I                                                                    I
I                Stellt eine der moeglichen Adressierungsarten dar.  I
I                Siehe "Programming-Manual".                         I
I                                                                    I
I                Der Doppelpunkt vor einem Ausdruck kennzeichnet     I
I                die Adressierungart "Zero-Page" (siehe auch 2.9.).  I
I                                                                    I
I <Imm-Ausdr>    ::= <Byte> | <Ausdruck> | <<Ausdruck> | ><Ausdruck> I
I                                                                    I
I                Stellt einen "Immediate-Operanden" dar.             I
I                Durch "<" oder ">" (nicht zu verwechseln mit den    I
I                metasyntaktischen Zeichen) wird angegeben, dass     I
I                der Low-Order-Teil oder der High-Order-Teil         I
I                des Ausdrucks als Adressteil verwendet werden soll. I
I                                                                    I
I     Beispiele: $44  :HILF/BYTE  #<ADRESS  #0  :POINT,X  (PP1),Y    I
I                                                                    I
+--------------------------------------------------------------------+

                                                       - 19 -


+--------------------------------------------------------------------+
I                                                                    I
I <Pseudo-Op>    ::= <<siehe 5.>>                                    I
I <Ps-Operand>   ::= <<siehe 5.>>                                    I
I                                                                    I
+--------------------------------------------------------------------+
I                                                                    I
I <Segment>      ::= Z | D | P | S1 | S2 | S3 | S4 | S5 | S6 | S7 |  I
I                    C1 | C2 | C3 | A | Y                            I
I                                                                    I
I                Stellt eine symbolische Segmentbezeichnung dar.     I
I                                                                    I
+--------------------------------------------------------------------+
I                                                                    I
I <Modul-Name>   ::= <Name>                                          I
I                                                                    I
I                Stellt einen Modul-Namen dar.                       I
I                                                                    I
I                Der Name darf maximal 10 Zeichen lang sein, und     I
I                das erste Zeichen darf nicht "@" sein.              I
I                                                                    I
+--------------------------------------------------------------------+
I                                                                    I
I <@-Variable>   ::= <Name>                                          I
I                                                                    I
I                Stellt eine Assembler-Variable dar, welche zur      I
I                Steuerung der bedingten Assemblierung verwendet     I
I                wird.                                               I
I                Der Name darf maximal 10 Zeichen lang sein und das  I
I                erste Zeichen muss "@" sein.                        I
I                <@-Variable> ist eine 16-Bit Groesse.               I
I                                                                    I
+--------------------------------------------------------------------+
I                                                                    I
I <@-Wert>       ::= <@-Variable> | <Adresse> | * | <symb.Adr> |     I
I                    <Formalpar>
I                                                                    I
I                Stellt eine 16-Bit Groesse dar. Der Wert ergibt     I
I                sich aus dem Wert der <@-Variable> oder der         I
I                Konstanten oder dem Wert des momentanen Zuordnungs- I
I                zaehlers oder dem Wert der symbolischen Adresse     I
I                (muss absolut sein) oder dem Wert des formalen      I
I                Parameters.                                         I
I                                                                    I
+--------------------------------------------------------------------+
I                                                                    I
I <@-Ausdruck>   ::= <@-Wert> | <@-Wert>+<@-Ausdruck> |              I
I                    <@-Wert>-<@-Ausdruck> | <@-Wert>&<@-Ausdruck>   I
I                                                                    I
I                Stellt einen arithmetischen Ausdruck mit            I
I                Assembler-Variablen dar. Ausser Addition (+) und    I
I                Subtraktion (-) kann auch eine logische Und-Ver-    I
I                knuepfung (&) durchgefuehrt werden (z.B. MAskieren  I
I                eines einzelnen Bits).                              I
I                                                                    I
I     Beispiele: @LAENGE-40  @&%100  @TEST-@TEST/40                  I
I                                                                    I
+--------------------------------------------------------------------+

                                                       - 20 -


+--------------------------------------------------------------------+
I                                                                    I
I <Makro-Name>   ::= <Name>                                          I
I                                                                    I
I                Gibt den Namen eines Makros an. Dieser darf maximal I
I                10 Zeichen lang sein.                               I
I                                                                    I
+--------------------------------------------------------------------+
I                                                                    I
I <Formalpar>    ::= <symb.Adr> | <@-Variable>                       I
I                                                                    I
I                Stellt einen formalen Parameter dar, welcher bei    I
I                der Makro-Definition definiert wird und in diesem   I
I                Makro verwendet werden kann.                        I
I                Der Wert des formalen Parameters ergibt sich aus    I
I                dem Wert des entsprechenden aktuellen Parameters    I
I                beim Aufruf dieses Makros.                          I
I                                                                    I
+--------------------------------------------------------------------+
I                                                                    I
I <Makro-Op>     ::= <Makop> | <Makro-Op>,<Makop>                    I
I <Makop>        ::= <Ausdruck> | <@-Ausdruck> | <<keine Angabe>>    I
I                                                                    I
I                Stellt die aktuellen Parameter dar, welche beim     I
I                Aufruf eines Makros anzugeben sind.                 I
I                Je nach Typ des zugehoerigen formalen Parameters    I
I                ist ein <Ausdruck> oder ein <@-Ausdruck> anzugeben. I
I                                                                    I
+--------------------------------------------------------------------+
I                                                                    I
I <Kommentar>    ::= <<beliebiger Text>>                             I
I                                                                    I
I                Stellt einen Text zur Dokumentation des             I
I                Programmes dar.                                     I
I                                                                    I
+--------------------------------------------------------------------+

                                                       - 21 -


4. AUFRUF
   ------

  <Aufruf>       ::= E[XEC] ASS[EMB][,<Prog.-Param>]

  <Prog.-Param>  ::= <Sources>[,<Schluesselw.>]
  <Sources>      ::= <Ein-Fl-Datei> | <Ein-Fl-Datei>,<Sources>
  <Schluesselw.> ::= <Schluessel> | <Schluessel>,<Schluesselw.>
  <Schluessel>   ::= O=<Aus-Datei> |
                     L=<Aus-Datei> |
                     M=<Ein-Fl-Datei> |
                     V=<Laufw#> |
                     @=<Adresse> |
                     *I | *S | *N | *Z

  Der Aufruf erfolgt im Monitor mit dem EXEC-Kommando.

  Da unter Umstaenden eine Zeile nicht ausreicht, um alle Parameter
  anzugeben, ist es moeglich, beim Aufruf des ASSEMB Fortsetzungs-
  zeilen zu verwenden:
  Wurden beim EXEC-Kommando keine <Programm-Parameter> angegeben, oder
  ist das letzte Zeichen einer Zeile ein Bindestrich, so wird eine
  weitere Zeile von SYSIN gelesen (der Bindestrich wird ignoriert).
  Alle diese Zeilen (maximal 250 Zeichen) werden zu einer Zeile
  (der Steuerzeile - Cmd-Line) gekettet und erst dann verarbeitet.

  Beispiel: / EXEC ASS
              es65-ASSEMB VER.B.6.5 ON ........
            * PROJ#X.1,-
            * PROJ#X.3,-
            * O=PROJ#X,-
            * L=$PRINTER

  Folgende Parameter sind anzugeben bzw. koennen angegeben werden:

  <Sources> ... Namen der Source-Dateien
    Diese Angabe muss gemacht werden.
    Alle Source-Dateien werden (in der angegebenen Reihenfolge) als
    ein Source-Programm betrachtet.
    Der Prefix der Dateinamen ist mit "A." festgelegt und muss
    nicht angegeben werden.

  O=<Aus-Datei> ... erzeugtes ObjeKt-Modul
    Kann $NULL oder $FLOPPY zugewiesen werden. Fehlt dieser Parameter
    wird $NULL angenommen (d.h. es wird kein Objekt-Modul erzeugt).
    Der Prefix des Dateinamens ist mit "O." festgelegt und muss nicht
    angegeben werden.

  L=<Aus-Datei> ... Uebersetzerliste
    Fehlt dieser Parameter, so wird $NULL angenommen (d.h. es wird
    keine Uebersetzerliste erzeugt.
    Der Prefix des Dateinamens ist mit "L." festgelegt und muss nicht
    angegeben werden.

                                                       - 22 -


  M=<Ein-Fl-Datei> ... Makro-Bibliothek
    Fehlt dieser Parameter, so wird keine Makro-Bibliothek verwendet.
    Voraussetzung fuer die Verwendung einer Makro-Bibliothek ist die
    Angabe des Parameters "V=".
    Der Prefix des Dateinamens ist mit "MAC." festgelegt und muss
    nicht angegeben werden.
    Eine Makro-Bibliothek kann mit dem Dienstprogramm es65-MACGEN
    erzeugt werden.

  V=<Laufw#> ... Verwendung des Overlays
    Dieser Parameter ist ist erforderlich, wenn mit globalen
    symbolischen Adressen (siehe 2.3.), mit eindeutigen Namen
    (siehe 2.7.) oder Makros (siehe 2.8.) gearbeitet werden soll.
    Durch Angabe dieses Parameters wird ein zusaetzlicher Programmteil
    des Assemblers mit dem Namen O.V.ASS.V65 geladen. Es ist das
    Laufwerk anzugeben, in welchem die Diskette mit dieser Datei
    vorhanden ist.

  @=<Adresse> ... Steuerung der bedingten Assemblierung
    Der angegebene Wert wird einer Assemblervariablen mit dem Namen
    "@" zugewiesen. Dadurch kann die Uebersetzung gesteuert werden,
    ohne das Source-Programm aendern zu muessen.

  *I ... Interne symbolische Adressen in das Objekt-Modul
    Wird dieser Parameter angegeben, so werden alle intern definierten
    symbolischen Adressen (welche definiert wurden waehrend "SYMBOL"
    gesetzt war) und deren Wert in das Objekt-Modul uebernommen.

  *S ... Symbol-Tabelle ausgeben
    Durch diesen Parameter wird erreicht, dass nach der der
    Uebersetzerliste der Symbol-Tabelle ausgebeben wird (siehe 2.6.).

  *N ... nicht alles in die Uebersetzerliste
    Wird dieser Parameter angegeben, so werden einige Pseudo-
    Operationen, welche nur zur Uebersetzungssteuerung dienen
    (z.B. .PG .TI .IE .CE ...) und der Pseudo-Kommentar mit den
    Dateinamen (siehe 2.6.) nicht in die Uebersetzerliste uebernommen.

  *Z ... Automatische Zero-Page-Adressierung
    Siehe 2.9.


  Abgesehen von den Meldungen der beiden Durchgaenge (Pass 1,2), sowie
  eventuell aufgetretenen Fehlermeldungen, werden, nach der Ueber-
  setzung die Anzahl der aufgetretenen Fehler, die Anzahl der globalen
  Adressen und die (Endadressen + 1) der Segmente ausgegeben.
                                                       - 23 -


5. PSEUDO-OPERATIONEN
   ------------------


  Pseudo-Operationen sind Anweisungen an den Assembler.
  Generell wird eine Pseudo-Operation in folgendem Format geschrieben:

              .<<Name der Pseudo-Operation>>

  Der Punkt dient zur Unterscheidung von "echten" Operationen
  (Maschinenbefehlen). Als <<Name der Pseudo-Operation>> wird eine
  Abkuerzung der Pseudo-Operation mit 2 Buchstaben verwendet.

  Die <Ps-Operanden> werden bei den einzelnen Pseudo-Operationen
  direkt erklaert.




5.1. Funktionelle Gruppierung
     ------------------------


    Es wird das Zusammenspiel jeweils einer Gruppe von Pseudo-
    Operationen erklaert. Die genaue Funktionsweise der einzelnen
    Pseudo-Operationen ist der alphabetischen Beschreibung 5.2. zu
    entnehmen.


5.1.1. Datendefinitionen - .AD .BY .FI

      Mit diesen Pseudo-Operationen koennen 8-Bit und 16-Bit Groessen
      in absoluter oder verschieblicher Form, sowie Zeichenketten
      (Literale) als Daten in den Objekt-Code eingefuegt werden.
      Ausserdem koennen Bereiche (mit definierter Laenge oder
      definierter Endadresse) mit einem bestimmten Byte gefuellt
      werden.


5.1.2. Speicherdefinitionen - .DS

      Mit dieser Pseudo-Operation koennen Speicherbereiche als Daten-
      felder reserviert werden.


5.1.3. Symboldefinitionen - .EQ

      Mit dieser Pseudo-Operation koennen symbolische Adressen als
      Konstante oder als Ergebnis eines Ausdrucks definiert werden.

                                                       - 24 -


5.1.4. Allgemeine Steuerung - .EN .EX .EY .MO .SG

      Die Pseudo-Operationen .EX und .EY dienen der Definition bzw.
      Kennzeichnung globaler Adressen.

      Durch die Pseudo-Operation .MO kann der Name des Objekt-Modules
      festgelegt werden.

      Mit der Pseudo-Operation .SG wird angegeben, zu welchem
      Segment das nachfolgende Source-Programm (bis zum naechsten .SG)
      zugeordnet werden soll. Unter bestimmten Voraussetzungen kann
      auch der Zuordnungszaehler veraendert werden.

      Die Pseudo-Operation .EN kennzeichnet das Ende des Source-
      Programmes.


5.1.5. Steuerung der Uebersetzerliste  .LC .LS .PG .SC .SS .TI .EC .ES

      Durch die Pseudo-Operationen .LC und .LS kann die Uebersetzer-
      liste teilweise unterdrueckt werden (der Schalter "LIST" wird
      gesetzt oder geloescht).

      Die Pseudo-Operationen .PG und .TI wirken nur, wenn die Ueber-
      setzerliste am Drucker ausgegeben wird.
      .PG bewirkt, dass auf eine neue Seite vorgeschoben wird.
      Durch .TI kann eine Ueberschrift fuer die Kopfzeile jeder Seite
      definiert werden.

      Durch die Pseudo-Operationen .SC und .SS koennen in der Symbol-
      tabelle vorhandene symbolische Adressen als "uninteressant"
      markiert werden (durch den Schalter "SYMBOL").

      Durch die Pseudo-Operationen .EC und .ES kann die Auflistung der
      Makro-Expansionen gesteuert werden (Schalter "LISTEXP").


5.1.6. Bedingte Assemblierung - .CE .IE .IM .IN .IP .ST

      Durch die Pseudo-Operationen .IE, .IM, .IN oder .IP wird ein
      Abschnitt eingeleitet, welcher bedingt assembliert werden soll.
      Durch .CE wird das Ende eines solchen Abschnittes markiert.

      Assembler-Variablen kann durch die Pseudo-Operation .ST ein
      Wert zugeordnet werden.


5.1.7. Eindeutige Namen - .BB .BE .SB .SE

      Diese Pseudo-Operationen bedienen den Block-Sequence-Counter
      und den Structure-Sequence-Counter zur Erzeugung eindeutiger
      Namen (siehe 2.7.).

                                                       - 25 -


5.1.8. Makros - .MD .ME .MX .IA .IG .IS

      Die Pseudo-Operationen .ME und .ME kennzeichnen Anfang und Ende
      einer Makro-Definition.
      Mit .MX kann eine Makro-Expansion vorzeitig beendet werden.

      Durch die Pseudo-OPerationen .IA und .IG kann in Makros
      festgestellt werden, ob fuer einen formalen Parameter ein
      aktueller Parameter angegeben ist.

      Durch die Pseudo-Operation .IS kann in Makros festgestellt
      werden, ob fuer einen formalen Parameter ein bestimmtes
      Schluesselwort angegeben wurde.




5.2. Beschreibung der Pseudo-Operationen
     -----------------------------------


      Fuer jede Pseudo-Operation (in alphabetischer Reihenfolge) wird
      der syntaktische Aufbau, sowie die Wirkung dieser Pseudo-
      Operation erklaert.


      Bei den syntaktischen Erklaerungen der Pseudo-Operationen ist
      <Kommentar> nirgends angegeben.
      Ein Kommentar ist bei jeder Pseudo-Operation moeglich.

                                                       - 26 -


AD    STORE ADDRESS



      Speichere Adresse (16 Bit)


      <Zeile> ::= [<symb.Adr> ].AD <Ausdruck>


      Entsprechend dem Wert des Ausdrucks werden 2 Datenbyte in den
      Objekt-Code eingefuegt (Reihenfolge: Low-Order-Byte High-Order-
      Byte) und entsprechend dem Typ des Ausdrucks als absolut oder
      relativ gekennzeichnet.

      Beispiele:

                 .AD $1000
      ADR/TAB    .AD TAB/ANF
      K2048      .AD 2048

                                                       - 27 -


BB    BLOCK BEGIN
BE    BLOCK END



      Beginn eines "Blocks"
      Ende eines "Blocks"



      <Zeile> ::= .BB
      <Zeile> ::= .BE


      Gibt Beginn und Ende eines "Blocks" an.
      Naeheres siehe 2.7.

                                                       - 28 -


BY    STORE BYTE



      Speichere Byte (8 Bit)


      <Zeile> ::= [<Symb.Adr> ].BY <Byte-Liste>

      <Byte-Liste>   ::= <Byte-Wert> | <Byte-Wert>,<Byte-Liste>
      <Byte-Wert>    ::= <Literal> | <Ausdruck>


      Die angegebenen Datenbytes (als Ausdruck oder Literal) werden
      in den Objekt-Code eingefuegt.

      Wird ein Ausdruck angegeben, so muss der Typ dieses Ausdrucks
      absolut und sein Wert kleiner als 256 sein.

      Ein angegebenes Literal darf maximal 64 Zeichen lang sein, und
      es darf keinen Strichpunkt enthalten.
      Moegliche Literalbegrenzungszeichen sind: ' " . -
      Wird als Literalbegrenzungszeichen das Anfuehrungszeichen (")
      verwendet, so wird beim letzten Datenbyte das Bit 2**7 auf 1
      gesetzt (als Endekennung).

      Beispiele:

                 .BY 0
      TEXT1      .BY "Dies ist ein TEXT"
      LISTE      .BY 'ASS',$FE,'EMB',$FF,$FF
                 .BY WERT,0,%11000011

                                                       - 29 -


CE    CONDITIONAL END



      Ende eines Abschnittes, der bedingt assembliert wird.


      <Zeile> ::= .CE


      Kennzeichnet das Ende eines Abschnittes, der durch bedingte
      Assemblierung assembliert bzw. uebergangen werden kann.
      Auch die Pseudo-Operation .MX beendet einen solchen Abschnitt.

                                                       - 30 -


DS    DEFINE STORAGE



      Definition eines Speicherbereichs.


      <Zeile> ::= [<symb.Adr> ].DS <Ausdruck>


      Der Zuordnungszaehler wird um den Wert des Ausdrucks erhoeht.
      Dadurch werden entsprechend viele Byte im Speicher freigehalten.

      Beispiele:

                 .DS 3
      FELD/1     .DS FELD/LAENG
      BUFFER     .DS BUFINH+79

                                                       - 31 -


EC    "LISTEXP" CLEAR
ES    "LISTEXP" SET



      Schalter "LISTEXP" loeschen
      Schalter "LISTEXP" setzen


      <Zeile> ::= .EC
      <Zeile> ::= .ES


      Nur wenn der Schalter "LISTEXP" gesetzt ist, werden die Makro-
      Expansionen in Uebersetzerliste uebernommen.
      Als Standardwert ist "LISTEXP" geloescht.

                                                       - 32 -


EN    END OF SOURCE-PROGRAM



      Ende des Source-Programmes.


      <Zeile> ::= .EN[ <Ausdruck>]


      Kennzeichnet das Ende des Source-Programmes.
      Diese Pseudo-Operation muss nicht angegeben werden, da nach
      der letzten Zeile des Source-Programmes automatisch .EN ange-
      nommen wird.

      Wird ein Ausdruck angegeben, so wird dessen Wert als Start-
      adresse im Objekt-Modul gespeichert.

                                                       - 33 -


EQ    EQUATE



      Gleichsetzen


      <Zeile> ::= <symb.Adr> .EQ <Ausdruck>


      Der symbolischen Adresse werden der Wert und der Typ des
      Ausdrucks zugeordnet.
      Diese symbolische Adresse darf noch nicht definiert sein.

      Beispiele:

      TESTPUNKT  .EQ *
      BUFFER     .EQ BUFFER/1
      BUF/END    .EQ BUFFER+BUF/LNG
      VIA.1      .EQ $FC80

                                                       - 34 -


EX    DEFINE EXTERNAL
EZ    DEFINE EXTERNAL - ZERO-PAGE



      Definiere externe symbolische Adresse
      Definiere externe symbolische Zero-Page-Adresse


      <Zeile> ::= .EX <Liste>
      <Zeile> ::= .EZ <Liste>
      <Liste> ::= <symb.Adr> | <symb.Adr>,<Liste>


      Die angegebenen symbolischen Adressen werden als extern
      definierte symbolische Adressen betrachtet. Sie duerfen an keine
      anderen Stelle in diesem Modul definiert sein.

      Die Definition mit .EZ ist nur fuer die automatische Zero-Page-
      Adressierung notwendig (siehe 2.9.).


      Beispiele:

                 .EX PUNKT/1,SUCHEN
                 .EZ POINTER/1

                                                       - 35 -


EY    DEFINE ENTRY



      Kennzeichne allgemein definierte symbolische Adresse


      <Zeile> ::= .EY <Liste>
      <Liste> ::= <symb.Adr> | <symb.Adr>,<Liste>


      Die angegebenen symbolischen Adressen werden als allgemein
      definierte symbolische Adressen gekennzeichnet. Sie muessen
      an einer anderen Stelle in diesem Modul als interne symbolische
      Adresse definiert sein.


      Beispiele:

                 .EY EINSPRUNG
                 .EY TEST/PUNKT,HIER

                                                       - 36 -


FI    FILL WITH BYTE



      Fuellen eines Bereiches mit einem Byte


      <Zeile> ::= [<symb.Adr> ].FI <Ausdruck>,<Ausdruck>


      Das durch den ersten Ausdruck bestimmte Byte (muss absolut und
      kleiner als 256 sein) wird sooft in den Objekt-Code eingefuegt,
      bis der Zuordnungszaehler den durch den zweiten Ausdruck an-
      gegebenen Wert erreicht hat (eventuell 0 mal).

      Der Wert des zweiten Ausdrucks muss groesser oder gleich als der
      momentane Wert des Zuordnungszaehlers sein.

      Diese Pseudo-Operation kann benutzt werden, um einen Bereich
      mit definierter Laenge mit einem bestimmten Byte zu fuellen
      (Form: .FI Byte,*+Laenge) oder einen Bereich bis zu einer
      definierten Endadresse zu fuellen (z.B. Rest eines PROM's wird
      $FF aufgefuellt).


      Beispiele:  (der Zuordnungszaehler steht auf $13E7)

                 .FI $FF,$13E9     2*$FF
      LEERBER    .FI 0,*+16        16*$00
                 .FI $FF,$1400     25*$FF
                 .FI $AA,*         ---
                 .FI $AA,$1200     Fehlermeldung G

                                                       - 37 -


IA    ASSEMBLE IF ABSENT
IG    ASSEMBLE IF GIVEN



      Assemblieren wenn Parameter nicht angegeben
      Assemblieren wenn Parameter angegeben


      <Zeile> ::= .IA <Formalpar>
      <Zeile> ::= .IG <Formalpar>


      Mit diesen Pseudo-Operationen kann geprueft werden, ob ein
      aktueller Parameter fuer einen formalen Parameter angegeben
      wurde oder nicht.
      Sie koennen nur in Makros verwendet werden.
      Der folgende Programmabschnitt (bis zum naechsten .CE oder .MX)
      wird nur uebersetzt, wenn die Bedingung erfuellt ist.
      Im anderen Fall wird dieser Abschnitt uebergangen.

      Beispiele:

                 .IA X/REG
                 .IG @MERKER

                                                       - 38 -


IE    ASSEMBLE IF EQUAL TO ZERO
IN    ASSEMBLE IF NOT EQUAL TO ZERO
IP    ASSEMBLE IF PLUS
IM    ASSEMBLE IF MINUS



      Assemblieren wenn gleich Null
      Assemblieren wenn ungleich Null
      Assemblieren wenn groesser oder gleich Null
      Assemblieren wenn kleiner Null


      <Zeile> ::= .IE <@-Ausdruck>
      <Zeile> ::= .IN <@-Ausdruck>
      <Zeile> ::= .IP <@-Ausdruck>
      <Zeile> ::= .IM <@-Ausdruck>


      Der folgende Programmabschnitt (bis zum naechsten .CE oder .MX)
      wird nur uebersetzt, wenn die Bedingung erfuellt ist.
      Im anderen Fall wird dieser Abschnitt uebergangen.

      Beispiele:

                 .IE @LAENGE-40
                 .IM @MERKER-5
                 .IN @MERKER&%100

                                                      - 39 -


IS    ASSEMBLE IF SYMBOL IS EQUAL



      Assemblieren wenn das Schluesselwort als Parameter angegeben ist


      <Zeile> ::= .IS <Formalpar>,<Name>


      Mit dieser Pseudo-Operation kann geprueft werden, ob ein
      bestimmtes Schluesselwort fuer den formalen Parameter angegeben
      wurde.
      Diese Pseudo-Operation kann nur in Makros verwendet werden.
      Der folgende Pragrammabschnitt (bis zum naechsten .CE oder .MX)
      wird nur uebersetzt, wenn die Bedingung erfuellt ist.
      Im anderen Fall wird der Abschnitt uebergangen.


      Beispiele:

                 Pseudo-Op:   .IS FORM/PAR,ICH

                 fuer FORM/PAR angegeben         Bedingung erfuellt
                 ICH                             ja
                 ICH+1                           nein
                 ICH-ABSTAND                     nein
                 DU                              nein
                 ---                             nein

                                                       - 40 -


LC    "LIST" CLEAR
LS    "LIST" SET



      Schalter "LIST" loeschen
      Schalter "LIST" setzen


      <Zeile> ::= .LC
      <Zeile> ::= .LS


      Mit diesen Pseudo-Operationen wird die Ausgabe der Source-Zeilen
      in die Uebersetzerliste gesteuert. Nur wenn der Schalter "LIST"
      gesetzt ist, werden die Zeilen in die Uebersetzerliste ge-
      schrieben.
      Fehlerhaft Zeilen werden auf alle Faelle ausgegeben.

                                                       - 41 -


MD    MACRO DEFINITION
ME    MACRO END
MX    MACRO EXIT



      Makro-Definition
      Ende einer Makrodefinition und des Makros
      Vorzeitiges Ende eines Makros


      <Zeile> ::= <Makro-Name> .MD [(<Params>)]
      <Zeile> ::= .ME
      <Zeile> ::= .MX

      <Params>::= <Formalpar> | <Params>,<Formalpar>


      Jede Makro-Definition beginnt mit der Pseudo-Operation .MD
      und endet mit .ME.
      Die Makro-Expansion endet normalerweise auch bei .ME.
      Soll die Makro-Expansion vorzeitig beendet werden (mit bedingter
      Assemblierung - um Uebersetzungszeit zu sparen), so ist dies mit
      der Pseudo-Operation .MX moeglich.
      Diese Pseudo-Operation beendet ausserdem (so wie .CE) einen
      Programmabschnitt, der bedingt assembliert werden soll.

      Naeheres sowie Beispiele siehe 2.8. und ANHANG B.

                                                       - 42 -


MO    DEFINE MODUL-NAME



      Modul-Name angeben


      <Zeile> ::= .MO <Modul-Name>


      Mit dieser Pseudo-Operation kann dem erzeugten Objekt-Modul ein
      Name gegeben werden. Fehlt diese Pseudo-Operation, so wird aus
      dem Namen der Datei, welche das Objekt-Modul enthaelt, ein
      Modul-Name gebildet.


      Beispiel:
                 .MO INP/OUTP

                                                       - 43 -


PG    PAGE-CHANGE



      Seitenwechsel


      <Zeile> ::= .PG


      Vor der naechsten Zeile, die in die Uebersetzerliste geschrieben
      wird, wird ein Vorschub auf eine neue Seite durchgefuehrt,
      dies jedoch nur, wenn die Liste am Drucker ausgegeben wird.

                                                       - 44 -


SB    STRUCTURE BEGIN
SE    STRUCTURE END



      Beginn einer "Struktur"
      Ende einer "Struktur"


      <Zeile> ::= .SB
      <Zeile> ::= .SE


      Gibt Beginn und Ende einer "Struktur" an.
      Naeheres siehe 2.7.

                                                       - 45 -


SG    CHANGE SEGMENT



      Segment umschalten


      <Zeile> ::= <Segment>[,<Adresse>]


      Das nachfolgende Programm (bis zum naechsten .SG) wird dem
      angegebenen Segment zugeordnet.
      Der Zuordnungszaehler des bisher gueltigen Segments wird sicher-
      gestellt.
      Durch den Ausdruck kann unter folgenden Bedingungen der
      Zuordnungszaehler des angegebenen Segments gesetzt werden:
      - Fuer die Segmente A und Y immer.
      - Fuer die uebrigen Segmente nur beim ersten Mal.

      Wird kein Ausdruck angegeben, so wird der Zuordnungszaehler
      von der letzten Verwendung dieses Segments weitergezaehlt
      (Vorbesetzung fuer alle Zuordnungszaehler ist $0000).
      Eine Ausnahme bildet das Y-Segment:
        Hier wird, wenn kein Ausdruck angegeben ist, der Zuordnungs-
        zaehler auf $0000 gesetzt.

      Beispiele:

                 .SG P,ANF/PROG
                 .SG C2,$200
                 .SG Z
                 .SG Y,$101
                 .SG Y
                 .SG A,$127A

                                                       - 46 -


SC    "SYMBOL" CLEAR
SS    "SYMBOL" SET



      Schalter "SYMBOL" loeschen
      Schalter "SYMBOL" setzen


      <Zeile> ::= .SC
      <Zeile> ::= .SS


      Mit diesen Pseudo-Operationen kann der Schalter "SYMBOL" gesetzt
      und geloescht werden.
      Ist zum Zeitpunkt der Definition eines Symbols dieser Schalter
      geloescht, so wird es als "uninteressant" gekennzeichnet.
      Dies hat zur Folge, dass diese symbolische Adresse nach aussen-
      hin nicht mehr aufscheint (Ausdruck der Symboltabelle - Ueber-
      nahme der Symboltablle in das Objekt-Modul).

                                                       - 47 -


ST    SET



      Setze


      <Zeile> ::= .ST <@-Variable>=<@-Ausdruck>


      Der Wert des Ausdrucks wird der Assembler-Variablen zugewiesen.

      Im Unterschied zu den symbolischen Adressen kann der Wert einer
      Assembler-Variablen beliebig oft geaendert werden.

      Beispiele:

                 .ST @LAENGE=$40+2
                 .ST @MERKER=%110001
                 .ST @TEST=@MERKER+$1234&%1000

                                                       - 48 -


TI    DEFINE TITLE



      Ueberschrift definieren


      <Zeile> ::= .TI <<beliebiger Text>>


      Der angegebene Text wird in die Kopfzeile jeder Seite
      eingetragen.

      Beispiel:

                 .TI ES65-MONITOR  -  Handler $FLOPPY
                                                       - 49 -


6. FEHLERMELDUNGEN
   ---------------



6.1. Standard-Fehlermeldungen
     ------------------------


    Ausser den unten angefuehrten Programmfehlermeldungen koennen auch
    Systemfehlermeldungen auftreten. Die Systemfehlermeldungen sind in
    der Beschreibung es65-MONITOR erklaert.

    40  CMD-LINE TOO LONG
        Die Steuerzeile ist laenger als 250 Zeichen.
    41  ILL CMD-LINE
        Die Steuerzeile ist syntaktisch falsch.
    42  ASSEMBLER ESCAPED
        Der ASSEMB wurde durch die Sonderfunktionstaste ESCAPE (im
        Hintergrundprozess durch das ESCAPE-Kommando) abgebrochen.
    43  ASSEMBLER ABORTED
        Der Assembler wurde auf Grund eines schwerwiegenden Fehlers
        abgebrochen (undefinierte Adresse in einer Pseudo-Operation).
    44  MISSING OVERLAY
        Es wurde eine Funktion verwendet, die nur im Overlay enthalten
        ist, der Parameter V= (zum Laden des Overlays) wurde beim
        Aufruf des Assemblers aber nicht angegeben.
    45  MACLIB ILL FORMAT
        Die Makro-Bibliothek hat nicht das vorgeschriebene Format.
        Eine Makro-Bibliothek kann nur mit dem Dienstprogramm MACGEN
        Erzeugt werden.

    Wenn der ASSEMB mit einer Fehlermeldung abgebrochen wird, so
    werden die moeglicherweise bereits teilweise erstellten Dateien
    fuer das Objekt-Modul und die Uebersetzungsliste geloescht.


    Abhilfe bei ERROR 07 MEMORY EXHAUSTED:
    --------------------------------------

        In diesem Fall reicht der Speicher nicht aus um alle Tabellen
        aufzunehmen.
        Der Umfang dieser Tabellen kann wie folgt verringert werden:
        - Unterteilen des Programmes in einzelne Module.
          Getrenntes Uebersetzen dieser Module und anschliessend
          Binden mit es65-LINK.
          Dadurch wird die Symboltabelle kleiner.
        - Im Programm definierte Makros in die Makro-Bibliothek
          aufnehmen, da diese sonst im Hauptspeicher gespeichert
          werden und fuer die Symboltabelle weniger Platz zur
          Verfuegung steht.
        - Entfernen nicht benutzter Makros aus der verwendeten
          Makro-Bibliothek.
          Dadurch wird das ebenfalls im Hauptspeicher abgelegte
          Inhaltsverzeichnis kleiner, und der Platz fuer die Symbol-
          tabelle groesser.

                                                       - 50 -


6.2. Syntaxfehler in Programmzeilen
     ------------------------------


    Diese werden durch einen Fehlerschluessel in der ersten Spalte
    der Uebersetzungsliste bei der jeweiligen Zeile angezeigt.

    Eine solche fehlerhafte Zeile wird auch ausgegeben, wenn der
    Schalter "LIST" geloescht ist.
    Auf alle Faelle wird eine fehlerhafte Zeile nach SYSOUT
    (im Dialog - dem Terminal) ausgegeben.

    Folgende Fehlerschluessel sind moeglich:

    @   <@-Variable> statt <symb.Adr> verwendet oder umgekehrt
    A   Falsche Adressierungsart
    B   Branch zu weit
    D   Doppeldefinition oder ENTRY gleichzeitig EXTERN
    E   Unzulaessige Typ-Mischung bei <Ausdruck>
    F   Formatfehler
    G   Bei .FI ist der Zuordnungszaehler groesser als die Endadresse
    L   <symb.Adr> fehlt oder nicht erlaubt
    J   Nur in Makro erlaubt
    M   Illegale Operation
    N   Schachtelung bei "Block", "Struktur" oder Makro zu gross
        (Abbruch) oder
        Illegeale Verschachtelung von Makros und Makrodefinitionen
    O   Operand fehlt oder ist falsch
    P   Illegale Pseudo-Operation
    Q   Zuviele aktuelle Parameter bei Makroaufruf
    R   Relativ zum falschen Segment
    S   Illegal in einem Daten-Segment (Z, D, Cx)
    T   Unzulaessiger Zustand bei .EN
    U   Undefinierte Adresse (kann eventuell zum Abbruch fuehren)
    V   Block-, Structure- oder Macro-Sequence-Conuter Ueberlauf
    X   Illegale Verwendung einer extern definierten symbolischen
        Adresse
    Z   Keine Zero-Page-Adresse
                                                       - 51 -


ANHANG A - PROGRAMMBEISPIEL


             00:0000 ;************************************************
             00:0000 ;**                                            **
             00:0000 ;**   VALUE @ = $0000                          **
             00:0000 ;**                                            **
             00:0000 ;**   FILE 01 = A.FILL                         **
             00:0000 ;**                                            **
             00:0000 ;************************************************
             00:0000 ;
             01:0010 ;
             01:0020 ;      UNTERPROGRAMM   F I L L
             01:0030 ;      -----------------------
             01:0040 ;
             01:0050 ;   Fuellt einen Speicherbereich mit einem
             01:0060 ;   bestimmten Byte.
             01:0070 ;
             01:0071 ;   Als Parameter werden Anfangs- und
             01:0080 ;   Endadresse, sowie das Fuellbyte ueber-
             01:0090 ;   geben. Es ist sichergestellt, dass die
             01:0091 ;   Endadresse groesser als die Anfangs-
             01:0100 ;   adresse ist.
             01:0110 ;
             01:0120 ;   AUFRUF:
             01:0130 ;                 JSR FILL
             01:0140 ;                 .AD Anfangsadresse
             01:0150 ;                 .AD Endadresse
             01:0160 ;                 .BY Fuellbyte
             01:0170 ;
             01:0180 ;   VARIANTE:
             01:0190 ;     Durch die Assembler-Variable "@" kann
             01:0200 ;     eine Variante des Unterprogrammes erzeugt
             01:0210 ;     werden, bei welcher statt der Endadresse
             01:0220 ;     die Laenge des Bereiches uebergeben wird.
             01:0230 ;     Zum Erzeugen dieser Variante muss beim
             01:0240 ;     Aufruf des Assemblers @ > 0 gesetzt werden.
             01:0250 ;
             01:0260            .MO FILL
             01:0270            .EY FILL
             01:0280 ;
 0000        01:0290            .SG Z
 0000        01:0300 POINT      .DS 2
             01:0310 ;
 0000        01:0320            .SG D
 0000        01:0330 ANFADR     .DS 2
 0002        01:0340 ENDADR     .DS 2
 0004        01:0350 FUELLBYTE  .DS 1
             01:0360 ;
 0000        01:0370            .SG Y              ;PARAMETER
 0000        01:0380            .IE @
 0000        01:0390 P/ANFADR   .DS 2
 0002        01:0400 P/ENDADR   .DS 2
 0004        01:0410 P/BYTE     .DS 1
 0005        01:0420 P/LNG      .DS 0
             01:0430            .CE
 0000        01:0440            .IN @
             01:0500 ;

                                                       - 52 -


 0000        01:0510            .SG P
 0000 68     01:0520 FILL       PLA                ;LOW-ORDER PC
 0001 8500   01:0530            STA :POINT
 0003 68     01:0540            PLA
 0004 8501   01:0550            STA :POINT+1       ;A(PARAMS) IN POINT
 0006 18     01:0560            CLC
 0007 D8     01:0570            CLD
 0008 A500   01:0580            LDA :POINT
 000A 6905   01:0590            ADC #P/LNG
 000C A8     01:0600            TAY                ;SAVE IN Y
 000D A501   01:0610            LDA :POINT+1
 000F 6900   01:0620            ADC #0
 0011 48     01:0630            PHA
 0012 98     01:0640            TYA
 0013 48     01:0650            PHA                ;NEUE RETURN-ADDR
 0014 E600   01:0651            INC :POINT
 0016 D002   01:0652            BNE *+4
 0018 E601   01:0653            INC :POINT+1       ;POINT --> PARAMS
 001A A000   01:0660            LDY #P/ANFADR
 001C B100   01:0670            LDA (POINT),Y
 001E 8D0000 01:0680            STA ANFADR
 0021 C8     01:0690            INY
 0022 B100   01:0700            LDA (POINT),Y
 0024 8D0100 01:0710            STA ANFADR+1
 0000        01:0720            .IE @
 0027 A002   01:0730            LDY #P/ENDADR
 0029 B100   01:0740            LDA (POINT),Y
 002B 8D0200 01:0750            STA ENDADR
 002E C8     01:0760            INY
 002F B100   01:0770            LDA (POINT),Y
 0031 8D0300 01:0780            STA ENDADR+1
             01:0790            .CE
 0000        01:0800            .IN @
 0034 A004   01:0920            LDY #P/BYTE
 0036 B100   01:0930            LDA (POINT),Y
 0038 8D0400 01:0940            STA FUELLBYTE
             01:0950 ;... PARAMETER SIND UEBERNOMMEN
 003B AD0000 01:0960            LDA ANFADR
 003E AC0100 01:0970            LDY ANFADR+1
 0041 8500   01:0980            STA :POINT
 0043 8401   01:0990            STY :POINT+1
 0045 A000   01:1000            LDY #0
 0047 AD0400 01:1010 FUELLEN    LDA FUELLBYTE
 004A 9100   01:1020            STA (ANFADR),Y
 004C E600   01:1030            INC :POINT
 004E D002   01:1040            BNE *+4
 0050 E601   01:1050            INC :POINT+1       ;POINT + 1
 0052 A501   01:1060            LDA :POINT+1
 0054 CD0300 01:1070            CMP ENDADR+1
 0057 D0EE   01:1080            BNE FUELLEN
 0059 A500   01:1090            LDA :POINT
 005B CD0200 01:1100            CMP ENDADR
 005E D0E7   01:1110            BNE FUELLEN
 0060 60     01:1120            RTS
             01:1130 ;
             01:1140            .EN

                                                       - 53 -
 SYMBOL TABLE  FOR  FILL

 ANFADR        D    0000
 ENDADR        D    0002
 FILL        Y P    0000
 FUELLBYTE     D    0004
 FUELLEN       P    0047
 P/ANFADR      Y    0000
 P/BYTE        Y    0004
 P/ENDADR      Y    0002
 P/LNG         Y    0005
 POINT         Z    0000

                                                       - 54 -


             00:0000 ;************************************************
             00:0000 ;**                                            **
             00:0000 ;**   VALUE @ = $0001                          **
             00:0000 ;**                                            **
             00:0000 ;**   FILE 01 = A.FILL                         **
             00:0000 ;**                                            **
             00:0000 ;************************************************
             00:0000 ;
             01:0010 ;
             01:0020 ;      UNTERPROGRAMM   F I L L
             01:0030 ;      -----------------------
             01:0040 ;
             01:0050 ;   Fuellt einen Speicherbereich mit einem
             01:0060 ;   bestimmten Byte.
             01:0070 ;
             01:0071 ;   Als Parameter werden Anfangs- und
             01:0080 ;   Endadresse, sowie das Fuellbyte ueber-
             01:0090 ;   geben. Es ist sichergestellt, dass die
             01:0091 ;   Endadresse groesser als die Anfangs-
             01:0100 ;   adresse ist.
             01:0110 ;
             01:0120 ;   AUFRUF:
             01:0130 ;                 JSR FILL
             01:0140 ;                 .AD Anfangsadresse
             01:0150 ;                 .AD Endadresse
             01:0160 ;                 .BY Fuellbyte
             01:0170 ;
             01:0180 ;   VARIANTE:
             01:0190 ;     Durch die Assembler-Variable "@" kann
             01:0200 ;     eine Variante des Unterprogrammes erzeugt
             01:0210 ;     werden, bei welcher statt der Endadresse
             01:0220 ;     die Laenge des Bereiches uebergeben wird.
             01:0230 ;     Zum Erzeugen dieser Variante muss beim
             01:0240 ;     Aufruf des Assemblers @ > 0 gesetzt werden.
             01:0250 ;
             01:0260            .MO FILL
             01:0270            .EY FILL
             01:0280 ;
 0000        01:0290            .SG Z
 0000        01:0300 POINT      .DS 2
             01:0310 ;
 0000        01:0320            .SG D
 0000        01:0330 ANFADR     .DS 2
 0002        01:0340 ENDADR     .DS 2
 0004        01:0350 FUELLBYTE  .DS 1
             01:0360 ;
 0000        01:0370            .SG Y              ;PARAMETER
 0001        01:0380            .IE @
 0001        01:0440            .IN @
 0000        01:0450 P/ANFADR   .DS 2
 0002        01:0460 P/LAENGE   .DS 2
 0004        01:0470 P/BYTE     .DS 1
 0005        01:0480 P/LNG      .DS 0
             01:0490            .CE
             01:0500 ;

                                                       - 55 -


 0000        01:0510            .SG P
 0000 68     01:0520 FILL       PLA                ;LOW-ORDER PC
 0001 8500   01:0530            STA :POINT
 0003 68     01:0540            PLA
 0004 8501   01:0550            STA :POINT+1       ;A(PARAMS) IN POINT
 0006 18     01:0560            CLC
 0007 D8     01:0570            CLD
 0008 A500   01:0580            LDA :POINT
 000A 6905   01:0590            ADC #P/LNG
 000C A8     01:0600            TAY                ;SAVE IN Y
 000D A501   01:0610            LDA :POINT+1
 000F 6900   01:0620            ADC #0
 0011 48     01:0630            PHA
 0012 98     01:0640            TYA
 0013 48     01:0650            PHA                ;NEUE RETURN-ADDR
 0014 E600   01:0651            INC :POINT
 0016 D002   01:0652            BNE *+4
 0018 E601   01:0653            INC :POINT+1       ;POINT --> PARAMS
 001A A000   01:0660            LDY #P/ANFADR
 001C B100   01:0670            LDA (POINT),Y
 001E 8D0000 01:0680            STA ANFADR
 0021 C8     01:0690            INY
 0022 B100   01:0700            LDA (POINT),Y
 0024 8D0100 01:0710            STA ANFADR+1
 0001        01:0720            .IE @
 0001        01:0800            .IN @
 0027 A002   01:0810            LDY #P/LAENGE
 0029 18     01:0820            CLC
 002A D8     01:0830            CLD
 002B B100   01:0840            LDA (POINT),Y
 002D 6D0000 01:0850            ADC ANFADR
 0030 8D0200 01:0860            STA ENDADR
 0033 C8     01:0870            INY
 0034 B100   01:0880            LDA (POINT),Y
 0036 6D0100 01:0890            ADC ANFADR+1
 0039 8D0300 01:0900            STA ENDADR+1
             01:0910            .CE
 003C A004   01:0920            LDY #P/BYTE
 003E B100   01:0930            LDA (POINT),Y
 0040 8D0400 01:0940            STA FUELLBYTE
             01:0950 ;... PARAMETER SIND UEBERNOMMEN
 0043 AD0000 01:0960            LDA ANFADR
 0046 AC0100 01:0970            LDY ANFADR+1
 0049 8500   01:0980            STA :POINT
 004B 8401   01:0990            STY :POINT+1
 004D A000   01:1000            LDY #0
 004F AD0400 01:1010 FUELLEN    LDA FUELLBYTE
 0052 9100   01:1020            STA (ANFADR),Y
 0054 E600   01:1030            INC :POINT
 0056 D002   01:1040            BNE *+4
 0058 E601   01:1050            INC :POINT+1       ;POINT + 1
 005A A501   01:1060            LDA :POINT+1
 005C CD0300 01:1070            CMP ENDADR+1
 005F D0EE   01:1080            BNE FUELLEN
 0061 A500   01:1090            LDA :POINT
 0063 CD0200 01:1100            CMP ENDADR
 0066 D0E7   01:1110            BNE FUELLEN
 0068 60     01:1120            RTS
             01:1130 ;
             01:1140            .EN

                                                       - 56 -


 SYMBOL TABLE  FOR  FILL

 ANFADR        D    0000
 ENDADR        D    0002
 FILL        Y P    0000
 FUELLBYTE     D    0004
 FUELLEN       P    004F
 P/ANFADR      Y    0000
 P/BYTE        Y    0004
 P/LAENGE      Y    0002
 P/LNG         Y    0005
 POINT         Z    0000

                                                       - 57 -


ANHANG B - BEISPIEL - MAKROS


  Zum Aufruf des in ANHANG A beschriebenen Unterprogrammes FILL
  (erste Version) ist folgendes Makro vorhanden:

                 FUELLEN   .MD (ANFADR,ENDADR,WERT)
                           JSR FILL
                           .AD ANFADR
                           .IA ENDADR
                           .AD ANFADR+$FF
                           .CE              ;1 PAGE FUELLEN
                           .IG ANDADR
                           .AD ENDADR
                           .CE              ;BIS ENDADR
                           .IG WERT
                           .BY WERT
                           .MX              ;EXIT
                           .IA WERT
                           .BY 0
                           .CE              ;FILL WITH ZEROES
                           .ME


  Der Name des Makros ist FUELLEN.
  Formale Parameter sind ANFADR, ENDADR und WERT.

  ANFADR muss immer anggeben werden.
  Wird ENDADR nicht angegeben, so wird ab ANFADR eine Page (256 Byte)
  gefuellt.
  Wird WERT nicht angegeben, so wird $00 angenommen.

  Beispiele fuer den Aufruf:

      Folgende Adressen sind definiert: A=$2000, B=$2200, FF=$FF

                 FUELLEN (A,,$AA)            $2000-$20FF MIT $AA
                 FUELLEN (A,B)               $2000-$2200 MIT $00
                 FUELLEN (B)                 $2200-$22FF MIT $00
                 FUELLEN (A+5,,FF-15)        $2005-$2104 MIT $F0

                                                      - 58 -


ANHANG C - AENDERUNGEN GEGENUEBER VERS.6.3


  - Erstellungsdatum in das Objekt-Modul

  - Externe Adressen auch mit "<" und ">" ansprechbar

  - Externe Adressen auch bei Zero-Page-Adressierung

  - Automatische Zero-Page-Adressierung (*Z)

  - schoenere Uebersetzerliste mit "*N"

  - auch @-Varaible und Literal in Ausdruck moeglich

  - kein Objekt-Modul wenn Uebersetzungsfehler

  - Parameter *S auf *I umbenannt

  - Parameter *S steuert Ausdruck der Symboltabelle

  - Pseudo-Operation .IS
