.TI TEXT-DRUCK
;--------------------------------------------------------
;
;  T E X T - D R U C K
;  -------------------
;
;  SOURCE:                  A.PRINT.1 + A.PRINT.2 + A.PRINT.3
;  UEBERSETZTEN+DRUCKEN:    I.PRINT.ASS.PRINT
;  UEBERSETZTEN+RELOC:      I.PRINT.ASS
;
;
;  DAS PROGRAMM IST EIN DIALOGPROGRAMM, WELCHES VON
;  SYSIN KOMMANDOS LIEST UND VERARBEITET.
;  DIE KOMMANDOS SIND IM PROGRAMM BESCHRIEBEN.
;
;
;  DAS PROGRAMM IST IN FOLGENDE BLOECKE UNTERTEILT:
;
;  - AUSDRUCKE ALLER SYSTEM-MAKROS (2.)
;
;  - HAUPTPROGRAMM
;
;  - ALLGEMEINE UNTERPROGRAMME
;
;  - SCHLEIFE ZUM EINLESEN DER KOMMANDOS, ZUM INTER-
;    PRETIEREN DER KOMMANDOWOERTER UND ZUM AUFRUF DER
;    UNTERPROGRAMME FUER DIE EINZELNEN KOMMANDOS.
;
;  - UNTERPROGRAMME FUER DIE KOMMANDOS
;
;--------------------------------------------------------
.ES
;
.MO PRINT
;
.TI Y B U F  +  Y S I C  +  Y C C B
.PG
YBUF
;
;
;
;
YSIC
;
;
;
;
YCCB
.TI Y F C B  -  FILE CONTROL BLOCK
.PG
YFCB
.TI Y F I D  +  Y L C B
.PG
YFID
;
;
;
;
YLCB
.TI Y S V C  +  Y T M O
.PG
YSVC
;
;
;
;
YTMO
.EC
.TI H A U P T P R O G R A M M
.PG
;--------------------------------------------------------
;
;  HAUPTPROGRAMM
;  -------------
;
;  DIE HIER VEREINBARTEN BEREICHE UND KONSTANTE WERDEN
;  IN ALLEN PROGRAMMTEILEN VERWENDET.
;
;  PROGRAMMMELDUNG AUSGEBEN
;  AUFRUF "CMDS"
;  PROGRAMM BEENDEN
;
;  VERWENDETE SVC'S: OUT, TERM
;
;--------------------------------------------------------
;
;
.SG P,$800
;
START JMP PRINT;STARTPUNKT
;
SETV .BY $40;FUER SEV-MACRO
SEV        .MD
           BIT SETV
           .ME
;
;
;...... BUFFER ZUR ALLGEMEINEN VERWENDUNG
BUFIN .DS VBFINH+72
BUFOUT .DS VBFINH+79
;
;
PRINT .EQ *
JSR OUTV
SVC OUTEX1
.BY "  es65-PRINT VERS.B.6.6 ON "
SVC OUTDAT
SVC OUTEX1
.BY " AT "
SVC OUTTIM
JSR OUT;PROGRAMM-MELDUNG
;
JSR CMDS;KOMMANDOS VERARBEITEN
;
LDA #$01
SVC TERM;PROGRAMM BEENDEN
;
.TI ALLGEMEINE UNTERPROGRAMME - AUSGABE
.PG
;--------------------------------------------------------
;
;  ALLGEMEINE UNTERPROGRAMME - AUSGABE
;  -----------------------------------
;
;  OUTV          BUFOUT FUER OUT-SVC'S VORBEREITEN
;  OUT           BUFOUT NACH SYSOUT AUSGEBEN
;  OUTERROR      FEHLERMELDUNG NACH SYSOUT AUSGEBEN
;
;  VERWENDETE SVC'S: OUT, SYSOUT, TERM
;
;--------------------------------------------------------
;
OUTV .EQ *
PHA
TYA
PHA ;REGISTER GERETTET
LDA #VBFINH+79
STA BUFOUT+VBFLNG;BUFFERLAENGE SETZEN
SVC SETADO+$80
.AD BUFOUT;OUT-ADRESSE
SVC OUTJUS;ZEIGER RICHTEN
SVC OUTEX1
.BY "1";VORSCHUB
PLA
TAY
PLA
RTS
;
;
SOC .AD BUFOUT
.AD 0
.AD 0
;
OUT .EQ *
PHA
TYA
PHA
TXA
PHA
LDX #WRITE
SVC SYSOUT+$80
.AD SOC
BVC *+4
SVC TERM;SYSOUT-FEHLER
PLA
TAX
PLA
TAY
PLA
RTS
;
;
OUTERROR .EQ *
JSR OUTV
TAX;FEHLERCODE
SVC OUTERR+$80
.AD 0;KEINE BENUTZER-FEHLER
JSR OUT
RTS
;
.TI C M D S  -  KOMMANDOBEARBEITUNG
.PG
;--------------------------------------------------------
;
;  C M D S  -  KOMMANDOBEARBEITUNG
;  -------------------------------
;
;  JEWEILS EIN KOMMANDO WIRD GELESEN UND DAS ZUGEHOERIGE
;  UNTERPROGRAMM AUFGERUFEN.
;  DIE KOMMANDOS 'END' UND 'S:' WERDEN DIREKT
;  BEARBEITET.
;
;  VERWENDETE SVC'S: SYSIN, TERM, IN, CMD
;
;--------------------------------------------------------
;
CMDS/CMDOS .BY 'S:',$FE,$FF
.BY 'E',$FE,'ND',$FF
.BY 'P',$FE,'RINT',$FF
.BY $FF
CMDS/SPRNG .AD 0;S:
.AD 0;END
.AD SEND;PRINT
;
CMDS/SIC .AD BUFIN
.AD 0
;
;...... HILFSZELLEN
.SG Z
CMDS/ADR .DS 2;FUER JSR ()
.SG P
;
;
CMDS .EQ *
;...... ZEILE VON SYSIN LESEN
CMDS.LOOP LDA #VBFINH+72
STA BUFIN+VBFLNG;BUFFERLAENGE
LDX #READ
SVC SYSIN+$80
.AD CMDS/SIC;ZEILE VON SYSIN
BVC *+4
SVC TERM;SYSIN-FEHLER
;...... VORBEREITEN FUER IN-SVC'S
SVC SETADI+$80
.AD BUFIN;IN-ADRESSE
LDA #%11000000
SVC INJUS;BLANKS WEG
SVC INUPC;KLEINBUCHSTABEN UMW.
;
;...... KOMMANDOWORT INTERPRETIERN
SVC INTEX+$80
.AD CMDS/CMDOS;KOMMANDOWORT
BVC CMDS.10;...OK
LDA #$A0;ILL CMD
JSR OUTERROR
JMP CMDS.LOOP
;
;...... KOMMANDOS "S:" UND "END"
CMDS.10 CMP #0;S:-KOMMANDO?
BNE CMDS.11;...NEIN
SVC CMD;MONITOR-CMD
BVC *+5
JSR OUTERROR
JMP CMDS.LOOP
CMDS.11 CMP #1;END-KOMMANDO?
BNE CMDS.12;...NEIN
SVC INEND
BVS *+3
RTS ;ENDE VON  C M D S
LDA #$A1
JSR OUTERROR
JMP CMDS.LOOP
;
;...... CMD-UP-ADRESSE IN CMDS/ADR
CMDS.12 ASL A
TAX
LDA CMDS/SPRNG,X
STA :CMDS/ADR
LDA CMDS/SPRNG+1,X
STA :CMDS/ADR+1
;...... TEST BLANKS NACH CMD-WORT
SVC INCH;NAECHSTES ZEICHEN
BVS CMDS.50;BUFFERENDE
CMP #$20;BLANK?
BEQ CMDS.20;...OK
LDA #$A0;ILL CMD
JSR OUTERROR
JMP CMDS.LOOP
;
CMDS.20 LDA #$20;BLANK UEBERLESEN
SVC INCK
BVC CMDS.20
;
CMDS.50 JSR CMDS.JSR;JSR (CMDS/ADR)
BVC CMDS.LOOP
JSR OUTERROR
JMP CMDS.LOOP
;
CMDS.JSR JMP (CMDS/ADR)
;
