;+++++ DSECT  A C I A
YACI .MD
.SG Y,0
VDAACI .DS 1
VSTACI .DS 1
VCDACI .DS 1
VCTACI .DS 1
.ME
;
;++++++ DSECT  V I A
YVIA .MD
.SG Y,0
VIAORB .DS 1
VIAORA .DS 1
VIADRB .DS 1
VIADRA .DS 1
VIACL1 .DS 1
VIACH1 .DS 1
VIALL1 .DS 1
VIALH1 .DS 1
VIALL2 .DS 1
VIACH2 .DS 1
VIASRG .DS 1
VIAACR .DS 1
VIAPCR .DS 1
VIAIFR .DS 1
VIAIER .DS 1
VIAOR1 .DS 1
.ME
;
;+++++ DSECT  F L O P P Y - CONTROLLER
YFLP .MD
.SG Y,0
FCCSTA .EQ *
FCCCMD .DS 1
FCCTRC .DS 1
FCCSEC .DS 1
FCCDAT .DS 1
FCCSTE .DS 1
.ME
;
;+++++ FLOPPY-CONTROLLER - B E F E H L E
YFLB .MD
FBREST .EQ %00000000 ;RESTORE
FBSEEK .EQ %00010000 ;SEEK
FBSTEP .EQ %01010000 ;STEP
FBREAS .EQ %10000100 ;READ SECTOR
FBWRIS .EQ %10100100 ;WRITE SECTOR
FBREAT .EQ %11100100 ;READ TRACK
FBWRIT .EQ %11110100 ;WRITE TRACK
;
FBHDL  .EQ %00001000 ;HEAD-LOAD
FBVER  .EQ %00000100 ;VERIFY
FB12MS .EQ %00000001 ;12 MSEC
.ME
;
