;*************************************
;**                                 **
;**      M U C - P R O M            **
;**                                 **
;*************************************
;
;-  VARIANTEN (UEBER @)
;-
;-    0   LEERES MUC-PROM
;-    1   BERANEK MUC-PROM
;-    2   ERTL MUC-PROM
;-
;
.IP @-3;KONTROLLE
;...... ABBRUCH
ENDE.ABB .EQ ABBRUCH
.CE
;
;
;- BEINHALTET:
;-   VERSCHIEDENE TABELLEN
;-   FEHLERTEXTE
;-
.TI ES65-MUC-PROM
.PG
.SG A,$FC00
;
VSET .BY $40
VTABHX .BY '0123456789ABCDEF'
VDRVCO .BY %01000000,%00100000,%00010000
.BY %00000100,%00000010
VMAPLI .BY $FE,$FD,$FB,$F7,$EF,$DF,$BF,$7F
VBITS .BY $01,$02,$04,$08,$10,$20,$40,$80
;
VTCB1 .BY $7E,$01
.AD $F814
.AD $F810
.AD $F818
VTCB2 .BY $7D,$02
.AD $F824
.AD $F820
.AD $F828
VTCB3 .BY $7B,$03
.AD $F834
.AD $F830
.AD $F838
VTCB4 .BY $77,$04
.AD $F844
.AD $F840
.AD $F848
VTCB5 .BY $6F,$05
.AD $F854
.AD $F850
.AD $F858
VTCB6 .BY $5F,$06
.AD $F864
.AD $F860
.AD $F868
VTCBE .BY $3F,$47
.AD $FFFF
.AD $FFFF
.AD $FFFF
;
WTHSFT .EQ *
.BY $15;BS
.BY $06;CVOR
.BY $5F;DUP
.BY $0D;ENTER
.BY $0A;RESET
.BY $1A;ENDL
.BY $7F;CLEAR
.BY $5B;DEL
.BY $5D;INS
.BY $5E;TAB
.BY $14;STAB
.BY $03;CLTAB
.BY $5C;DUPTAB
.BY $13;SLOW
.BY $1B;ESCAPE
.BY $20;STOP
.BY $20;START
.BY 20+1;--THVIDL
.BY 20+1;--THVIDC
.BY $FF;--THSPAC
.BY $00;--THSLOS
.BY $00;--THSTPS
.BY $00;--THUPCS
;
WPHDFN .BY 80;CHAR/ZEILE
.BY 0;SHIFT
.BY 72;ZEILEN/SEITE 0='H'
.BY 3;KOPFZEILE ODER 0
.BY 7;1.DATENZEILE
.BY 62;ANZAHL DATENZEILEN
;
VTSTEP .BY $FF;12 MSEC STEP-TIME
;
.BY $FF;FILLER
;
VMYTBE .AD $F8D4
.AD $F8D5
.AD $F8D6
.AD $F8D7
VMYTBA .AD $F8DC
.AD $F8DD
.AD $F8DE
.AD $F8DF
;
VERRTE .EQ *
.BY $02,"END OF FILE"
.BY $03,"STACK OVERFLOW"
.BY $06,"ERRFLAG SET"
.BY $07,"MEMORY NOT AVAILABLE"
.BY $09,"ESCAPED"
.BY $10,"ENTER BUSY"
.BY $12,"IN ENTER NOT ALLOWED"
.BY $13,"IN MULTI-USER NOT ALLOWED"
.BY $21,"NOT OR WRONG MOUNTED"
.BY $22,"WRONG FLOPPY-NAME"
.BY $30,"TSYS INOP"
.BY $A0,"ILLEGAL CMD"
.BY $A1,"ILLEGAL PARAMS"
.BY $A4,"OUT OF MEMORY"
.BY $A5,"UNRESOLVED EXTERNS"
.BY $A7,"MODUL WITH ERRORS"
.BY $A8,"PC > $FF"
.BY $A9,"PC > $FFFF"
.BY $AA,"MEMORY ERROR"
.BY $B0,"NOT IN CATALOG"
.BY $B1,"ILLEGAL FILE-TYP"
.BY $B2,"LAST VERSION"
.BY $C0,"DEVICE BUSY"
.BY $C1,"DEVICE INOP"
.BY $C3,"CRC ERROR"
.BY $C5,"WRITE PROTECTED"
.BY $C7,"FLOPPY FULL"
.BY $CB,"FILE IS LOCKED"
.BY $D1,"COPY ERROR"
.BY $D2,"ERASE ERROR"
.BY $D3,"DISMOUNT ERROR"
.BY $D4,"PREFIX ERROR"
.BY $E9,"SYS-MEMORY OVERFLOW"
.BY $F4,"SEEK ERROR"
.BY $F5,"SECTOR NOT FOUND"
.BY $F7,"FLOPPY NOT FORMATED"
.BY $FF
;
.PG
.FI $FF,$FF00
;
.IE @-2 ;ERTL?
;......... ERTL
;
STA $F8D1;WARTESCHLEIFE
JMP $FF00;FUER UMSCHALTEN
.BY $FF;FILLER
;
VKNDNA .BY 'ERTL    '
VKNDCD .BY $00,$00
;
VCMDZC .BY $FF
;
VTHSFT .EQ *
.BY $08;BS
.BY $15;CVOR
.BY $5F;DUP
.BY $0D;ENTER
.BY $7E;RESET
.BY $0A;ENDL
.BY $18;CLEAR
.BY $7B;DEL
.BY $7D;INS
.BY $09;TAB
.BY $14;STAB
.BY $12;CLTAB
.BY $7F;DUPTAB
.BY $13;SLOW
.BY $1B;ESCAPE
.BY $20;STOP
.BY $20;START
.BY 20+1;--THVIDL
.BY 20+1;--THVIDC
.BY $00;--THSPAC
.BY $00;--THSLOS
.BY $00;--THSTPS
.BY $FF;--THUPCS
;
VPHDFN .BY 120;CHAR/ZEILE
.BY 0;SHIFT
.BY 0;ZEILEN/SEITE 0='H'
.BY 3;KOFZEILE
.BY 5;1.DATENZEILE
.BY 65;ANZAHL DATENZEILEN
;
.CE
;
.IE @-1
;......... BERANEK
;
STA $F8D1;OUTIDF
JMP $FF00 ;WARTESCHLEIFE FUER UMSCHALTEN
.BY $FF;FILLER
;
VKNDNA .BY 'BERANEK '
VKNDCD .BY $00,$00
;
VCMDZC .BY '`'
;
VTHSFT .EQ *
.BY $08;BS
.BY $15;CVOR
.BY $1F;DUP
.BY $0D;ENTER
.BY $0C;RESET
.BY $1A;ENDL
.BY $18;CLEAR
.BY $06;DEL
.BY $04;INS
.BY $09;TAB
.BY $1C;STAB
.BY $1D;CLTAB
.BY $1E;DUPTAB
.BY $13;SLOW
.BY $7F;ESCAPE
.BY $20;STOP
.BY $0D;START
.BY 20+1;--THVIDL
.BY 20+1;--THVIDC
.BY $00;--THSPAC
.BY $00;--THSLOS
.BY $00;--THSTPS
.BY $FE;--THUPCS
;
VPHDFN .BY 80;CHAR/ZEILE
.BY 0;SHIFT
.BY 0;ZEILEN/SEITE 0='H'
.BY 8;KOFZEILE
.BY 10;1.DATENZEILE
.BY 54;ANZAHL DATENZEILEN
;
.CE
;
.IE @
;.......... LEERES MUC-PROM
;
.FI $FF,*+6
.BY $FF;FILLER
;
VKNDNA .BY $FF,$FF,$FF,$FF,$FF,$FF,$FF,$FF
VKNDCD .BY $FF,$FF
;
VCMDZC .BY $FF
;
VTHSFT .EQ *
.BY $FF;BS
.BY $FF;CVOR
.BY $FF;DUP
.BY $FF;ENTER
.BY $FF;RESET
.BY $FF;ENDL
.BY $FF;CLEAR
.BY $FF;DEL
.BY $FF;INS
.BY $FF;TAB
.BY $FF;STAB
.BY $FF;CLTAB
.BY $FF;DUPTAB
.BY $FF;SLOW
.BY $FF;ESCAPE
.BY $FF;STOP
.BY $FF;START
.BY $FF;--THVIDL
.BY $FF;--THVIDC
.BY $FF;--THSPAC
.BY $FF;--THSLOS
.BY $FF;--THSTPS
.BY $FF;--THUPCS
;
VPHDFN .BY $FF;CHAR/ZEILE
.BY $FF;SHIFT
.BY $FF;ZEILEN/SEITE 0='H'
.BY $FF;KOFZEILE
.BY $FF;1.DATENZEILE
.BY $FF;ANZAHL DATENZEILEN
;
;
.CE
;
.PG
;*****************************
;**                         **
;**     V E K T O R E N     **
;**                         **
;*****************************
;
.FI $FF,$FFE0
.AD $8003
.AD $8006
.AD $8009
.AD $800C
.AD $800F
.AD $8012
.AD $8015
.AD $8018
;
.AD $F7A0
.AD $F7D0
.AD $801B
.AD $801B
;
.AD $FFFF
.AD $FFFF
.AD $8000
.AD $8000
;
.LC
.EN
